                  ___                
This is MUSCOD-II (Release 6.0, Revision unknown) |\    /| |    | /   \ 000000        
Copyright (C) 1995--2011, Simulation and Optimization Group |  \/  | |    | `---.       000     
 |      |  \__/  \___/          00   
Interdisciplinary Center for Scientific Computing (IWR)                                  00 
University of Heidelberg, Germany 00               | |              00
 00               | |              00
 + MS-MINTOC extensions for mixed-integer optimal control  00              ___    ___    ___  
 + PRSQP Partially Reduced SQP Version [ ]    00           /   \  /   \  |   \ 
 + Algorithmic Extensions [ CLSQ LSQ ]      000       |      |     | |    |
         000000  \___/  \___/  |___/ 


>>>>  Dimensions of structured NLP problem:
                   # of discretization points NDIS =        31
                               # of variables NVAR =      1678
                    # of equality constraints NEQ  =      1421 (1412 + 9)
                  # of inequality constraints NIN  =      4556 (1200 + 1678*2)

>>>>  Parameters of MSSQP method:
                final accuracy of NLP solution ACC =  1.00E-06
                 initial integration tolerance     =  1.00E-08
  # of homotopy steps in integration tolerance     =         0
                   final integration tolerance TOL =  1.00E-08
    regularization factor (as multiple of ACC)     =  0.00E+00
    Levenberg Marquardt hessian regularization     =  0.00E+00
                   maximum # of SQP iterations     =       300
(no constraint relaxation)
RECALC_QP (1 of max 5; number of possible active bounds sd = 30, sa = 0)
(no constraint relaxation)
RECALC_QP (2 of max 5; number of possible active bounds sd = 65, sa = 0)
(no constraint relaxation)

>>>>  Parameters of Hessian approximation method (BFGS update with Powell modification):
                              initial trust radius =   9.90016
                   initial diagonal scaling factor =  0.527991

>>>>  SQP iterations

 it qpit qpf   kkttol          sobj   |sinf|  |vstep|  |vstpr| |mulstp|       |lgrd|    alpha         merit crit stat
  0                    1.277238E-02 4.00E+00


****
**** SQP iteration 0
****
(no constraint relaxation)
  1   94 A   6.12E-01  2.850688E-01 3.08E-01 4.96E+00 0.00E+00 2.90E+02 4.526888E+00 1.00E+00  1.163039E+01  REL SUCC


****
**** SQP iteration 1
****
(no constraint relaxation)
RECALC_QP (1 of max 5; number of possible active bounds sd = 77, sa = 0)
(no constraint relaxation)
  2   83 A   4.97E-01  7.614893E-01 2.21E-02 1.58E+00 0.00E+00 1.36E+02 2.566109E+01 1.00E+00  1.325018E+00  STD SUCC


****
**** SQP iteration 2
****
(no constraint relaxation)
  3    4 AP  3.85E-02  7.233608E-01 1.59E-03 3.39E-01 0.00E+00 1.48E+02 5.768454E+00 1.00E+00  7.414086E-01  STD SUCC


****
**** SQP iteration 3
****
(no constraint relaxation)
(no constraint relaxation)
(no constraint relaxation)
  4   80 AP  3.08E-01  6.153295E-01 1.26E-02 2.13E+00 0.00E+00 1.16E+01 1.454238E+00 3.57E-01  7.183870E-01  STD SUCC


****
**** SQP iteration 4
****
(no constraint relaxation)
  5   18 AP  9.57E-02  5.227778E-01 1.72E-02 1.18E+00 0.00E+00 1.80E+01 1.879163E+00 1.00E+00  6.825017E-01  STD SUCC


****
**** SQP iteration 5
****
(no constraint relaxation)
  6    9 AP  7.73E-03  5.152423E-01 4.84E-03 5.62E-01 0.00E+00 1.18E+01 1.746609E+00 1.00E+00  5.434806E-01  STD SUCC


****
**** SQP iteration 6
****
(no constraint relaxation)
(no constraint relaxation)
(no constraint relaxation)
  7   81 AP  1.04E-01  4.822915E-01 1.02E-02 1.06E+00 0.00E+00 9.65E+00 1.202934E+00 3.19E-01  5.402076E-01  STD SUCC


****
**** SQP iteration 7
****
(no constraint relaxation)
  8    6 AP  3.24E-03  4.790695E-01 4.60E-03 5.36E-01 0.00E+00 9.39E+00 1.228890E+00 1.00E+00  5.118217E-01  STD SUCC


****
**** SQP iteration 8
****
(no constraint relaxation)
(no constraint relaxation)
The upper constraint bound 1209 is violated by more than feasibilty tolerance: UB -0.000128729 - var -0.000128729 = -2.71051e-19
The lower constraint bound 1211 is violated by more than feasibilty tolerance: var 9.22631e-05 - LB 9.22631e-05 = 1.87025e-18
The upper constraint bound 1212 is violated by more than feasibilty tolerance: UB -2.38755e-05 - var -2.38755e-05 = -7.75882e-19
The upper constraint bound 1213 is violated by more than feasibilty tolerance: UB -0.000103496 - var -0.000103496 = -1.32815e-18
The lower constraint bound 1215 is violated by more than feasibilty tolerance: var -3.41637e-05 - LB -3.41637e-05 = -5.28549e-19
The lower constraint bound 1218 is violated by more than feasibilty tolerance: var 0.000142199 - LB 0.000142199 = -1.87025e-18
The lower constraint bound 1219 is violated by more than feasibilty tolerance: var 8.04008e-05 - LB 8.04008e-05 = 6.77626e-20
The lower constraint bound 1220 is violated by more than feasibilty tolerance: var 0.000141123 - LB 0.000141123 = -1.35525e-18
The lower constraint bound 1221 is violated by more than feasibilty tolerance: var 0.000127108 - LB 0.000127108 = -5.69206e-19
The lower constraint bound 1223 is violated by more than feasibilty tolerance: var 0.00037611 - LB 0.00037611 = -1.46367e-18
The lower constraint bound 1225 is violated by more than feasibilty tolerance: var 0.000336525 - LB 0.000336525 = -3.79471e-19
The lower constraint bound 1227 is violated by more than feasibilty tolerance: var 0.000432175 - LB 0.000432175 = -6.28837e-18
The lower constraint bound 1229 is violated by more than feasibilty tolerance: var 0.000430949 - LB 0.000430949 = -4.2826e-18
The lower constraint bound 1230 is violated by more than feasibilty tolerance: var 0.000152463 - LB 0.000152463 = 4.87891e-19
The lower constraint bound 1232 is violated by more than feasibilty tolerance: var 0.000150608 - LB 0.000150608 = -7.31836e-19
The lower constraint bound 1233 is violated by more than feasibilty tolerance: var 9.85962e-05 - LB 9.85962e-05 = 2.71051e-20
The upper constraint bound 1249 is violated by more than feasibilty tolerance: UB -0.000100952 - var -0.000100952 = -6.23416e-19
(no constraint relaxation)
  9  103 AP  2.48E-02  4.596283E-01 9.54E-03 5.20E-01 0.00E+00 1.08E+01 9.767786E-01 7.82E-01  5.096223E-01  STD SUCC


****
**** SQP iteration 9
****
(no constraint relaxation)

 it qpit qpf   kkttol          sobj   |sinf|  |vstep|  |vstpr| |mulstp|       |lgrd|    alpha         merit crit stat
 10    7 AP  1.24E-02  4.720512E-01 3.34E-03 5.17E-01 0.00E+00 7.51E+00 7.705669E-01 1.00E+00  4.890684E-01  STD SUCC


****
**** SQP iteration 10
****
(no constraint relaxation)
(no constraint relaxation)
(no constraint relaxation)
 11   88 AP  6.49E-02  4.449284E-01 6.52E-03 1.19E+00 0.00E+00 5.36E+00 5.977498E-01 4.17E-01  4.872355E-01  STD SUCC


****
**** SQP iteration 11
****
(no constraint relaxation)
 12    5 AP  8.99E-03  4.538822E-01 2.76E-03 4.52E-01 0.00E+00 4.57E+00 7.682213E-01 1.00E+00  4.700932E-01  STD SUCC


****
**** SQP iteration 12
****
(no constraint relaxation)
 13    9 AP  2.33E-02  4.307218E-01 5.38E-03 6.82E-01 0.00E+00 4.06E+00 6.416090E-01 1.00E+00  4.668100E-01  STD SUCC


****
**** SQP iteration 13
****
(no constraint relaxation)
 14    5 AP  9.57E-03  4.402531E-01 1.57E-03 2.96E-01 0.00E+00 4.64E+00 7.424865E-01 1.00E+00  4.494824E-01  STD SUCC


****
**** SQP iteration 14
****
(no constraint relaxation)
 15   10 AP  2.90E-03  4.373750E-01 3.25E-03 4.92E-01 0.00E+00 4.91E+00 4.493750E-01 1.00E+00  4.473692E-01  STD SUCC


****
**** SQP iteration 15
****
(no constraint relaxation)
(no constraint relaxation)
(no constraint relaxation)
The upper constraint bound 1213 is violated by more than feasibilty tolerance: UB -0.000604151 - var -0.000604151 = -3.23201e-16
The lower constraint bound 1218 is violated by more than feasibilty tolerance: var 0.000584428 - LB 0.000584428 = -1.33465e-16
The lower constraint bound 1220 is violated by more than feasibilty tolerance: var 0.000593318 - LB 0.000593318 = -2.4568e-16
The lower constraint bound 1223 is violated by more than feasibilty tolerance: var 0.000220073 - LB 0.000220073 = -5.1009e-16
The lower constraint bound 1225 is violated by more than feasibilty tolerance: var 0.000223181 - LB 0.000223181 = -5.43239e-16
The lower constraint bound 1227 is violated by more than feasibilty tolerance: var 0.000448841 - LB 0.000448841 = -4.66803e-16
The lower constraint bound 1229 is violated by more than feasibilty tolerance: var 0.000521654 - LB 0.000521654 = -5.23128e-16
The lower constraint bound 1230 is violated by more than feasibilty tolerance: var 0.000605414 - LB 0.000605414 = -1.73472e-16
The lower constraint bound 1232 is violated by more than feasibilty tolerance: var 0.000612951 - LB 0.000612951 = -1.99818e-16
RECALC_QP (1 of max 5; number of possible active bounds sd = 87, sa = 0)
(no constraint relaxation)
 16  147 A   6.89E-03  4.438640E-01 1.90E-04 5.28E-01 0.00E+00 2.59E+00 4.806868E-01 1.00E+00  4.445423E-01  STD SUCC


****
**** SQP iteration 16
****
(no constraint relaxation)
 17   12 AP  1.47E-02  4.296104E-01 1.12E-03 2.70E-01 0.00E+00 3.01E+00 5.334268E-01 1.00E+00  4.361570E-01  STD SUCC


****
**** SQP iteration 17
****
(no constraint relaxation)
RECALC_QP (1 of max 5; number of possible active bounds sd = 89, sa = 0)
(no constraint relaxation)
(no constraint relaxation)
(no constraint relaxation)
 18  128 AP  2.30E-03  4.282522E-01 1.32E-03 7.10E-01 0.00E+00 2.93E+00 4.362058E-01 5.94E-01  4.361207E-01  STD SUCC


****
**** SQP iteration 18
****
(no constraint relaxation)
 19    9 AP  1.52E-03  4.267441E-01 2.69E-03 3.80E-01 0.00E+00 3.30E+00 5.184551E-01 1.00E+00  4.314967E-01  STD SUCC


****
**** SQP iteration 19
****
(no constraint relaxation)
(no constraint relaxation)
(no constraint relaxation)
The lower constraint bound 1223 is violated by more than feasibilty tolerance: var 0.000531256 - LB 0.000531256 = 2.43945e-17
The lower constraint bound 1225 is violated by more than feasibilty tolerance: var 0.000537199 - LB 0.000537199 = 1.79978e-16
The lower constraint bound 1227 is violated by more than feasibilty tolerance: var 0.000761591 - LB 0.000761591 = 1.09613e-16
The lower constraint bound 1229 is violated by more than feasibilty tolerance: var 0.000871178 - LB 0.000871178 = -1.23599e-17

 it qpit qpf   kkttol          sobj   |sinf|  |vstep|  |vstpr| |mulstp|       |lgrd|    alpha         merit crit stat
 20  103 AP  7.55E-03  4.246002E-01 1.91E-03 1.16E+00 0.00E+00 4.02E+00 2.894053E-01 2.85E-01  4.293132E-01  STD SUCC


****
**** SQP iteration 20
****
(no constraint relaxation)
(no constraint relaxation)
The upper constraint bound 1208 is violated by more than feasibilty tolerance: UB 0.000376483 - var 0.000376483 = -2.71051e-19
The upper constraint bound 1209 is violated by more than feasibilty tolerance: UB -0.00120626 - var -0.00120626 = -6.50521e-19
The upper constraint bound 1210 is violated by more than feasibilty tolerance: UB 0.000184621 - var 0.000184621 = -8.13152e-20
The lower constraint bound 1211 is violated by more than feasibilty tolerance: var 0.000937168 - LB 0.000937168 = -4.33681e-19
The upper constraint bound 1212 is violated by more than feasibilty tolerance: UB -0.0004498 - var -0.0004498 = -2.71051e-19
The upper constraint bound 1213 is violated by more than feasibilty tolerance: UB -0.00188507 - var -0.00188507 = -2.81893e-18
The lower constraint bound 1215 is violated by more than feasibilty tolerance: var -0.000240178 - LB -0.000240178 = 1.89735e-19
The lower constraint bound 1218 is violated by more than feasibilty tolerance: var 0.00168774 - LB 0.00168774 = -1.73472e-18
The lower constraint bound 1219 is violated by more than feasibilty tolerance: var 0.00214203 - LB 0.00214203 = 1.73472e-18
The lower constraint bound 1220 is violated by more than feasibilty tolerance: var 0.001728 - LB 0.001728 = -1.0842e-18
The lower constraint bound 1221 is violated by more than feasibilty tolerance: var 0.00230892 - LB 0.00230892 = 8.67362e-19
The lower constraint bound 1223 is violated by more than feasibilty tolerance: var 0.000690755 - LB 0.000690755 = 1.30104e-18
The lower constraint bound 1225 is violated by more than feasibilty tolerance: var 0.000662945 - LB 0.000662945 = 1.40946e-18
The lower constraint bound 1227 is violated by more than feasibilty tolerance: var 0.00152828 - LB 0.00152828 = 4.33681e-19
The lower constraint bound 1229 is violated by more than feasibilty tolerance: var 0.00176779 - LB 0.00176779 = -2.81893e-18
The lower constraint bound 1230 is violated by more than feasibilty tolerance: var 0.00179721 - LB 0.00179721 = -8.67362e-19
The lower constraint bound 1232 is violated by more than feasibilty tolerance: var 0.00183386 - LB 0.00183386 = -1.51788e-18
The lower constraint bound 1235 is violated by more than feasibilty tolerance: var 0.000677209 - LB 0.000677209 = -1.0842e-19
The upper constraint bound 1249 is violated by more than feasibilty tolerance: UB -0.000297195 - var -0.000297195 = -1.13841e-18
(no constraint relaxation)
The upper constraint bound 1210 is violated by more than feasibilty tolerance: UB 5.99823e-05 - var 7.22263e-05 = -1.2244e-05
The upper constraint bound 1212 is violated by more than feasibilty tolerance: UB -0.000160867 - var -0.000160867 = -8.48388e-18
The upper constraint bound 1213 is violated by more than feasibilty tolerance: UB -0.000657469 - var -0.000657469 = 4.93312e-17
The lower constraint bound 1218 is violated by more than feasibilty tolerance: var 0.000596876 - LB 0.000587114 = 9.76195e-06
The lower constraint bound 1219 is violated by more than feasibilty tolerance: var 0.000623047 - LB 0.000623047 = -1.22298e-16
The lower constraint bound 1220 is violated by more than feasibilty tolerance: var 0.000597286 - LB 0.000597286 = -5.91974e-17
The lower constraint bound 1221 is violated by more than feasibilty tolerance: var 0.000657441 - LB 0.000657441 = -1.44199e-17
The lower constraint bound 1223 is violated by more than feasibilty tolerance: var 0.000383711 - LB 0.000383711 = 4.91144e-17
The lower constraint bound 1225 is violated by more than feasibilty tolerance: var 0.000391801 - LB 0.000391801 = 1.87025e-17
The lower constraint bound 1227 is violated by more than feasibilty tolerance: var 0.000540183 - LB 0.000547823 = -7.64051e-06
The lower constraint bound 1229 is violated by more than feasibilty tolerance: var 0.000626878 - LB 0.000626878 = 2.72135e-17
The lower constraint bound 1230 is violated by more than feasibilty tolerance: var 0.000621951 - LB 0.000616666 = 5.28486e-06
The lower constraint bound 1232 is violated by more than feasibilty tolerance: var 0.000630458 - LB 0.000625648 = 4.80992e-06
The lower constraint bound 1235 is violated by more than feasibilty tolerance: var 0.00019398 - LB 0.00019398 = 3.84079e-17
The upper constraint bound 1249 is violated by more than feasibilty tolerance: UB -0.000127011 - var -0.000127011 = -4.53468e-17
 21  124 AP  2.24E-03  4.268173E-01 7.46E-04 6.27E-01 0.00E+00 1.87E+01 7.130093E-01 1.00E+00  4.282411E-01  STD SUCC


****
**** SQP iteration 21
****
(no constraint relaxation)
 22   27 AP  1.03E-02  4.165389E-01 4.32E-04 1.36E-01 0.00E+00 1.94E+01 8.395899E+00 1.00E+00  4.191603E-01  STD SUCC


****
**** SQP iteration 22
****
(no constraint relaxation)
(no constraint relaxation)
(no constraint relaxation)
 23   77 AP  3.16E-02  4.128878E-01 8.69E-04 4.63E-01 0.00E+00 2.99E+00 3.815460E-01 1.16E-01  4.189446E-01  STD SUCC


****
**** SQP iteration 23
****
(no constraint relaxation)
 24    7 AP  2.35E-03  4.152264E-01 7.85E-04 2.24E-01 0.00E+00 2.71E+00 4.529270E-01 1.00E+00  4.175593E-01  STD SUCC


****
**** SQP iteration 24
****
(no constraint relaxation)
(no constraint relaxation)
The lower constraint bound 1223 is violated by more than feasibilty tolerance: var 0.000332799 - LB 0.000332799 = -1.0842e-18
The lower constraint bound 1225 is violated by more than feasibilty tolerance: var 0.000269697 - LB 0.000269697 = -5.96311e-19
The lower constraint bound 1227 is violated by more than feasibilty tolerance: var 0.000261619 - LB 0.000261619 = -4.87891e-19
The lower constraint bound 1229 is violated by more than feasibilty tolerance: var 0.000324341 - LB 0.000324341 = -8.67362e-19
The lower constraint bound 1230 is violated by more than feasibilty tolerance: var 0.000520267 - LB 0.000520267 = -2.1684e-19
The lower constraint bound 1232 is violated by more than feasibilty tolerance: var 0.000532651 - LB 0.000532651 = 2.1684e-19
(no constraint relaxation)
 25   94 AP  9.20E-04  4.161448E-01 7.96E-05 3.82E-01 0.00E+00 1.41E+00 2.260975E-01 1.00E+00  4.162688E-01  STD SUCC


****
**** SQP iteration 25
****
(no constraint relaxation)
 26    3 AP  4.21E-03  4.119425E-01 4.99E-04 1.64E-01 0.00E+00 2.18E+00 4.041828E-01 1.00E+00  4.141783E-01  STD SUCC


****
**** SQP iteration 26
****
(no constraint relaxation)
 27    5 AP  3.22E-04  4.122621E-01 9.37E-04 2.51E-01 0.00E+00 5.79E-01 2.133590E-01 1.00E+00  4.137161E-01  STD SUCC


****
**** SQP iteration 27
****
(no constraint relaxation)
 28    2 AP  2.30E-04  4.120336E-01 2.84E-04 1.77E-01 0.00E+00 7.57E-01 1.139812E-01 1.00E+00  4.124496E-01  STD SUCC


****
**** SQP iteration 28
****
(no constraint relaxation)
 29    5 AP  5.65E-04  4.114688E-01 1.29E-04 1.95E-01 0.00E+00 8.59E-01 1.198141E-01 1.00E+00  4.117545E-01  STD SUCC


****
**** SQP iteration 29
****
(no constraint relaxation)

 it qpit qpf   kkttol          sobj   |sinf|  |vstep|  |vstpr| |mulstp|       |lgrd|    alpha         merit crit stat
 30    2 AP  4.77E-04  4.109926E-01 2.01E-04 2.50E-01 0.00E+00 5.25E-01 1.090039E-01 1.00E+00  4.113704E-01  STD SUCC


****
**** SQP iteration 30
****
(no constraint relaxation)
 31    5 AP  1.88E-04  4.108054E-01 2.65E-04 2.07E-01 0.00E+00 6.89E-01 7.684725E-02 1.00E+00  4.111613E-01  STD SUCC


****
**** SQP iteration 31
****
(no constraint relaxation)
 32    4 AP  2.68E-04  4.105379E-01 4.17E-04 2.22E-01 0.00E+00 5.72E-01 9.325006E-02 1.00E+00  4.110120E-01  STD SUCC


****
**** SQP iteration 32
****
(no constraint relaxation)
 33    3 AP  3.29E-04  4.102103E-01 5.66E-04 2.74E-01 0.00E+00 5.29E-01 7.894338E-02 1.00E+00  4.108469E-01  STD SUCC


****
**** SQP iteration 33
****
(no constraint relaxation)
 34    2 AP  3.27E-04  4.098845E-01 6.73E-04 3.21E-01 0.00E+00 4.94E-01 8.960912E-02 1.00E+00  4.107698E-01  STD SUCC


****
**** SQP iteration 34
****
(no constraint relaxation)
 35    3 AP  2.59E-04  4.096258E-01 3.68E-04 1.39E-01 0.00E+00 5.48E-01 9.389669E-02 1.00E+00  4.101368E-01  STD SUCC


****
**** SQP iteration 35
****
(no constraint relaxation)
 36    2 AP  6.94E-05  4.096947E-01 2.85E-05 1.13E-01 0.00E+00 3.39E-01 1.192373E-01 1.00E+00  4.097618E-01  STD SUCC


****
**** SQP iteration 36
****
(no constraint relaxation)
 37    1  P  2.04E-04  4.094908E-01 8.01E-05 1.71E-01 0.00E+00 5.41E-01 8.535259E-02 1.00E+00  4.096354E-01  STD SUCC


****
**** SQP iteration 37
****
(no constraint relaxation)
 38    3 AP  9.08E-05  4.094000E-01 5.93E-05 1.43E-01 0.00E+00 2.41E-01 6.479519E-02 1.00E+00  4.094745E-01  STD SUCC


****
**** SQP iteration 38
****
(no constraint relaxation)
 39    2 AP  4.56E-04  4.089447E-01 3.65E-04 3.49E-01 0.00E+00 2.07E-01 5.237777E-02 1.00E+00  4.094069E-01  STD SUCC


****
**** SQP iteration 39
****
(no constraint relaxation)

 it qpit qpf   kkttol          sobj   |sinf|  |vstep|  |vstpr| |mulstp|       |lgrd|    alpha         merit crit stat
 40    2 AP  1.41E-04  4.088035E-01 1.47E-04 2.40E-01 0.00E+00 2.93E-01 5.533002E-02 1.00E+00  4.089950E-01  STD SUCC


****
**** SQP iteration 40
****
(no constraint relaxation)
 41    1  P  2.65E-04  4.085388E-01 1.77E-04 3.03E-01 0.00E+00 3.14E-01 6.925561E-02 1.00E+00  4.087584E-01  STD SUCC


****
**** SQP iteration 41
****
(no constraint relaxation)
RECALC_QP (1 of max 5; number of possible active bounds sd = 90, sa = 0)
(no constraint relaxation)
(no constraint relaxation)
(no constraint relaxation)
 42  134 AP  1.91E-04  4.087276E-01 5.00E-06 3.74E-01 0.00E+00 3.01E-01 7.257351E-02 1.00E+00  4.087292E-01  STD SUCC


****
**** SQP iteration 42
****
(no constraint relaxation)
 43    3 AP  9.76E-04  4.077522E-01 7.01E-04 1.95E-01 0.00E+00 2.79E-01 8.208855E-02 1.00E+00  4.084520E-01  STD SUCC


****
**** SQP iteration 43
****
(no constraint relaxation)
 44    2 AP  5.36E-04  4.082876E-01 1.75E-05 9.15E-02 0.00E+00 3.06E-01 6.548400E-02 1.00E+00  4.083322E-01  STD SUCC


****
**** SQP iteration 44
****
(no constraint relaxation)
 45    2 AP  1.80E-04  4.081074E-01 1.38E-04 1.77E-01 0.00E+00 1.96E-01 4.759141E-02 1.00E+00  4.083162E-01  STD SUCC


****
**** SQP iteration 45
****
(no constraint relaxation)
 46    1  P  7.82E-05  4.080292E-01 1.10E-04 9.44E-02 0.00E+00 3.56E-01 5.881774E-02 1.00E+00  4.081653E-01  STD SUCC


****
**** SQP iteration 46
****
(no constraint relaxation)
 47    1  P  4.17E-05  4.079875E-01 1.12E-04 1.44E-01 0.00E+00 3.30E-01 4.912730E-02 1.00E+00  4.081483E-01  STD SUCC


****
**** SQP iteration 47
****
(no constraint relaxation)
 48    1  P  9.32E-05  4.078944E-01 1.08E-04 1.37E-01 0.00E+00 1.38E-01 4.309058E-02 1.00E+00  4.080476E-01  STD SUCC


****
**** SQP iteration 48
****
(no constraint relaxation)
 49    2 AP  3.33E-05  4.078612E-01 4.61E-05 1.04E-01 0.00E+00 1.84E-01 4.495627E-02 1.00E+00  4.079272E-01  STD SUCC


****
**** SQP iteration 49
****
(no constraint relaxation)

 it qpit qpf   kkttol          sobj   |sinf|  |vstep|  |vstpr| |mulstp|       |lgrd|    alpha         merit crit stat
 50    1  P  2.27E-05  4.078386E-01 5.81E-06 6.21E-02 0.00E+00 2.60E-01 4.331381E-02 1.00E+00  4.078508E-01  STD SUCC


****
**** SQP iteration 50
****
(no constraint relaxation)
 51    1  P  4.03E-05  4.077983E-01 1.66E-05 9.55E-02 0.00E+00 2.28E-01 4.444376E-02 1.00E+00  4.078291E-01  STD SUCC


****
**** SQP iteration 51
****
(no constraint relaxation)
 52    1  P  4.47E-06  4.077939E-01 4.33E-06 5.05E-02 0.00E+00 1.39E-01 3.448135E-02 1.00E+00  4.078024E-01  STD SUCC


****
**** SQP iteration 52
****
(no constraint relaxation)
 53    1  P  4.67E-05  4.077472E-01 2.21E-05 1.11E-01 0.00E+00 1.74E-01 3.369829E-02 1.00E+00  4.077796E-01  STD SUCC


****
**** SQP iteration 53
****
(no constraint relaxation)
 54    1  P  2.16E-05  4.077256E-01 1.42E-05 8.65E-02 0.00E+00 6.26E-02 3.488190E-02 1.00E+00  4.077464E-01  STD SUCC


****
**** SQP iteration 54
****
(no constraint relaxation)
 55    1  P  4.09E-05  4.076847E-01 1.83E-05 1.07E-01 0.00E+00 1.08E-01 3.533328E-02 1.00E+00  4.077115E-01  STD SUCC


****
**** SQP iteration 55
****
(no constraint relaxation)
 56    2 AP  5.37E-05  4.076311E-01 3.18E-05 1.45E-01 0.00E+00 1.08E-01 3.870491E-02 1.00E+00  4.076705E-01  STD SUCC


****
**** SQP iteration 56
****
(no constraint relaxation)
 57    1  P  1.73E-05  4.076138E-01 1.19E-05 8.49E-02 0.00E+00 1.89E-01 4.354467E-02 1.00E+00  4.076341E-01  STD SUCC


****
**** SQP iteration 57
****
(no constraint relaxation)
 58    1  P  2.32E-05  4.075906E-01 1.12E-05 5.58E-02 0.00E+00 1.18E-01 4.570772E-02 1.00E+00  4.076116E-01  STD SUCC


****
**** SQP iteration 58
****
(no constraint relaxation)
 59    1  P  2.35E-05  4.075672E-01 2.24E-05 6.08E-02 0.00E+00 1.76E-01 4.583201E-02 1.00E+00  4.075981E-01  STD SUCC


****
**** SQP iteration 59
****
(no constraint relaxation)

 it qpit qpf   kkttol          sobj   |sinf|  |vstep|  |vstpr| |mulstp|       |lgrd|    alpha         merit crit stat
 60    1  P  1.62E-05  4.075510E-01 1.70E-05 4.52E-02 0.00E+00 7.82E-02 5.051444E-02 1.00E+00  4.075725E-01  STD SUCC


****
**** SQP iteration 60
****
(no constraint relaxation)
 61    1  P  4.71E-05  4.075039E-01 3.66E-05 7.16E-02 0.00E+00 1.06E-01 4.796562E-02 1.00E+00  4.075532E-01  STD SUCC


****
**** SQP iteration 61
****
(no constraint relaxation)
 62    1  P  5.43E-05  4.074496E-01 3.60E-05 1.01E-01 0.00E+00 1.77E-01 5.161806E-02 1.00E+00  4.075055E-01  STD SUCC


****
**** SQP iteration 62
****
(no constraint relaxation)
 63    1  P  2.30E-05  4.074267E-01 1.45E-05 8.77E-02 0.00E+00 1.34E-01 4.712495E-02 1.00E+00  4.074540E-01  STD SUCC


****
**** SQP iteration 63
****
(no constraint relaxation)
 64    1  P  3.57E-05  4.073910E-01 2.16E-05 1.01E-01 0.00E+00 1.94E-01 3.572368E-02 1.00E+00  4.074239E-01  STD SUCC


****
**** SQP iteration 64
****
(no constraint relaxation)
 65    1  P  2.89E-05  4.073621E-01 2.08E-05 1.16E-01 0.00E+00 1.65E-01 3.238488E-02 1.00E+00  4.073924E-01  STD SUCC


****
**** SQP iteration 65
****
(no constraint relaxation)
 66    1  P  2.10E-05  4.073411E-01 1.50E-05 1.16E-01 0.00E+00 7.92E-02 3.741331E-02 1.00E+00  4.073617E-01  STD SUCC


****
**** SQP iteration 66
****
(no constraint relaxation)
 67    1  P  1.12E-05  4.073299E-01 6.74E-06 7.74E-02 0.00E+00 6.48E-02 3.410891E-02 1.00E+00  4.073402E-01  STD SUCC


****
**** SQP iteration 67
****
(no constraint relaxation)
 68    1  P  7.37E-06  4.073226E-01 2.64E-06 2.69E-02 0.00E+00 1.08E-01 3.359705E-02 1.00E+00  4.073274E-01  STD SUCC


****
**** SQP iteration 68
****
(no constraint relaxation)
 69    1  P  5.26E-06  4.073173E-01 1.34E-06 2.84E-02 0.00E+00 6.01E-02 3.284516E-02 1.00E+00  4.073206E-01  STD SUCC


****
**** SQP iteration 69
****
(no constraint relaxation)

 it qpit qpf   kkttol          sobj   |sinf|  |vstep|  |vstpr| |mulstp|       |lgrd|    alpha         merit crit stat
 70    1  P  7.70E-06  4.073096E-01 1.93E-06 3.89E-02 0.00E+00 3.70E-02 2.746643E-02 1.00E+00  4.073128E-01  STD SUCC


****
**** SQP iteration 70
****
(no constraint relaxation)
 71    1  P  1.86E-05  4.072910E-01 5.29E-06 6.26E-02 0.00E+00 6.71E-02 2.672789E-02 1.00E+00  4.073001E-01  STD SUCC


****
**** SQP iteration 71
****
(no constraint relaxation)
 72    1  P  2.17E-05  4.072694E-01 1.32E-05 9.24E-02 0.00E+00 4.43E-02 2.625895E-02 1.00E+00  4.072838E-01  STD SUCC


****
**** SQP iteration 72
****
(no constraint relaxation)
 73    3 AP  1.02E-05  4.072592E-01 5.46E-06 5.98E-02 0.00E+00 1.60E-01 3.075354E-02 1.00E+00  4.072662E-01  STD SUCC


****
**** SQP iteration 73
****
(no constraint relaxation)
 74    1  P  3.53E-05  4.072240E-01 2.41E-05 1.29E-01 0.00E+00 1.20E-01 3.599962E-02 1.00E+00  4.072490E-01  STD SUCC


****
**** SQP iteration 74
****
(no constraint relaxation)
 75    2 AP  1.60E-05  4.072080E-01 1.07E-05 9.27E-02 0.00E+00 1.74E-01 3.632792E-02 1.00E+00  4.072151E-01  STD SUCC


****
**** SQP iteration 75
****
(no constraint relaxation)
 76    2 AP  2.25E-05  4.071855E-01 3.54E-05 1.28E-01 0.00E+00 9.07E-02 4.342091E-02 1.00E+00  4.072150E-01  STD SUCC


****
**** SQP iteration 76
****
(no constraint relaxation)
 77    2 AP  2.15E-07  4.071857E-01 1.59E-05 7.15E-02 0.00E+00 1.42E-01 3.827793E-02 1.00E+00  4.072001E-01  STD SUCC

****  convergence achieved  ****

>>>>  Operation counts for ODE solver RKF45S:
                   total # of function evaluations =   7624015
                      total # of integration steps =     58547
                         total # of rejected steps =      6119

>>>>  Operation counts for stage transition solver STRANS:
                   total # of function evaluations =      8980
                      total # of integration steps =       356

>>>>  Wall time statistics:
                      Sensitivity generation (IND) = 01:08.083 (66.50%)
                      Integration of inhomogeneity = 00:00.000 ( 0.00%)
                                 State integration = 00:02.090 ( 2.04%)
                              Constraint reduction = 00:00.001 ( 0.00%)
                                        Condensing = 00:19.201 (18.75%)
                         Solution of condensed QPs = 00:11.669 (11.40%)
                            Remaining calculations = 00:01.343 ( 1.31%)
                                             Total = 01:42.387

                                   Online graphics = 00:32.789 (24.26%)
                                       Grand Total = 02:15.175
