/***********************************************
 * DAT FILE AUTO GENERATED WITH MATLAB         *
 * CreateDatFile.m v0.1 cdremy@umich.edu       *
 ***********************************************/
/***********************************************
*
*  Gait optimization for a prismatic biped in a symmetric Gallopping
*  gait with series elastic hips and series elastic legs
*
*
*    0: 0.00000   // hip_jnt_type [0; 1]              Actuator selection hip (0 = series elastic; 1 = parallel elastic)
*    1: 0.00000   // leg_jnt_type [0; 1]              Actuator selection leg (0 = series elastic; 1 = parallel elastic)
*    2: 1.00000   // cost_fct_sel [1; 2; 3]           Cost function selector (0 = posMeWorkCOT; 1 = posActWorkCOT; 2 = posElWorkCOT; 3 = totElLossCOT)
*    3: 1.00000   // v_avg        [sqrt(l_0*g)]       Enforced average velocity
*    4: 0.00000   // const_sel    [binary flags]      1: GroundClearance 2: TorqueLimits 4: SpeedLimits
*    5: 5.00000   // kalpha       [m_0*g*l_0/rad]     Rotational spring stiffness in the hip joint
*    6: 4.00000   // du_max_alpha [rad/sqrt(l_0/g)]   Maximal velocity of the leg extension actuator
*    7: 10.00000   // kl           [m_0*g/l_0]         Linear spring stiffness in the prismatic joint
*    8: 0.50000   // du_max_l     [sqrt(g*l_0)]       Maximal velocity of the leg extension actuator
*    9: 5.00000  // ktheta       [m_0*g*l_0/rad]     Rotation spring stiffness in the spine
*    10:4.00000  // du_max_theta [rad/sqrt(l_0/g)]   Maximal velocity of the spine actuator
*    11:0.00100  // sigma        [0:1]               Logistic Function Tuner
*    12:0.00000  // UthetaOn     [0; 1]              Spine Actuator Flag
*
***********************************************/

// Used Library:
libmodel
libGallopping

// Used Integrators:
libind
 0: ind_rkf45
 1: ind_strans
 2: ind_rkf45
 3: ind_strans
 4: ind_rkf45
 5: ind_rkf45
 6: ind_strans
 7: ind_rkf45
 8: ind_rkf45
 9: ind_strans
10: ind_rkf45
11: ind_rkf45

/***********************************************
 * PHASE DEFINITIONS                           *
 ***********************************************/
// Interval names:
h_name
 0: flight
 1: touchdown collision of LH
 2: single stance LHlfrfrh
 3: touchdown collision of RH
 4: double stance LHlfrfRH
 5: single stance lhlfrfRH
 6: touchdown collision of LF
 7: double stance lhLFrfRH
 8: single stance lhLFrfrh
 9: touchdown collision of RF
10: double stance lhLFRFrh
11: single stance lhlfRFrh

//  # of multiple shooting intervals on model stages nshoot:
nshoot
 0:  1 // flight
 1:  1 // touchdown collision of LH
 2:  6 // single stance LHlfrfrh
 3:  1 // touchdown collision of RH
 4:  1 // double stance LHlfrfRH
 5:  3 // single stance lhlfrfRH
 6:  1 // touchdown collision of LF
 7:  4 // double stance lhLFrfRH
 8:  3 // single stance lhLFrfrh
 9:  1 // touchdown collision of RF
10:  1 // double stance lhLFRFrh
11:  6 // single stance lhlfRFrh

// Model stage duration start values:
h
 0:  0.021003 // flight
 1:  0.000000 // touchdown collision of LH
 2:  0.586699 // single stance LHlfrfrh
 3:  0.000000 // touchdown collision of RH
 4:  0.000102 // double stance LHlfrfRH
 5:  0.271765 // single stance lhlfrfRH
 6:  0.000000 // touchdown collision of LF
 7:  0.361336 // double stance lhLFrfRH
 8:  0.232248 // single stance lhLFrfrh
 9:  0.000000 // touchdown collision of RF
10:  0.000100 // double stance lhLFRFrh
11:  0.592559 // single stance lhlfRFrh

// Model stage duration scale factors:
h_sca
 0:   1.0000000 // flight
 1:   0.0000000 // touchdown collision of LH
 2:   1.0000000 // single stance LHlfrfrh
 3:   0.0000000 // touchdown collision of RH
 4:   1.0000000 // double stance LHlfrfRH
 5:   1.0000000 // single stance lhlfrfRH
 6:   0.0000000 // touchdown collision of LF
 7:   1.0000000 // double stance lhLFrfRH
 8:   1.0000000 // single stance lhLFrfrh
 9:   0.0000000 // touchdown collision of RF
10:   1.0000000 // double stance lhLFRFrh
11:   1.0000000 // single stance lhlfRFrh

// Model stage duration lower bound:
h_min
 0:   0.0001000 // flight
 1:   0.0000000 // touchdown collision of LH
 2:   0.0001000 // single stance LHlfrfrh
 3:   0.0000000 // touchdown collision of RH
 4:   0.0001000 // double stance LHlfrfRH
 5:   0.0001000 // single stance lhlfrfRH
 6:   0.0000000 // touchdown collision of LF
 7:   0.0001000 // double stance lhLFrfRH
 8:   0.0001000 // single stance lhLFrfrh
 9:   0.0000000 // touchdown collision of RF
10:   0.0001000 // double stance lhLFRFrh
11:   0.0001000 // single stance lhlfRFrh

// Model stage duration upper bound:
h_max
 0:   5.0000000 // flight
 1:   0.0000000 // touchdown collision of LH
 2:   5.0000000 // single stance LHlfrfrh
 3:   0.0000000 // touchdown collision of RH
 4:   5.0000000 // double stance LHlfrfRH
 5:   5.0000000 // single stance lhlfrfRH
 6:   0.0000000 // touchdown collision of LF
 7:   5.0000000 // double stance lhLFrfRH
 8:   5.0000000 // single stance lhLFrfrh
 9:   0.0000000 // touchdown collision of RF
10:   5.0000000 // double stance lhLFRFrh
11:   5.0000000 // single stance lhlfRFrh

// Model stage duration fixed value flags:
h_fix
 0: 0 // flight
 1: 1 // touchdown collision of LH
 2: 0 // single stance LHlfrfrh
 3: 1 // touchdown collision of RH
 4: 0 // double stance LHlfrfRH
 5: 0 // single stance lhlfrfRH
 6: 1 // touchdown collision of LF
 7: 0 // double stance lhLFrfRH
 8: 0 // single stance lhLFrfrh
 9: 1 // touchdown collision of RF
10: 0 // double stance lhLFRFrh
11: 0 // single stance lhlfRFrh

/***********************************************
 * STATE DEFINITIONS                           *
 ***********************************************/
// State names:
xd_name
 0: x
 1: d x
 2: y
 3: d y
 4: phi
 5: d phi
 6: theta
 7: d theta
 8: u theta
 9: du theta
10: alpha LH
11: d alpha LH
12: u alpha LH
13: du alpha LH
14: alpha LF
15: d alpha LF
16: u alpha LF
17: du alpha LF
18: alpha RF
19: d alpha RF
20: u alpha RF
21: du alpha RF
22: alpha RH
23: d alpha RH
24: u alpha RH
25: du alpha RH
26: l LH
27: d l LH
28: u l LH
29: du l LH
30: l LF
31: d l LF
32: u l LF
33: du l LF
34: l RF
35: d l RF
36: u l RF
37: du l RF
38: l RH
39: d l RH
40: u l RH
41: du l RH
42: Act Work
43: El Work
44: El Loss

// Specification mode for state variable start values:
s_spec
0 // All values sd(*,*), sa(*,*) specified in data file

// States at stage 1 point 1:
sd(0,0)
 0:   0.0000000 // x -> must initially remain 0
 1:   1.1167040 // dx
 2:   1.1612960 // y
 3:   0.0675358 // dy
 4:   0.0000000 // phi -> Remains initially 0 for hip SEA
 5:   0.7767256 // dphi
 6:  -0.0083943 // theta
 7:   0.1138745 // dtheta
 8:   0.0000000 // utheta
 9:  -0.0000000 // du theta
10:   0.0869119 // alphaLH
11:  -1.0910120 // dalphaLH
12:   0.0480882 // ualphaLH
13:  -1.0637900 // du alphaLH
14:  -0.3716772 // alphaLF
15:   0.4176560 // dalphaLF
16:  -0.3737250 // ualphaLF
17:   0.3759958 // du alphaLF
18:  -0.1034365 // alphaRF
19:  -1.5477020 // dalphaRF
20:  -0.1124097 // ualphaRF
21:  -1.3158410 // dualphaRF
22:   0.3513846 // alphaRH
23:   0.3803609 // dalphaRH
24:   0.3571850 // ualphaRH
25:   0.3859936 // dualphaRH
26:   1.1080230 // lLH
27:  -0.0199427 // dlLH
28:   0.1093908 // ulLH
29:  -0.0166219 // dulLH
30:   1.1405260 // lLF
31:  -0.0375678 // dlLF
32:   0.1384288 // ulLF
33:  -0.0138561 // dulLF
34:   1.1226590 // lRF
35:   0.6619154 // dlRF
36:   0.1331298 // ulRF
37:   0.0276249 // dulRF
38:   1.1413630 // lRH
39:   0.0024051 // dlRH
40:   0.1395103 // ulRH
41:  -0.0043205 // dulRH
42:   0.0000000 // posActWork -> must initially remain 0
43:   0.0000000 // posElWork -> must initially remain 0
44:   0.0000000 // totElLoss -> must initially remain 0

// States at stage 2 point 1:
sd(1,0)
 0:   0.0234581 // x -> must initially remain 0
 1:   1.1169640 // dx
 2:   1.1626350 // y
 3:   0.0594791 // dy
 4:   0.0163244 // phi -> Remains initially 0 for hip SEA
 5:   0.7769849 // dphi
 6:  -0.0057095 // theta
 7:   0.1417788 // dtheta
 8:  -0.0000000 // utheta
 9:  -0.0000000 // du theta
10:   0.0626832 // alphaLH
11:  -1.2157168 // dalphaLH
12:   0.0241548 // ualphaLH
13:  -1.2143777 // du alphaLH
14:  -0.3626389 // alphaLF
15:   0.4430366 // dalphaLF
16:  -0.3656026 // ualphaLF
17:   0.3988945 // du alphaLF
18:  -0.1353489 // alphaRF
19:  -1.4904781 // dalphaRF
20:  -0.1400779 // ualphaRF
21:  -1.3216090 // dualphaRF
22:   0.3590518 // alphaRH
23:   0.3505076 // dalphaRH
24:   0.3649528 // ualphaRH
25:   0.3536819 // dualphaRH
26:   1.1076480 // lLH
27:  -0.0155117 // dlLH
28:   0.1090469 // ulLH
29:  -0.0161192 // dulLH
30:   1.1397420 // lLF
31:  -0.0373687 // dlLF
32:   0.1381459 // ulLF
33:  -0.0131083 // dulLF
34:   1.1360720 // lRF
35:   0.5972871 // dlRF
36:   0.1337282 // ulRF
37:   0.0299129 // dulRF
38:   1.1414120 // lRH
39:   0.0021619 // dlRH
40:   0.1394027 // ulRH
41:  -0.0059217 // dulRH
42:   0.0032145 // posActWork -> must initially remain 0
43:   0.0047166 // posElWork -> must initially remain 0
44:   0.0016273 // totElLoss -> must initially remain 0

// States at stage 3 point 1:
sd(2,0)
 0:   0.0234581 // x -> must initially remain 0
 1:   1.1169640 // dx
 2:   1.1626350 // y
 3:   0.0594791 // dy
 4:   0.0163244 // phi -> Remains initially 0 for hip SEA
 5:   0.7769849 // dphi
 6:  -0.0057095 // theta
 7:   0.1417788 // dtheta
 8:  -0.0000000 // utheta
 9:  -0.0000000 // du theta
10:   0.0626832 // alphaLH
11:  -1.2157168 // dalphaLH
12:   0.0241548 // ualphaLH
13:  -1.2143777 // du alphaLH
14:  -0.3626389 // alphaLF
15:   0.4430366 // dalphaLF
16:  -0.3656026 // ualphaLF
17:   0.3988945 // du alphaLF
18:  -0.1353489 // alphaRF
19:  -1.4904781 // dalphaRF
20:  -0.1400779 // ualphaRF
21:  -1.3216090 // dualphaRF
22:   0.3590518 // alphaRH
23:   0.3505076 // dalphaRH
24:   0.3649528 // ualphaRH
25:   0.3536819 // dualphaRH
26:   1.1076480 // lLH
27:  -0.0155117 // dlLH
28:   0.1090469 // ulLH
29:  -0.0161192 // dulLH
30:   1.1397420 // lLF
31:  -0.0373687 // dlLF
32:   0.1381459 // ulLF
33:  -0.0131083 // dulLF
34:   1.1360720 // lRF
35:   0.5972871 // dlRF
36:   0.1337282 // ulRF
37:   0.0299129 // dulRF
38:   1.1414120 // lRH
39:   0.0021619 // dlRH
40:   0.1394027 // ulRH
41:  -0.0059217 // dulRH
42:   0.0032145 // posActWork -> must initially remain 0
43:   0.0047166 // posElWork -> must initially remain 0
44:   0.0016273 // totElLoss -> must initially remain 0

// States at stage 3 point 2:
sd(2,1)
 0:   0.1327100 // x -> must initially remain 0
 1:   1.1074160 // dx
 2:   1.1650750 // y
 3:  -0.0003298 // dy
 4:   0.0865421 // phi -> Remains initially 0 for hip SEA
 5:   0.6405778 // dphi
 6:   0.0095596 // theta
 7:   0.1658520 // dtheta
 8:  -0.0000000 // utheta
 9:  -0.0000000 // du theta
10:  -0.1196563 // alphaLH
11:  -1.8665871 // dalphaLH
12:  -0.1470121 // ualphaLH
13:  -2.1287327 // du alphaLH
14:  -0.3140572 // alphaLF
15:   0.5730289 // dalphaLF
16:  -0.3184385 // ualphaLF
17:   0.5696065 // du alphaLF
18:  -0.2592177 // alphaRF
19:  -0.9584104 // dalphaRF
20:  -0.2148833 // ualphaRF
21:  -0.5856261 // dualphaRF
22:   0.3928291 // alphaRH
23:   0.3503336 // dalphaRH
24:   0.3940219 // ualphaRH
25:   0.2929634 // dualphaRH
26:   1.0433991 // lLH
27:  -0.5764683 // dlLH
28:   0.1088202 // ulLH
29:  -0.0026137 // dulLH
30:   1.1362630 // lLF
31:  -0.0203432 // dlLF
32:   0.1371286 // ulLF
33:  -0.0082787 // dulLF
34:   1.1521110 // lRF
35:  -0.2605873 // dlRF
36:   0.1349278 // ulRF
37:  -0.0059992 // dulRF
38:   1.1446450 // lRH
39:   0.0524526 // dlRH
40:   0.1386158 // ulRH
41:  -0.0089462 // dulRH
42:   0.0212006 // posActWork -> must initially remain 0
43:   0.0263140 // posElWork -> must initially remain 0
44:   0.0159905 // totElLoss -> must initially remain 0

// States at stage 3 point 3:
sd(2,2)
 0:   0.2412513 // x -> must initially remain 0
 1:   1.1215199 // dx
 2:   1.1624410 // y
 3:  -0.0588130 // dy
 4:   0.1407698 // phi -> Remains initially 0 for hip SEA
 5:   0.4659143 // dphi
 6:   0.0215673 // theta
 7:   0.0512619 // dtheta
 8:  -0.0000000 // utheta
 9:  -0.0000000 // du theta
10:  -0.2951223 // alphaLH
11:  -1.6790035 // dalphaLH
12:  -0.3366496 // ualphaLH
13:  -1.7147608 // du alphaLH
14:  -0.2554002 // alphaLF
15:   0.6002255 // dalphaLF
16:  -0.2566114 // ualphaLF
17:   0.6569959 // du alphaLF
18:  -0.3247669 // alphaRF
19:  -0.4245760 // dalphaRF
20:  -0.2733151 // ualphaRF
21:  -0.5306040 // dualphaRF
22:   0.4288331 // alphaRH
23:   0.3983541 // dalphaRH
24:   0.4253146 // ualphaRH
25:   0.3710338 // dualphaRH
26:   1.0000250 // lLH
27:  -0.2903268 // dlLH
28:   0.1090300 // ulLH
29:  -0.0017644 // dulLH
30:   1.1385100 // lLF
31:   0.0541019 // dlLF
32:   0.1369485 // ulLF
33:   0.0054750 // dulLF
34:   1.1237990 // lRF
35:  -0.1358081 // dlRF
36:   0.1333807 // ulRF
37:  -0.0313341 // dulRF
38:   1.1471730 // lRH
39:  -0.0125064 // dlRH
40:   0.1374626 // ulRH
41:  -0.0140597 // dulRH
42:   0.0357120 // posActWork -> must initially remain 0
43:   0.0466678 // posElWork -> must initially remain 0
44:   0.0297506 // totElLoss -> must initially remain 0

// States at stage 3 point 4:
sd(2,3)
 0:   0.3532006 // x -> must initially remain 0
 1:   1.1704129 // dx
 2:   1.1552640 // y
 3:  -0.0733514 // dy
 4:   0.1765752 // phi -> Remains initially 0 for hip SEA
 5:   0.2611468 // dphi
 6:   0.0209229 // theta
 7:  -0.0384572 // dtheta
 8:  -0.0000000 // utheta
 9:  -0.0000000 // du theta
10:  -0.4453329 // alphaLH
11:  -1.3986413 // dalphaLH
12:  -0.4873509 // ualphaLH
13:  -1.3791363 // du alphaLH
14:  -0.1953512 // alphaLF
15:   0.6475044 // dalphaLF
16:  -0.1950561 // ualphaLF
17:   0.6155196 // du alphaLF
18:  -0.3450837 // alphaRF
19:   0.0161635 // dalphaRF
20:  -0.3025146 // ualphaRF
21:  -0.0243749 // dualphaRF
22:   0.4631068 // alphaRH
23:   0.2365720 // dalphaRH
24:   0.4379210 // ualphaRH
25:   0.0689200 // dualphaRH
26:   0.9882986 // lLH
27:   0.0494821 // dlLH
28:   0.1102481 // ulLH
29:   0.0251404 // dulLH
30:   1.1414780 // lLF
31:  -0.0087020 // dlLF
32:   0.1378573 // ulLF
33:   0.0132742 // dulLF
34:   1.1283200 // lRF
35:   0.1221437 // dlRF
36:   0.1296712 // ulRF
37:  -0.0411856 // dulRF
38:   1.1429450 // lRH
39:  -0.0581133 // dlRH
40:   0.1363582 // ulRH
41:  -0.0095069 // dulRH
42:   0.0496582 // posActWork -> must initially remain 0
43:   0.0755270 // posElWork -> must initially remain 0
44:   0.0495796 // totElLoss -> must initially remain 0

// States at stage 3 point 5:
sd(2,4)
 0:   0.4701925 // x -> must initially remain 0
 1:   1.2212299 // dx
 2:   1.1486900 // y
 3:  -0.0636441 // dy
 4:   0.1916273 // phi -> Remains initially 0 for hip SEA
 5:   0.0522258 // dphi
 6:   0.0159759 // theta
 7:  -0.0605800 // dtheta
 8:  -0.0000000 // utheta
 9:  -0.0000000 // du theta
10:  -0.5673616 // alphaLH
11:  -1.0928395 // dalphaLH
12:  -0.5929402 // ualphaLH
13:  -0.9282337 // du alphaLH
14:  -0.1284014 // alphaLF
15:   0.7162454 // dalphaLF
16:  -0.1311468 // ualphaLF
17:   0.7061489 // du alphaLF
18:  -0.3208221 // alphaRF
19:   0.4845333 // dalphaRF
20:  -0.2778349 // ualphaRF
21:   0.5087441 // dualphaRF
22:   0.4709521 // alphaRH
23:  -0.0728142 // dalphaRH
24:   0.4407300 // ualphaRH
25:  -0.0326255 // dualphaRH
26:   1.0086769 // lLH
27:   0.3563359 // dlLH
28:   0.1143580 // ulLH
29:   0.0638458 // dulLH
30:   1.1390520 // lLF
31:  -0.0181801 // dlLF
32:   0.1390179 // ulLF
33:   0.0095743 // dulLF
34:   1.1309130 // lRF
35:  -0.0796318 // dlRF
36:   0.1259216 // ulRF
37:  -0.0350486 // dulRF
38:   1.1394540 // lRH
39:  -0.0043270 // dlRH
40:   0.1362797 // ulRH
41:   0.0072884 // dulRH
42:   0.0634246 // posActWork -> must initially remain 0
43:   0.1072328 // posElWork -> must initially remain 0
44:   0.0681692 // totElLoss -> must initially remain 0

// States at stage 3 point 6:
sd(2,5)
 0:   0.5917971 // x -> must initially remain 0
 1:   1.2636319 // dx
 2:   1.1417720 // y
 3:  -0.0821722 // dy
 4:   0.1893742 // phi -> Remains initially 0 for hip SEA
 5:  -0.0809783 // dphi
 6:   0.0092795 // theta
 7:  -0.0688346 // dtheta
 8:  -0.0000000 // utheta
 9:  -0.0000000 // du theta
10:  -0.6610832 // alphaLH
11:  -0.8526224 // dalphaLH
12:  -0.6749124 // ualphaLH
13:  -0.7965136 // du alphaLH
14:  -0.0573008 // alphaLF
15:   0.7337037 // dalphaLF
16:  -0.0599953 // ualphaLF
17:   0.7423979 // du alphaLF
18:  -0.2551761 // alphaRF
19:   0.8190796 // dalphaRF
20:  -0.2278271 // ualphaRF
21:   0.6650622 // dualphaRF
22:   0.4510688 // alphaRH
23:  -0.3290051 // dalphaRH
24:   0.4281216 // ualphaRH
25:  -0.2761524 // dualphaRH
26:   1.0545139 // lLH
27:   0.5581935 // dlLH
28:   0.1199593 // ulLH
29:   0.0608325 // dulLH
30:   1.1396780 // lLF
31:   0.0190120 // dlLF
32:   0.1391301 // ulLF
33:  -0.0068777 // dulLF
34:   1.1215640 // lRF
35:  -0.0634187 // dlRF
36:   0.1226940 // ulRF
37:  -0.0323737 // dulRF
38:   1.1395000 // lRH
39:  -0.0220829 // dlRH
40:   0.1351490 // ulRH
41:  -0.0300000 // dulRH
42:   0.0754202 // posActWork -> must initially remain 0
43:   0.1266260 // posElWork -> must initially remain 0
44:   0.0761734 // totElLoss -> must initially remain 0

// States at stage 4 point 1:
sd(3,0)
 0:   0.7173258 // x -> must initially remain 0
 1:   1.3035579 // dx
 2:   1.1303300 // y
 3:  -0.1639002 // dy
 4:   0.1797539 // phi -> Remains initially 0 for hip SEA
 5:  -0.0947052 // dphi
 6:   0.0016183 // theta
 7:  -0.0931020 // dtheta
 8:  -0.0000000 // utheta
 9:  -0.0000000 // du theta
10:  -0.7388672 // alphaLH
11:  -0.7654078 // dalphaLH
12:  -0.7406888 // ualphaLH
13:  -0.6441061 // du alphaLH
14:   0.0003172 // alphaLF
15:   0.3367513 // dalphaLF
16:  -0.0435796 // ualphaLF
17:  -0.0330276 // du alphaLF
18:  -0.1713250 // alphaRF
19:   0.8481476 // dalphaRF
20:  -0.1627487 // ualphaRF
21:   0.7689651 // dualphaRF
22:   0.4039037 // alphaRH
23:  -0.6674057 // dalphaRH
24:   0.3689229 // ualphaRH
25:  -0.8024387 // dualphaRH
26:   1.1136748 // lLH
27:   0.6319736 // dlLH
28:   0.1233880 // ulLH
29:   0.0225074 // dulLH
30:   1.1410120 // lLF
31:   0.0081336 // dlLF
32:   0.1396166 // ulLF
33:   0.0168682 // dulLF
34:   1.1210380 // lRF
35:   0.0289881 // dlRF
36:   0.1197058 // ulRF
37:  -0.0277072 // dulRF
38:   1.1337470 // lRH
39:  -0.0765658 // dlRH
40:   0.1325949 // ulRH
41:  -0.0232964 // dulRH
42:   0.0839903 // posActWork -> must initially remain 0
43:   0.1454192 // posElWork -> must initially remain 0
44:   0.0891535 // totElLoss -> must initially remain 0

// States at stage 5 point 1:
sd(4,0)
 0:   0.7173258 // x -> must initially remain 0
 1:   1.3035579 // dx
 2:   1.1303300 // y
 3:  -0.1639002 // dy
 4:   0.1797539 // phi -> Remains initially 0 for hip SEA
 5:  -0.0947052 // dphi
 6:   0.0016183 // theta
 7:  -0.0931020 // dtheta
 8:  -0.0000000 // utheta
 9:  -0.0000000 // du theta
10:  -0.7388672 // alphaLH
11:  -0.7654078 // dalphaLH
12:  -0.7406888 // ualphaLH
13:  -0.6441061 // du alphaLH
14:   0.0003172 // alphaLF
15:   0.3367513 // dalphaLF
16:  -0.0435796 // ualphaLF
17:  -0.0330276 // du alphaLF
18:  -0.1713250 // alphaRF
19:   0.8481476 // dalphaRF
20:  -0.1627487 // ualphaRF
21:   0.7689651 // dualphaRF
22:   0.4039037 // alphaRH
23:  -0.6674057 // dalphaRH
24:   0.3689229 // ualphaRH
25:  -0.8024387 // dualphaRH
26:   1.1136748 // lLH
27:   0.6319736 // dlLH
28:   0.1233880 // ulLH
29:   0.0225074 // dulLH
30:   1.1410120 // lLF
31:   0.0081336 // dlLF
32:   0.1396166 // ulLF
33:   0.0168682 // dulLF
34:   1.1210380 // lRF
35:   0.0289881 // dlRF
36:   0.1197058 // ulRF
37:  -0.0277072 // dulRF
38:   1.1337470 // lRH
39:  -0.0765658 // dlRH
40:   0.1325949 // ulRH
41:  -0.0232964 // dulRH
42:   0.0839903 // posActWork -> must initially remain 0
43:   0.1454192 // posElWork -> must initially remain 0
44:   0.0891535 // totElLoss -> must initially remain 0

// States at stage 6 point 1:
sd(5,0)
 0:   0.7174588 // x -> must initially remain 0
 1:   1.3042407 // dx
 2:   1.1303140 // y
 3:  -0.1617861 // dy
 4:   0.1797442 // phi -> Remains initially 0 for hip SEA
 5:  -0.0948363 // dphi
 6:   0.0016091 // theta
 7:  -0.0902672 // dtheta
 8:  -0.0000000 // utheta
 9:  -0.0000000 // du theta
10:  -0.7389455 // alphaLH
11:  -0.7686720 // dalphaLH
12:  -0.7407544 // ualphaLH
13:  -0.6419338 // du alphaLH
14:   0.0003517 // alphaLF
15:   0.3376958 // dalphaLF
16:  -0.0435827 // ualphaLF
17:  -0.0283964 // du alphaLF
18:  -0.1712384 // alphaRF
19:   0.8496316 // dalphaRF
20:  -0.1626703 // ualphaRF
21:   0.7689206 // dualphaRF
22:   0.4038310 // alphaRH
23:  -0.7135815 // dalphaRH
24:   0.3688411 // ualphaRH
25:  -0.8030742 // dualphaRH
26:   1.1137397 // lLH
27:   0.6326841 // dlLH
28:   0.1233903 // ulLH
29:   0.0225542 // dulLH
30:   1.1410120 // lLF
31:   0.0079271 // dlLF
32:   0.1396183 // ulLF
33:   0.0168765 // dulLF
34:   1.1210410 // lRF
35:   0.0289670 // dlRF
36:   0.1197030 // ulRF
37:  -0.0276992 // dulRF
38:   1.1336750 // lRH
39:  -0.7053437 // dlRH
40:   0.1325926 // ulRH
41:  -0.0232977 // dulRH
42:   0.0840022 // posActWork -> must initially remain 0
43:   0.1454452 // posElWork -> must initially remain 0
44:   0.0891769 // totElLoss -> must initially remain 0

// States at stage 6 point 2:
sd(5,1)
 0:   0.8355396 // x -> must initially remain 0
 1:   1.2942531 // dx
 2:   1.1103671 // y
 3:  -0.2754968 // dy
 4:   0.1703293 // phi -> Remains initially 0 for hip SEA
 5:  -0.1336019 // dphi
 6:  -0.0103912 // theta
 7:  -0.1835799 // dtheta
 8:  -0.0000000 // utheta
 9:  -0.0000000 // du theta
10:  -0.7898200 // alphaLH
11:  -0.2530940 // dalphaLH
12:  -0.7563231 // ualphaLH
13:   0.0403979 // du alphaLH
14:   0.0069443 // alphaLF
15:  -0.1554084 // dalphaLF
16:  -0.0451474 // ualphaLF
17:  -0.0673768 // du alphaLF
18:  -0.0955259 // alphaRF
19:   0.8373167 // dalphaRF
20:  -0.0936762 // ualphaRF
21:   0.7870936 // dualphaRF
22:   0.3404787 // alphaRH
23:  -0.6590612 // dalphaRH
24:   0.2898007 // ualphaRH
25:  -0.8253469 // dualphaRH
26:   1.1483500 // lLH
27:   0.0008684 // dlLH
28:   0.1245231 // ulLH
29:   0.0070010 // dulLH
30:   1.1414400 // lLF
31:   0.0023269 // dlLF
32:   0.1409853 // ulLF
33:   0.0130981 // dulLF
34:   1.1214070 // lRF
35:  -0.0313144 // dlRF
36:   0.1176635 // ulRF
37:  -0.0171158 // dulRF
38:   1.0724222 // lRH
39:  -0.6188420 // dlRH
40:   0.1320279 // ulRH
41:  -0.0017261 // dulRH
42:   0.0938150 // posActWork -> must initially remain 0
43:   0.1715832 // posElWork -> must initially remain 0
44:   0.1083386 // totElLoss -> must initially remain 0

// States at stage 6 point 3:
sd(5,2)
 0:   0.9511817 // x -> must initially remain 0
 1:   1.2586541 // dx
 2:   1.0836631 // y
 3:  -0.2923160 // dy
 4:   0.1521196 // phi -> Remains initially 0 for hip SEA
 5:  -0.2827650 // dphi
 6:  -0.0294365 // theta
 7:  -0.2180004 // dtheta
 8:  -0.0000000 // utheta
 9:  -0.0000000 // du theta
10:  -0.7809646 // alphaLH
11:   0.4254199 // dalphaLH
12:  -0.7520211 // ualphaLH
13:   0.2067054 // du alphaLH
14:  -0.0193776 // alphaLF
15:  -0.3950482 // dalphaLF
16:  -0.0657460 // ualphaLF
17:  -0.3999170 // du alphaLF
18:  -0.0147767 // alphaRF
19:   0.9658918 // dalphaRF
20:  -0.0179198 // ualphaRF
21:   0.9164816 // dualphaRF
22:   0.2847923 // alphaRH
23:  -0.5785333 // dalphaRH
24:   0.2230374 // ualphaRH
25:  -0.6119341 // dualphaRH
26:   1.1277271 // lLH
27:  -0.2778540 // dlLH
28:   0.1238538 // ulLH
29:  -0.0273360 // dulLH
30:   1.1411850 // lLF
31:  -0.0123181 // dlLF
32:   0.1406116 // ulLF
33:  -0.0212340 // dulLF
34:   1.1174930 // lRF
35:  -0.0324637 // dlRF
36:   0.1171199 // ulRF
37:   0.0042691 // dulRF
38:   1.0258761 // lRH
39:  -0.3903074 // dlRH
40:   0.1323107 // ulRH
41:  -0.0009767 // dulRH
42:   0.1065097 // posActWork -> must initially remain 0
43:   0.2049330 // posElWork -> must initially remain 0
44:   0.1293764 // totElLoss -> must initially remain 0

// States at stage 7 point 1:
sd(6,0)
 0:   1.0635805 // x -> must initially remain 0
 1:   1.2225892 // dx
 2:   1.0607931 // y
 3:  -0.2002585 // dy
 4:   0.1174913 // phi -> Remains initially 0 for hip SEA
 5:  -0.4851760 // dphi
 6:  -0.0461793 // theta
 7:  -0.1344698 // dtheta
 8:  -0.0000000 // utheta
 9:  -0.0000000 // du theta
10:  -0.7201410 // alphaLH
11:   0.8754887 // dalphaLH
12:  -0.7134507 // ualphaLH
13:   0.7578639 // du alphaLH
14:  -0.0591682 // alphaLF
15:  -0.4537594 // dalphaLF
16:  -0.1003207 // ualphaLF
17:  -0.4075384 // du alphaLF
18:   0.0829034 // alphaRF
19:   1.2063727 // dalphaRF
20:   0.0761369 // ualphaRF
21:   1.1779196 // dualphaRF
22:   0.2339795 // alphaRH
23:  -0.5486255 // dalphaRH
24:   0.1755661 // ualphaRH
25:  -0.4817624 // dualphaRH
26:   1.1181370 // lLH
27:   0.0652396 // dlLH
28:   0.1208156 // ulLH
29:  -0.0395550 // dulLH
30:   1.1392130 // lLF
31:  -0.0228154 // dlLF
32:   0.1390853 // ulLF
33:  -0.0126570 // dulLF
34:   1.1173690 // lRF
35:   0.0243968 // dlRF
36:   0.1178628 // ulRF
37:   0.0121732 // dulRF
38:   1.0037690 // lRH
39:  -0.0935014 // dlRH
40:   0.1333120 // ulRH
41:   0.0193565 // dulRH
42:   0.1200232 // posActWork -> must initially remain 0
43:   0.2373207 // posElWork -> must initially remain 0
44:   0.1485154 // totElLoss -> must initially remain 0

// States at stage 8 point 1:
sd(7,0)
 0:   1.0635805 // x -> must initially remain 0
 1:   1.2225892 // dx
 2:   1.0607931 // y
 3:  -0.2002585 // dy
 4:   0.1174913 // phi -> Remains initially 0 for hip SEA
 5:  -0.4851760 // dphi
 6:  -0.0461793 // theta
 7:  -0.1344698 // dtheta
 8:  -0.0000000 // utheta
 9:  -0.0000000 // du theta
10:  -0.7201410 // alphaLH
11:   0.8754887 // dalphaLH
12:  -0.7134507 // ualphaLH
13:   0.7578639 // du alphaLH
14:  -0.0591682 // alphaLF
15:  -0.4537594 // dalphaLF
16:  -0.1003207 // ualphaLF
17:  -0.4075384 // du alphaLF
18:   0.0829034 // alphaRF
19:   1.2063727 // dalphaRF
20:   0.0761369 // ualphaRF
21:   1.1779196 // dualphaRF
22:   0.2339795 // alphaRH
23:  -0.5486255 // dalphaRH
24:   0.1755661 // ualphaRH
25:  -0.4817624 // dualphaRH
26:   1.1181370 // lLH
27:   0.0652396 // dlLH
28:   0.1208156 // ulLH
29:  -0.0395550 // dulLH
30:   1.1392130 // lLF
31:  -0.0228154 // dlLF
32:   0.1390853 // ulLF
33:  -0.0126570 // dulLF
34:   1.1173690 // lRF
35:   0.0243968 // dlRF
36:   0.1178628 // ulRF
37:   0.0121732 // dulRF
38:   1.0037690 // lRH
39:  -0.0935014 // dlRH
40:   0.1333120 // ulRH
41:   0.0193565 // dulRH
42:   0.1200232 // posActWork -> must initially remain 0
43:   0.2373207 // posElWork -> must initially remain 0
44:   0.1485154 // totElLoss -> must initially remain 0

// States at stage 8 point 2:
sd(7,1)
 0:   1.1726376 // x -> must initially remain 0
 1:   1.1920841 // dx
 2:   1.0490950 // y
 3:  -0.0564905 // dy
 4:   0.0668665 // phi -> Remains initially 0 for hip SEA
 5:  -0.6159668 // dphi
 6:  -0.0527428 // theta
 7:  -0.0149215 // dtheta
 8:  -0.0000000 // utheta
 9:  -0.0000000 // du theta
10:  -0.6313071 // alphaLH
11:   1.0514157 // dalphaLH
12:  -0.6364166 // ualphaLH
13:   0.9985495 // du alphaLH
14:  -0.1114980 // alphaLF
15:  -0.5027178 // dalphaLF
16:  -0.1340535 // ualphaLF
17:  -0.3530536 // du alphaLF
18:   0.2014421 // alphaRF
19:   1.3977146 // dalphaRF
20:   0.1950741 // ualphaRF
21:   1.4383423 // dualphaRF
22:   0.1839607 // alphaRH
23:  -0.5605852 // dalphaRH
24:   0.1314402 // ualphaRH
25:  -0.4295646 // dualphaRH
26:   1.1264460 // lLH
27:   0.0404388 // dlLH
28:   0.1173749 // ulLH
29:  -0.0345084 // dulLH
30:   1.0886242 // lLF
31:  -0.5138169 // dlLF
32:   0.1389176 // ulLF
33:   0.0031868 // dulLF
34:   1.1217690 // lRF
35:   0.0637631 // dlRF
36:   0.1187216 // ulRF
37:   0.0059371 // dulRF
38:   1.0082179 // lRH
39:   0.1838245 // dlRH
40:   0.1356269 // ulRH
41:   0.0334465 // dulRH
42:   0.1310932 // posActWork -> must initially remain 0
43:   0.2630186 // posElWork -> must initially remain 0
44:   0.1635034 // totElLoss -> must initially remain 0

// States at stage 8 point 3:
sd(7,2)
 0:   1.2798205 // x -> must initially remain 0
 1:   1.1859300 // dx
 2:   1.0496350 // y
 3:   0.0615286 // dy
 4:   0.0091069 // phi -> Remains initially 0 for hip SEA
 5:  -0.6491824 // dphi
 6:  -0.0515766 // theta
 7:   0.0260103 // dtheta
 8:  -0.0000000 // utheta
 9:  -0.0000000 // du theta
10:  -0.5319715 // alphaLH
11:   1.1472366 // dalphaLH
12:  -0.5353624 // ualphaLH
13:   1.2039485 // du alphaLH
14:  -0.1548347 // alphaLF
15:  -0.4796390 // dalphaLF
16:  -0.1650600 // ualphaLF
17:  -0.3586961 // du alphaLF
18:   0.3299206 // alphaRF
19:   1.4184213 // dalphaRF
20:   0.3294323 // ualphaRF
21:   1.4921373 // dualphaRF
22:   0.1338727 // alphaRH
23:  -0.5416221 // dalphaRH
24:   0.0992160 // ualphaRH
25:  -0.3225909 // dualphaRH
26:   1.1220540 // lLH
27:  -0.1060859 // dlLH
28:   0.1146488 // ulLH
29:  -0.0263874 // dulLH
30:   1.0497691 // lLF
31:  -0.3314301 // dlLF
32:   0.1391137 // ulLF
33:   0.0025973 // dulLF
34:   1.1261140 // lRF
35:   0.0207904 // dlRF
36:   0.1187787 // ulRF
37:  -0.0042275 // dulRF
38:   1.0358008 // lRH
39:   0.4201162 // dlRH
40:   0.1400316 // ulRH
41:   0.0697749 // dulRH
42:   0.1417284 // posActWork -> must initially remain 0
43:   0.2856358 // posElWork -> must initially remain 0
44:   0.1757146 // totElLoss -> must initially remain 0

// States at stage 8 point 4:
sd(7,3)
 0:   1.3876964 // x -> must initially remain 0
 1:   1.2056458 // dx
 2:   1.0592819 // y
 3:   0.1464115 // dy
 4:  -0.0479412 // phi -> Remains initially 0 for hip SEA
 5:  -0.5996560 // dphi
 6:  -0.0493520 // theta
 7:   0.0210233 // dtheta
 8:  -0.0000000 // utheta
 9:  -0.0000000 // du theta
10:  -0.4260451 // alphaLH
11:   1.1817901 // dalphaLH
12:  -0.4231404 // ualphaLH
13:   1.2685081 // du alphaLH
14:  -0.2008025 // alphaLF
15:  -0.5469912 // dalphaLF
16:  -0.2029739 // ualphaLF
17:  -0.4816580 // du alphaLF
18:   0.4533213 // alphaRF
19:   1.2915271 // dalphaRF
20:   0.4580971 // ualphaRF
21:   1.3319463 // dualphaRF
22:   0.0858082 // alphaRH
23:  -0.5303040 // dalphaRH
24:   0.0701097 // ualphaRH
25:  -0.2893192 // dualphaRH
26:   1.1141870 // lLH
27:  -0.0489308 // dlLH
28:   0.1124526 // ulLH
29:  -0.0222190 // dulLH
30:   1.0307620 // lLF
31:  -0.0823298 // dlLF
32:   0.1392728 // ulLF
33:   0.0015915 // dulLF
34:   1.1255140 // lRF
35:  -0.0213658 // dlRF
36:   0.1186002 // ulRF
37:   0.0091207 // dulRF
38:   1.0822077 // lRH
39:   0.5921556 // dlRH
40:   0.1467898 // ulRH
41:   0.0482078 // dulRH
42:   0.1494957 // posActWork -> must initially remain 0
43:   0.3007891 // posElWork -> must initially remain 0
44:   0.1833439 // totElLoss -> must initially remain 0

// States at stage 9 point 1:
sd(8,0)
 0:   1.4979142 // x -> must initially remain 0
 1:   1.2338748 // dx
 2:   1.0746969 // y
 3:   0.1827573 // dy
 4:  -0.0967370 // phi -> Remains initially 0 for hip SEA
 5:  -0.4701563 // dphi
 6:  -0.0476045 // theta
 7:   0.0164306 // dtheta
 8:  -0.0000000 // utheta
 9:  -0.0000000 // du theta
10:  -0.3217809 // alphaLH
11:   1.1138768 // dalphaLH
12:  -0.3129202 // ualphaLH
13:   1.1484092 // du alphaLH
14:  -0.2545114 // alphaLF
15:  -0.6457773 // dalphaLF
16:  -0.2527819 // ualphaLF
17:  -0.6226834 // du alphaLF
18:   0.5599920 // alphaRF
19:   1.0566297 // dalphaRF
20:   0.5670631 // ualphaRF
21:   1.0706249 // dualphaRF
22:   0.0359627 // alphaRH
23:  -0.5811030 // dalphaRH
24:   0.0570877 // ualphaRH
25:  -0.0962472 // dualphaRH
26:   1.1119570 // lLH
27:  -0.0190773 // dlLH
28:   0.1107048 // ulLH
29:  -0.0159290 // dulLH
30:   1.0352209 // lLF
31:   0.1768487 // dlLF
32:   0.1397988 // ulLF
33:   0.0140204 // dulLF
34:   1.1248530 // lRF
35:   0.0109986 // dlRF
36:   0.1200926 // ulRF
37:   0.0207334 // dulRF
38:   1.1392616 // lRH
39:   0.6508536 // dlRH
40:   0.1491889 // ulRH
41:   0.0152136 // dulRH
42:   0.1522458 // posActWork -> must initially remain 0
43:   0.3090055 // posElWork -> must initially remain 0
44:   0.1896637 // totElLoss -> must initially remain 0

// States at stage 9 point 2:
sd(8,1)
 0:   1.5940762 // x -> must initially remain 0
 1:   1.2502949 // dx
 2:   1.0873699 // y
 3:   0.1310352 // dy
 4:  -0.1270866 // phi -> Remains initially 0 for hip SEA
 5:  -0.3091003 // dphi
 6:  -0.0482134 // theta
 7:  -0.0475274 // dtheta
 8:  -0.0000000 // utheta
 9:  -0.0000000 // du theta
10:  -0.2389171 // alphaLH
11:   1.0270388 // dalphaLH
12:  -0.2323481 // ualphaLH
13:   0.9649235 // du alphaLH
14:  -0.3099250 // alphaLF
15:  -0.8016330 // dalphaLF
16:  -0.3067665 // ualphaLF
17:  -0.7801869 // du alphaLF
18:   0.6240767 // alphaRF
19:   0.5076730 // dalphaRF
20:   0.5982228 // ualphaRF
21:   0.0098577 // dualphaRF
22:   0.0020601 // alphaRH
23:  -0.2788766 // dalphaRH
24:   0.0557238 // ualphaRH
25:  -0.0565665 // dualphaRH
26:   1.1095210 // lLH
27:  -0.0387178 // dlLH
28:   0.1096442 // ulLH
29:  -0.0118177 // dulLH
30:   1.0571777 // lLF
31:   0.3907072 // dlLF
32:   0.1428088 // ulLF
33:   0.0677164 // dulLF
34:   1.1265710 // lRF
35:   0.0239134 // dlRF
36:   0.1213892 // ulRF
37:   0.0129329 // dulRF
38:   1.1720520 // lRH
39:   0.0696667 // dlRH
40:   0.1499383 // ulRH
41:   0.0079309 // dulRH
42:   0.1573390 // posActWork -> must initially remain 0
43:   0.3274977 // posElWork -> must initially remain 0
44:   0.2078029 // totElLoss -> must initially remain 0

// States at stage 9 point 3:
sd(8,2)
 0:   1.6915701 // x -> must initially remain 0
 1:   1.2687278 // dx
 2:   1.0952469 // y
 3:   0.0822906 // dy
 4:  -0.1458092 // phi -> Remains initially 0 for hip SEA
 5:  -0.1916368 // dphi
 6:  -0.0538573 // theta
 7:  -0.0783940 // dtheta
 8:  -0.0000000 // utheta
 9:  -0.0000000 // du theta
10:  -0.1632892 // alphaLH
11:   0.9260922 // dalphaLH
12:  -0.1605603 // ualphaLH
13:   0.9019763 // du alphaLH
14:  -0.3762534 // alphaLF
15:  -0.8780057 // dalphaLF
16:  -0.3732265 // ualphaLF
17:  -0.9233270 // du alphaLF
18:   0.6377062 // alphaRF
19:  -0.0978389 // dalphaRF
20:   0.5966585 // ualphaRF
21:  -0.0764382 // dualphaRF
22:  -0.0085643 // alphaRH
23:  -0.0085816 // dalphaRH
24:   0.0470866 // ualphaRH
25:  -0.1117002 // dualphaRH
26:   1.1076450 // lLH
27:  -0.0011097 // dlLH
28:   0.1088221 // ulLH
29:  -0.0094921 // dulLH
30:   1.0941316 // lLF
31:   0.5459129 // dlLF
32:   0.1468194 // ulLF
33:   0.0424792 // dulLF
34:   1.1262650 // lRF
35:  -0.0425782 // dlRF
36:   0.1211639 // ulRF
37:  -0.0188827 // dulRF
38:   1.1557322 // lRH
39:  -0.3498263 // dlRH
40:   0.1500000 // ulRH
41:  -0.0109241 // dulRH
42:   0.1597660 // posActWork -> must initially remain 0
43:   0.3396916 // posElWork -> must initially remain 0
44:   0.2190334 // totElLoss -> must initially remain 0

// States at stage 10 point 1:
sd(9,0)
 0:   1.7903891 // x -> must initially remain 0
 1:   1.2821079 // dx
 2:   1.1010130 // y
 3:   0.0671686 // dy
 4:  -0.1592559 // phi -> Remains initially 0 for hip SEA
 5:  -0.1676144 // dphi
 6:  -0.0581108 // theta
 7:  -0.0231668 // dtheta
 8:  -0.0000000 // utheta
 9:  -0.0000000 // du theta
10:  -0.0946228 // alphaLH
11:   0.8552900 // dalphaLH
12:  -0.0926153 // ualphaLH
13:   0.8527889 // du alphaLH
14:  -0.4417189 // alphaLF
15:  -0.7968627 // dalphaLF
16:  -0.4436173 // ualphaLF
17:  -0.8646341 // du alphaLF
18:   0.6166361 // alphaRF
19:  -0.4178240 // dalphaRF
20:   0.5743816 // ualphaRF
21:  -0.4765626 // dualphaRF
22:   0.0001953 // alphaRH
23:   0.2374827 // dalphaRH
24:   0.0473988 // ualphaRH
25:   0.1592656 // dualphaRH
26:   1.1092450 // lLH
27:   0.0335087 // dlLH
28:   0.1087444 // ulLH
29:   0.0078635 // dulLH
30:   1.1390406 // lLF
31:   0.5994511 // dlLF
32:   0.1489509 // ulLF
33:   0.0205638 // dulLF
34:   1.1209501 // lRF
35:  -0.0743547 // dlRF
36:   0.1200516 // ulRF
37:  -0.0107828 // dulRF
38:   1.1377620 // lRH
39:  -0.0545914 // dlRH
40:   0.1487311 // ulRH
41:  -0.0237911 // dulRH
42:   0.1633198 // posActWork -> must initially remain 0
43:   0.3542259 // posElWork -> must initially remain 0
44:   0.2307511 // totElLoss -> must initially remain 0

// States at stage 11 point 1:
sd(10,0)
 0:   1.7903891 // x -> must initially remain 0
 1:   1.2821079 // dx
 2:   1.1010130 // y
 3:   0.0671686 // dy
 4:  -0.1592559 // phi -> Remains initially 0 for hip SEA
 5:  -0.1676144 // dphi
 6:  -0.0581108 // theta
 7:  -0.0231668 // dtheta
 8:  -0.0000000 // utheta
 9:  -0.0000000 // du theta
10:  -0.0946228 // alphaLH
11:   0.8552900 // dalphaLH
12:  -0.0926153 // ualphaLH
13:   0.8527889 // du alphaLH
14:  -0.4417189 // alphaLF
15:  -0.7968627 // dalphaLF
16:  -0.4436173 // ualphaLF
17:  -0.8646341 // du alphaLF
18:   0.6166361 // alphaRF
19:  -0.4178240 // dalphaRF
20:   0.5743816 // ualphaRF
21:  -0.4765626 // dualphaRF
22:   0.0001953 // alphaRH
23:   0.2374827 // dalphaRH
24:   0.0473988 // ualphaRH
25:   0.1592656 // dualphaRH
26:   1.1092450 // lLH
27:   0.0335087 // dlLH
28:   0.1087444 // ulLH
29:   0.0078635 // dulLH
30:   1.1390406 // lLF
31:   0.5994511 // dlLF
32:   0.1489509 // ulLF
33:   0.0205638 // dulLF
34:   1.1209501 // lRF
35:  -0.0743547 // dlRF
36:   0.1200516 // ulRF
37:  -0.0107828 // dulRF
38:   1.1377620 // lRH
39:  -0.0545914 // dlRH
40:   0.1487311 // ulRH
41:  -0.0237911 // dulRH
42:   0.1633198 // posActWork -> must initially remain 0
43:   0.3542259 // posElWork -> must initially remain 0
44:   0.2307511 // totElLoss -> must initially remain 0

// States at stage 12 point 1:
sd(11,0)
 0:   1.7905182 // x -> must initially remain 0
 1:   1.2868360 // dx
 2:   1.1010190 // y
 3:   0.0628593 // dy
 4:  -0.1592718 // phi -> Remains initially 0 for hip SEA
 5:  -0.1595236 // dphi
 6:  -0.0581144 // theta
 7:  -0.0357095 // dtheta
 8:  -0.0000000 // utheta
 9:  -0.0000000 // du theta
10:  -0.0945377 // alphaLH
11:   0.8518632 // dalphaLH
12:  -0.0925301 // ualphaLH
13:   0.8527209 // du alphaLH
14:  -0.4418006 // alphaLF
15:  -0.8167352 // dalphaLF
16:  -0.4437036 // ualphaLF
17:  -0.8622567 // du alphaLF
18:   0.6165543 // alphaRF
19:  -0.8205870 // dalphaRF
20:   0.5743340 // ualphaRF
21:  -0.4776132 // dualphaRF
22:   0.0002187 // alphaRH
23:   0.2346235 // dalphaRH
24:   0.0474147 // ualphaRH
25:   0.1587085 // dualphaRH
26:   1.1092480 // lLH
27:   0.0342724 // dlLH
28:   0.1087452 // ulLH
29:   0.0078664 // dulLH
30:   1.1391012 // lLF
31:   0.6120467 // dlLF
32:   0.1489530 // ulLF
33:   0.0205608 // dulLF
34:   1.1208868 // lRF
35:  -0.6335768 // dlRF
36:   0.1200505 // ulRF
37:  -0.0107947 // dulRF
38:   1.1377570 // lRH
39:  -0.0538616 // dlRH
40:   0.1487287 // ulRH
41:  -0.0238566 // dulRH
42:   0.1633283 // posActWork -> must initially remain 0
43:   0.3542411 // posElWork -> must initially remain 0
44:   0.2307692 // totElLoss -> must initially remain 0

// States at stage 12 point 2:
sd(11,1)
 0:   1.9163668 // x -> must initially remain 0
 1:   1.2522956 // dx
 2:   1.1093149 // y
 3:   0.1060558 // dy
 4:  -0.1750362 // phi -> Remains initially 0 for hip SEA
 5:  -0.1431578 // dphi
 6:  -0.0522101 // theta
 7:   0.1455837 // dtheta
 8:  -0.0000000 // utheta
 9:  -0.0000000 // du theta
10:  -0.0150231 // alphaLH
11:   0.7679095 // dalphaLH
12:  -0.0123913 // ualphaLH
13:   0.7651988 // du alphaLH
14:  -0.5004300 // alphaLF
15:  -0.3241375 // dalphaLF
16:  -0.4700095 // ualphaLF
17:   0.0124073 // du alphaLF
18:   0.5433488 // alphaRF
19:  -0.6892882 // dalphaRF
20:   0.5216281 // ualphaRF
21:  -0.6438582 // dualphaRF
22:   0.0359605 // alphaRH
23:   0.4834943 // dalphaRH
24:   0.0751218 // ualphaRH
25:   0.4450218 // dualphaRH
26:   1.1109750 // lLH
27:  -0.0026870 // dlLH
28:   0.1096861 // ulLH
29:   0.0111727 // dulLH
30:   1.1711391 // lLF
31:  -0.0799242 // dlLF
32:   0.1500000 // ulLF
33:   0.0046675 // dulLF
34:   1.0597576 // lRF
35:  -0.5827701 // dlRF
36:   0.1200996 // ulRF
37:  -0.0021347 // dulRF
38:   1.1465339 // lRH
39:   0.1179580 // dlRH
40:   0.1459835 // ulRH
41:  -0.0280317 // dulRH
42:   0.1698812 // posActWork -> must initially remain 0
43:   0.3705832 // posElWork -> must initially remain 0
44:   0.2440136 // totElLoss -> must initially remain 0

// States at stage 12 point 3:
sd(11,2)
 0:   2.0368946 // x -> must initially remain 0
 1:   1.1870038 // dx
 2:   1.1201949 // y
 3:   0.1066868 // dy
 4:  -0.1823573 // phi -> Remains initially 0 for hip SEA
 5:   0.0181704 // dphi
 6:  -0.0363429 // theta
 7:   0.1417185 // dtheta
 8:  -0.0000000 // utheta
 9:  -0.0000000 // du theta
10:   0.0595010 // alphaLH
11:   0.7478710 // dalphaLH
12:   0.0605089 // ualphaLH
13:   0.7267142 // du alphaLH
14:  -0.5092200 // alphaLF
15:   0.1087210 // dalphaLF
16:  -0.4692993 // ualphaLF
17:   0.0451382 // du alphaLF
18:   0.4663658 // alphaRF
19:  -0.9344051 // dalphaRF
20:   0.4588765 // ualphaRF
21:  -0.7582566 // dualphaRF
22:   0.0951388 // alphaRH
23:   0.7071972 // dalphaRH
24:   0.1223686 // ualphaRH
25:   0.6081558 // dualphaRH
26:   1.1104250 // lLH
27:  -0.0011026 // dlLH
28:   0.1098616 // ulLH
29:  -0.0077043 // dulLH
30:   1.1483732 // lLF
31:  -0.1856800 // dlLF
32:   0.1489800 // ulLF
33:  -0.0310180 // dulLF
34:   1.0125884 // lRF
35:  -0.3396095 // dlRF
36:   0.1204127 // ulRF
37:  -0.0013954 // dulRF
38:   1.1479861 // lRH
39:  -0.0756107 // dlRH
40:   0.1436249 // ulRH
41:  -0.0198664 // dulRH
42:   0.1765551 // posActWork -> must initially remain 0
43:   0.3884673 // posElWork -> must initially remain 0
44:   0.2556132 // totElLoss -> must initially remain 0

// States at stage 12 point 4:
sd(11,3)
 0:   2.1509194 // x -> must initially remain 0
 1:   1.1241818 // dx
 2:   1.1299719 // y
 3:   0.0933532 // dy
 4:  -0.1691056 // phi -> Remains initially 0 for hip SEA
 5:   0.2519183 // dphi
 6:  -0.0272178 // theta
 7:   0.0459854 // dtheta
 8:  -0.0000000 // utheta
 9:  -0.0000000 // du theta
10:   0.1319918 // alphaLH
11:   0.7091208 // dalphaLH
12:   0.1306285 // ualphaLH
13:   0.7048208 // du alphaLH
14:  -0.4865816 // alphaLF
15:   0.3195414 // dalphaLF
16:  -0.4625488 // ualphaLF
17:   0.2109640 // du alphaLF
18:   0.3541654 // alphaRF
19:  -1.3226575 // dalphaRF
20:   0.3625016 // ualphaRF
21:  -1.2699502 // dualphaRF
22:   0.1720076 // alphaRH
23:   0.8206611 // dalphaRH
24:   0.1849552 // ualphaRH
25:   0.7487961 // dualphaRH
26:   1.1110110 // lLH
27:   0.0124866 // dlLH
28:   0.1099332 // ulLH
29:   0.0092569 // dulLH
30:   1.1480218 // lLF
31:   0.1154007 // dlLF
32:   0.1454912 // ulLF
33:  -0.0372976 // dulLF
34:   0.9962754 // lRF
35:   0.0121198 // dlRF
36:   0.1211455 // ulRF
37:   0.0138422 // dulRF
38:   1.1411370 // lRH
39:  -0.0268256 // dlRH
40:   0.1417389 // ulRH
41:  -0.0193006 // dulRH
42:   0.1822265 // posActWork -> must initially remain 0
43:   0.4035680 // posElWork -> must initially remain 0
44:   0.2655896 // totElLoss -> must initially remain 0

// States at stage 12 point 5:
sd(11,4)
 0:   2.2603502 // x -> must initially remain 0
 1:   1.1009511 // dx
 2:   1.1405768 // y
 3:   0.1295969 // dy
 4:  -0.1324957 // phi -> Remains initially 0 for hip SEA
 5:   0.4889471 // dphi
 6:  -0.0225132 // theta
 7:   0.0730142 // dtheta
 8:  -0.0000000 // utheta
 9:  -0.0000000 // du theta
10:   0.1820966 // alphaLH
11:   0.1853166 // dalphaLH
12:   0.1414176 // ualphaLH
13:  -0.1370226 // du alphaLH
14:  -0.4493122 // alphaLF
15:   0.4192726 // dalphaLF
16:  -0.4426510 // ualphaLF
17:   0.3104167 // du alphaLF
18:   0.2125228 // alphaRF
19:  -1.5105143 // dalphaRF
20:   0.2183034 // ualphaRF
21:  -1.5955007 // dualphaRF
22:   0.2478522 // alphaRH
23:   0.6714723 // dalphaRH
24:   0.2531349 // ualphaRH
25:   0.6642411 // dualphaRH
26:   1.1114840 // lLH
27:  -0.0087586 // dlLH
28:   0.1112539 // ulLH
29:   0.0171597 // dulLH
30:   1.1539971 // lLF
31:  -0.0341719 // dlLF
32:   0.1422488 // ulLF
33:  -0.0269469 // dulLF
34:   1.0135805 // lRF
35:   0.3278200 // dlRF
36:   0.1239231 // ulRF
37:   0.0470375 // dulRF
38:   1.1415600 // lRH
39:   0.0099887 // dlRH
40:   0.1400562 // ulRH
41:  -0.0141005 // dulRH
42:   0.1885265 // posActWork -> must initially remain 0
43:   0.4229945 // posElWork -> must initially remain 0
44:   0.2808492 // totElLoss -> must initially remain 0

// States at stage 12 point 6:
sd(11,5)
 0:   2.3691660 // x -> must initially remain 0
 1:   1.1054008 // dx
 2:   1.1530558 // y
 3:   0.1052479 // dy
 4:  -0.0736976 // phi -> Remains initially 0 for hip SEA
 5:   0.6906301 // dphi
 6:  -0.0152589 // theta
 7:   0.0553959 // dtheta
 8:  -0.0000000 // utheta
 9:  -0.0000000 // du theta
10:   0.1651677 // alphaLH
11:  -0.4951083 // dalphaLH
12:   0.1185743 // ualphaLH
13:  -0.3980398 // du alphaLH
14:  -0.4091680 // alphaLF
15:   0.3730010 // dalphaLF
16:  -0.4096949 // ualphaLF
17:   0.3744719 // du alphaLF
18:   0.0567256 // alphaRF
19:  -1.6416304 // dalphaRF
20:   0.0352196 // ualphaRF
21:  -1.8861014 // dualphaRF
22:   0.3061514 // alphaRH
23:   0.5279964 // dalphaRH
24:   0.3120988 // ualphaRH
25:   0.5248833 // dualphaRH
26:   1.1101460 // lLH
27:  -0.0174354 // dlLH
28:   0.1111572 // ulLH
29:  -0.0192719 // dulLH
30:   1.1459212 // lLF
31:  -0.0832878 // dlLF
32:   0.1400413 // ulLF
33:  -0.0194496 // dulLF
34:   1.0592540 // lRF
35:   0.5826875 // dlRF
36:   0.1291011 // ulRF
37:   0.0682131 // dulRF
38:   1.1414720 // lRH
39:  -0.0057938 // dlRH
40:   0.1395452 // ulRH
41:   0.0036768 // dulRH
42:   0.2078515 // posActWork -> must initially remain 0
43:   0.4550585 // posElWork -> must initially remain 0
44:   0.2939728 // totElLoss -> must initially remain 0

// States at the end of model stage 12:
sd(11,E)
 0:   0.0000000 // x -> must initially remain 0
 1:   1.1167040 // dx
 2:   1.1612960 // y
 3:   0.0675358 // dy
 4:   0.0000000 // phi -> Remains initially 0 for hip SEA
 5:   0.7767256 // dphi
 6:  -0.0083943 // theta
 7:   0.1138745 // dtheta
 8:   0.0000000 // utheta
 9:  -0.0000000 // du theta
10:   0.0869119 // alphaLH
11:  -1.0910120 // dalphaLH
12:   0.0480882 // ualphaLH
13:  -1.0637900 // du alphaLH
14:  -0.3716772 // alphaLF
15:   0.4176560 // dalphaLF
16:  -0.3737250 // ualphaLF
17:   0.3759958 // du alphaLF
18:  -0.1034365 // alphaRF
19:  -1.5477020 // dalphaRF
20:  -0.1124097 // ualphaRF
21:  -1.3158410 // dualphaRF
22:   0.3513846 // alphaRH
23:   0.3803609 // dalphaRH
24:   0.3571850 // ualphaRH
25:   0.3859936 // dualphaRH
26:   1.1080230 // lLH
27:  -0.0199427 // dlLH
28:   0.1093908 // ulLH
29:  -0.0166219 // dulLH
30:   1.1405260 // lLF
31:  -0.0375678 // dlLF
32:   0.1384288 // ulLF
33:  -0.0138561 // dulLF
34:   1.1226590 // lRF
35:   0.6619154 // dlRF
36:   0.1331298 // ulRF
37:   0.0276249 // dulRF
38:   1.1413630 // lRH
39:   0.0024051 // dlRH
40:   0.1395103 // ulRH
41:  -0.0043205 // dulRH
42:   0.0000000 // posActWork -> must initially remain 0
43:   0.0000000 // posElWork -> must initially remain 0
44:   0.0000000 // totElLoss -> must initially remain 0

// Scaling for all model stages:
sd_sca(*,*)
 0:   1.0000000 // x -> must initially remain 0
 1:   1.0000000 // dx
 2:   1.0000000 // y
 3:   1.0000000 // dy
 4:   1.0000000 // phi -> Remains initially 0 for hip SEA
 5:   1.0000000 // dphi
 6:   1.0000000 // theta
 7:   1.0000000 // dtheta
 8:   1.0000000 // utheta
 9:   1.0000000 // du theta
10:   1.0000000 // alphaLH
11:   1.0000000 // dalphaLH
12:   1.0000000 // ualphaLH
13:   1.0000000 // du alphaLH
14:   1.0000000 // alphaLF
15:   1.0000000 // dalphaLF
16:   1.0000000 // ualphaLF
17:   1.0000000 // du alphaLF
18:   1.0000000 // alphaRF
19:   1.0000000 // dalphaRF
20:   1.0000000 // ualphaRF
21:   1.0000000 // dualphaRF
22:   1.0000000 // alphaRH
23:   1.0000000 // dalphaRH
24:   1.0000000 // ualphaRH
25:   1.0000000 // dualphaRH
26:   1.0000000 // lLH
27:   1.0000000 // dlLH
28:   1.0000000 // ulLH
29:   1.0000000 // dulLH
30:   1.0000000 // lLF
31:   1.0000000 // dlLF
32:   1.0000000 // ulLF
33:   1.0000000 // dulLF
34:   1.0000000 // lRF
35:   1.0000000 // dlRF
36:   1.0000000 // ulRF
37:   1.0000000 // dulRF
38:   1.0000000 // lRH
39:   1.0000000 // dlRH
40:   1.0000000 // ulRH
41:   1.0000000 // dulRH
42:   1.0000000 // posActWork -> must initially remain 0
43:   1.0000000 // posElWork -> must initially remain 0
44:   1.0000000 // totElLoss -> must initially remain 0

// Minimal values for all model stages:
sd_min(*,*)
 0: -100.0000000 // x -> must initially remain 0
 1: -100.0000000 // dx
 2: -100.0000000 // y
 3: -100.0000000 // dy
 4: -100.0000000 // phi -> Remains initially 0 for hip SEA
 5: -100.0000000 // dphi
 6: -100.0000000 // theta
 7: -100.0000000 // dtheta
 8:  -0.7853982 // utheta
 9: -100.0000000 // du theta
10: -100.0000000 // alphaLH
11: -100.0000000 // dalphaLH
12:  -0.7853982 // ualphaLH
13: -100.0000000 // du alphaLH
14: -100.0000000 // alphaLF
15: -100.0000000 // dalphaLF
16:  -0.7853982 // ualphaLF
17: -100.0000000 // du alphaLF
18: -100.0000000 // alphaRF
19: -100.0000000 // dalphaRF
20:  -0.7853982 // ualphaRF
21: -100.0000000 // dualphaRF
22: -100.0000000 // alphaRH
23: -100.0000000 // dalphaRH
24:  -0.7853982 // ualphaRH
25: -100.0000000 // dualphaRH
26: -100.0000000 // lLH
27: -100.0000000 // dlLH
28:  -0.1500000 // ulLH
29: -100.0000000 // dulLH
30: -100.0000000 // lLF
31: -100.0000000 // dlLF
32:  -0.1500000 // ulLF
33: -100.0000000 // dulLF
34: -100.0000000 // lRF
35: -100.0000000 // dlRF
36:  -0.1500000 // ulRF
37: -100.0000000 // dulRF
38: -100.0000000 // lRH
39: -100.0000000 // dlRH
40:  -0.1500000 // ulRH
41: -100.0000000 // dulRH
42: -100.0000000 // posActWork -> must initially remain 0
43: -100.0000000 // posElWork -> must initially remain 0
44: -100.0000000 // totElLoss -> must initially remain 0

// Maximal values for all model stages:
sd_max(*,*)
 0: 100.0000000 // x -> must initially remain 0
 1: 100.0000000 // dx
 2: 100.0000000 // y
 3: 100.0000000 // dy
 4: 100.0000000 // phi -> Remains initially 0 for hip SEA
 5: 100.0000000 // dphi
 6: 100.0000000 // theta
 7: 100.0000000 // dtheta
 8:   0.7853982 // utheta
 9: 100.0000000 // du theta
10: 100.0000000 // alphaLH
11: 100.0000000 // dalphaLH
12:   0.7853982 // ualphaLH
13: 100.0000000 // du alphaLH
14: 100.0000000 // alphaLF
15: 100.0000000 // dalphaLF
16:   0.7853982 // ualphaLF
17: 100.0000000 // du alphaLF
18: 100.0000000 // alphaRF
19: 100.0000000 // dalphaRF
20:   0.7853982 // ualphaRF
21: 100.0000000 // dualphaRF
22: 100.0000000 // alphaRH
23: 100.0000000 // dalphaRH
24:   0.7853982 // ualphaRH
25: 100.0000000 // dualphaRH
26: 100.0000000 // lLH
27: 100.0000000 // dlLH
28:   0.1500000 // ulLH
29: 100.0000000 // dulLH
30: 100.0000000 // lLF
31: 100.0000000 // dlLF
32:   0.1500000 // ulLF
33: 100.0000000 // dulLF
34: 100.0000000 // lRF
35: 100.0000000 // dlRF
36:   0.1500000 // ulRF
37: 100.0000000 // dulRF
38: 100.0000000 // lRH
39: 100.0000000 // dlRH
40:   0.1500000 // ulRH
41: 100.0000000 // dulRH
42: 100.0000000 // posActWork -> must initially remain 0
43: 100.0000000 // posElWork -> must initially remain 0
44: 100.0000000 // totElLoss -> must initially remain 0

// Fix some states to their initial values:
sd_fix(0,S)
 0: 1 // x -> must initially remain 0
 1: 0 // dx
 2: 0 // y
 3: 0 // dy
 4: 1 // phi -> Remains initially 0 for hip SEA
 5: 0 // dphi
 6: 0 // theta
 7: 0 // dtheta
 8: 0 // utheta
 9: 0 // du theta
10: 0 // alphaLH
11: 0 // dalphaLH
12: 0 // ualphaLH
13: 0 // du alphaLH
14: 0 // alphaLF
15: 0 // dalphaLF
16: 0 // ualphaLF
17: 0 // du alphaLF
18: 0 // alphaRF
19: 0 // dalphaRF
20: 0 // ualphaRF
21: 0 // dualphaRF
22: 0 // alphaRH
23: 0 // dalphaRH
24: 0 // ualphaRH
25: 0 // dualphaRH
26: 0 // lLH
27: 0 // dlLH
28: 0 // ulLH
29: 0 // dulLH
30: 0 // lLF
31: 0 // dlLF
32: 0 // ulLF
33: 0 // dulLF
34: 0 // lRF
35: 0 // dlRF
36: 0 // ulRF
37: 0 // dulRF
38: 0 // lRH
39: 0 // dlRH
40: 0 // ulRH
41: 0 // dulRH
42: 1 // posActWork -> must initially remain 0
43: 1 // posElWork -> must initially remain 0
44: 1 // totElLoss -> must initially remain 0

// Fix some states throughout integration:
sd_fix(*,*)
 0: 0 // x -> must initially remain 0
 1: 0 // dx
 2: 0 // y
 3: 0 // dy
 4: 0 // phi -> Remains initially 0 for hip SEA
 5: 0 // dphi
 6: 0 // theta
 7: 0 // dtheta
 8: 0 // utheta
 9: 0 // du theta
10: 0 // alphaLH
11: 0 // dalphaLH
12: 0 // ualphaLH
13: 0 // du alphaLH
14: 0 // alphaLF
15: 0 // dalphaLF
16: 0 // ualphaLF
17: 0 // du alphaLF
18: 0 // alphaRF
19: 0 // dalphaRF
20: 0 // ualphaRF
21: 0 // dualphaRF
22: 0 // alphaRH
23: 0 // dalphaRH
24: 0 // ualphaRH
25: 0 // dualphaRH
26: 0 // lLH
27: 0 // dlLH
28: 0 // ulLH
29: 0 // dulLH
30: 0 // lLF
31: 0 // dlLF
32: 0 // ulLF
33: 0 // dulLF
34: 0 // lRF
35: 0 // dlRF
36: 0 // ulRF
37: 0 // dulRF
38: 0 // lRH
39: 0 // dlRH
40: 0 // ulRH
41: 0 // dulRH
42: 0 // posActWork -> must initially remain 0
43: 0 // posElWork -> must initially remain 0
44: 0 // totElLoss -> must initially remain 0

/***********************************************
 * ADJUSTABLE PARAMETER DEFINITIONS            *
 ***********************************************/
// Parameter names:
p_name
 0: hip jnt type
 1: leg jnt type
 2: cost fct sel
 3: v avg
 4: const_sel
 5: k alpha
 6: du max alpha
 7: k l
 8: du max l
 9: k theta
10: du max theta
11: sigma

// Inital values for all global parameters:
p
 0:   0.0000000 // hip_jnt_type [0; 1]            Actuator selection hip (0 = series elastic; 1 = parallel elastic)
 1:   0.0000000 // leg_jnt_type [0; 1]            Actuator selection leg (0 = series elastic; 1 = parallel elastic)
 2:   1.0000000 // cost_fct_sel [1; 2; 3]         Cost function selector (1 = ActWorkCOT; 2 = ElWorkCOT; 3 = ElLossCOT)
 3:   1.2000000 // v_avg        [sqrt(l_0*g)]     Enforced average velocity
 4:   7.0000000 // const_sel    [binary flags]    1: GroundClearance 2: TorqueLimits 4: SpeedLimits
 5:   2.3005530 // kalpha       [m_0*g*l_0/rad]   Rotational spring stiffness in the hip joint
 6:   6.6173950 // du_max_alpha [rad/sqrt(l_0/g)] Maximal velocity of the leg extension actuator
 7:  10.4372000 // kl           [m_0*g/l_0]       Linear spring stiffness in the prismatic joint
 8:   0.5778826 // du_max_l     [sqrt(g*l_0)]     Maximal velocity of the leg 
 9:   4.9435520 // ktheta       [m_0*g*l_0/rad]   Rotation spring stiffness in the spine
10:   4.0000000 // du_max_theta [rad/sqrt(l_0/g)] Maximal velocity of the spine actuator
11:   0.0010000 // sigma        [0:1]             Logistic Function Tuner
12:   1.0000000 // UthetaOn     [0; 1]            Spine Actuator Flag

// Parameter scale factors:
p_sca
 0:   1.0000000 // hip_jnt_type [0; 1]            Actuator selection hip (0 = series elastic; 1 = parallel elastic)
 1:   1.0000000 // leg_jnt_type [0; 1]            Actuator selection leg (0 = series elastic; 1 = parallel elastic)
 2:   1.0000000 // cost_fct_sel [1; 2; 3]         Cost function selector (1 = ActWorkCOT; 2 = ElWorkCOT; 3 = ElLossCOT)
 3:   1.0000000 // v_avg        [sqrt(l_0*g)]     Enforced average velocity
 4:   1.0000000 // const_sel    [binary flags]    1: GroundClearance 2: TorqueLimits 4: SpeedLimits
 5:   5.0000000 // kalpha       [m_0*g*l_0/rad]   Rotational spring stiffness in the hip joint
 6:   4.0000000 // du_max_alpha [rad/sqrt(l_0/g)] Maximal velocity of the leg extension actuator
 7:  10.0000000 // kl           [m_0*g/l_0]       Linear spring stiffness in the prismatic joint
 8:   0.5000000 // du_max_l     [sqrt(g*l_0)]     Maximal velocity of the leg 
 9:   5.0000000 // ktheta       [m_0*g*l_0/rad]   Rotation spring stiffness in the spine
10:   4.0000000 // du_max_theta [rad/sqrt(l_0/g)] Maximal velocity of the spine actuator
11:   0.0010000 // sigma        [0:1]             Logistic Function Tuner
12:   1.0000000 // UthetaOn     [0; 1]            Spine Actuator Flag

// Parameter minimal values:
p_min
 0:   0.0000000 // hip_jnt_type [0; 1]            Actuator selection hip (0 = series elastic; 1 = parallel elastic)
 1:   0.0000000 // leg_jnt_type [0; 1]            Actuator selection leg (0 = series elastic; 1 = parallel elastic)
 2:   1.0000000 // cost_fct_sel [1; 2; 3]         Cost function selector (1 = ActWorkCOT; 2 = ElWorkCOT; 3 = ElLossCOT)
 3:   0.0000000 // v_avg        [sqrt(l_0*g)]     Enforced average velocity
 4:   0.0000000 // const_sel    [binary flags]    1: GroundClearance 2: TorqueLimits 4: SpeedLimits
 5:   0.0001000 // kalpha       [m_0*g*l_0/rad]   Rotational spring stiffness in the hip joint
 6:   0.0001000 // du_max_alpha [rad/sqrt(l_0/g)] Maximal velocity of the leg extension actuator
 7:   0.0001000 // kl           [m_0*g/l_0]       Linear spring stiffness in the prismatic joint
 8:   0.0001000 // du_max_l     [sqrt(g*l_0)]     Maximal velocity of the leg 
 9:   0.0001000 // ktheta       [m_0*g*l_0/rad]   Rotation spring stiffness in the spine
10:   0.0001000 // du_max_theta [rad/sqrt(l_0/g)] Maximal velocity of the spine actuator
11:   0.0000000 // sigma        [0:1]             Logistic Function Tuner
12:   0.0000000 // UthetaOn     [0; 1]            Spine Actuator Flag

// Parameter maximal values:
p_max
 0:   1.0000000 // hip_jnt_type [0; 1]            Actuator selection hip (0 = series elastic; 1 = parallel elastic)
 1:   1.0000000 // leg_jnt_type [0; 1]            Actuator selection leg (0 = series elastic; 1 = parallel elastic)
 2:   3.0000000 // cost_fct_sel [1; 2; 3]         Cost function selector (1 = ActWorkCOT; 2 = ElWorkCOT; 3 = ElLossCOT)
 3:   5.0000000 // v_avg        [sqrt(l_0*g)]     Enforced average velocity
 4:   7.0000000 // const_sel    [binary flags]    1: GroundClearance 2: TorqueLimits 4: SpeedLimits
 5: 1000.0000000 // kalpha       [m_0*g*l_0/rad]   Rotational spring stiffness in the hip joint
 6:  10.0000000 // du_max_alpha [rad/sqrt(l_0/g)] Maximal velocity of the leg extension actuator
 7: 1000.0000000 // kl           [m_0*g/l_0]       Linear spring stiffness in the prismatic joint
 8:  10.0000000 // du_max_l     [sqrt(g*l_0)]     Maximal velocity of the leg 
 9: 1000.0000000 // ktheta       [m_0*g*l_0/rad]   Rotation spring stiffness in the spine
10:  10.0000000 // du_max_theta [rad/sqrt(l_0/g)] Maximal velocity of the spine actuator
11:   1.0000000 // sigma        [0:1]             Logistic Function Tuner
12:   1.0000000 // UthetaOn     [0; 1]            Spine Actuator Flag

// Parameter fixed values:
p_fix
 0: 1 // hip_jnt_type [0; 1]            Actuator selection hip (0 = series elastic; 1 = parallel elastic)
 1: 1 // leg_jnt_type [0; 1]            Actuator selection leg (0 = series elastic; 1 = parallel elastic)
 2: 1 // cost_fct_sel [1; 2; 3]         Cost function selector (1 = ActWorkCOT; 2 = ElWorkCOT; 3 = ElLossCOT)
 3: 1 // v_avg        [sqrt(l_0*g)]     Enforced average velocity
 4: 1 // const_sel    [binary flags]    1: GroundClearance 2: TorqueLimits 4: SpeedLimits
 5: 0 // kalpha       [m_0*g*l_0/rad]   Rotational spring stiffness in the hip joint
 6: 0 // du_max_alpha [rad/sqrt(l_0/g)] Maximal velocity of the leg extension actuator
 7: 0 // kl           [m_0*g/l_0]       Linear spring stiffness in the prismatic joint
 8: 0 // du_max_l     [sqrt(g*l_0)]     Maximal velocity of the leg 
 9: 0 // ktheta       [m_0*g*l_0/rad]   Rotation spring stiffness in the spine
10: 0 // du_max_theta [rad/sqrt(l_0/g)] Maximal velocity of the spine actuator
11: 1 // sigma        [0:1]             Logistic Function Tuner
12: 1 // UthetaOn     [0; 1]            Spine Actuator Flag

/***********************************************
 * CONTROL DEFINITIONS                         *
 ***********************************************/
// Control names:
u_name
 0: T theta
 1: T alpha LH
 2: T alpha LF
 3: T alpha RF
 4: T alpha RH
 5: F l LH
 6: F l LF
 7: F l RF
 8: F l RH

// Control parameterization type:
u_type(*)
 0: 0 // Ttheta
 1: 0 // TalphaLH
 2: 0 // TalphaLF
 3: 0 // TalphaRF
 4: 0 // TalphaRH
 5: 0 // FlLH
 6: 0 // FlLF
 7: 0 // FlRF
 8: 0 // FlRH

// Control start values at stage 1 point 1:
u(0,0)
 0:  -0.0000001 // Ttheta
 1:  -0.1287102 // TalphaLH
 2:  -0.0031817 // TalphaLF
 3:  -0.0000934 // TalphaRF
 4:   0.0050703 // TalphaRH
 5:   0.0327705 // FlLH
 6:   0.0123088 // FlLF
 7:  -0.0017635 // FlRF
 8:  -0.0788515 // FlRH

// Control start values at stage 2 point 1:
u(1,0)
 0:  -0.0000001 // Ttheta
 1:  -0.1287102 // TalphaLH
 2:  -0.0031817 // TalphaLF
 3:  -0.0000934 // TalphaRF
 4:   0.0050703 // TalphaRH
 5:   0.0327705 // FlLH
 6:   0.0123088 // FlLF
 7:  -0.0017635 // FlRF
 8:  -0.0788515 // FlRH

// Control start values at stage 3 point 1:
u(2,0)
 0:  -0.0000001 // Ttheta
 1:  -0.1287102 // TalphaLH
 2:  -0.0031817 // TalphaLF
 3:  -0.0000934 // TalphaRF
 4:   0.0050703 // TalphaRH
 5:   0.0327705 // FlLH
 6:   0.0123088 // FlLF
 7:  -0.0017635 // FlRF
 8:  -0.0788515 // FlRH

// Control start values at stage 3 point 2:
u(2,1)
 0:   0.0000000 // Ttheta
 1:  -0.1023070 // TalphaLH
 2:  -0.0000647 // TalphaLF
 3:   0.1287102 // TalphaRF
 4:   0.0019161 // TalphaRH
 5:   0.5961275 // FlLH
 6:   0.0387824 // FlLF
 7:  -0.4841940 // FlRF
 8:  -0.0682310 // FlRH

// Control start values at stage 3 point 3:
u(2,2)
 0:   0.0000000 // Ttheta
 1:  -0.0716552 // TalphaLH
 2:   0.0001185 // TalphaLF
 3:   0.1287102 // TalphaRF
 4:  -0.0027557 // TalphaRH
 5:   1.0323320 // FlLH
 6:   0.1025459 // FlLF
 7:  -0.1626754 // FlRF
 8:  -0.1344748 // FlRH

// Control start values at stage 3 point 4:
u(2,3)
 0:   0.0000001 // Ttheta
 1:  -0.0780066 // TalphaLH
 2:  -0.0003286 // TalphaLF
 3:   0.1287102 // TalphaRF
 4:  -0.0674381 // TalphaRH
 5:   1.4654910 // FlLH
 6:   0.0219481 // FlLF
 7:  -0.0121036 // FlRF
 8:  -0.0480160 // FlRH

// Control start values at stage 3 point 5:
u(2,4)
 0:  -0.0000001 // Ttheta
 1:  -0.0395981 // TalphaLH
 2:  -0.0006555 // TalphaLF
 3:   0.1287102 // TalphaRF
 4:  -0.0781098 // TalphaRH
 5:   1.4738740 // FlLH
 6:  -0.0403806 // FlLF
 7:  -0.0043640 // FlRF
 8:   0.0885538 // FlRH

// Control start values at stage 3 point 6:
u(2,5)
 0:  -0.0000001 // Ttheta
 1:  -0.0251762 // TalphaLH
 2:  -0.0045768 // TalphaLF
 3:   0.0794406 // TalphaRF
 4:  -0.0691288 // TalphaRH
 5:   0.8033769 // FlLH
 6:  -0.1254272 // FlLF
 7:   0.0149353 // FlRF
 8:  -0.3261957 // FlRH

// Control start values at stage 4 point 1:
u(3,0)
 0:  -0.0000003 // Ttheta
 1:   0.0002780 // TalphaLH
 2:  -0.1287102 // TalphaLF
 3:   0.0289470 // TalphaRF
 4:  -0.1044358 // TalphaRH
 5:  -0.0086558 // FlLH
 6:   0.1673532 // FlLF
 7:   0.0376918 // FlRF
 8:   0.0239168 // FlRH

// Control start values at stage 5 point 1:
u(4,0)
 0:  -0.0000003 // Ttheta
 1:   0.0002780 // TalphaLH
 2:  -0.1287102 // TalphaLF
 3:   0.0289470 // TalphaRF
 4:  -0.1044358 // TalphaRH
 5:  -0.0086558 // FlLH
 6:   0.1673532 // FlLF
 7:   0.0376918 // FlRF
 8:   0.0239168 // FlRH

// Control start values at stage 6 point 1:
u(5,0)
 0:   0.0000001 // Ttheta
 1:   0.1287102 // TalphaLH
 2:   0.1287102 // TalphaLF
 3:   0.0103966 // TalphaRF
 4:  -0.1237326 // TalphaRH
 5:   0.3216437 // FlLH
 6:   0.0481398 // FlLF
 7:   0.0336114 // FlRF
 8:   0.1176987 // FlRH

// Control start values at stage 6 point 2:
u(5,1)
 0:   0.0000001 // Ttheta
 1:   0.1104484 // TalphaLH
 2:  -0.1287102 // TalphaLF
 3:   0.0062016 // TalphaRF
 4:  -0.1132274 // TalphaRH
 5:  -0.3309079 // FlLH
 6:  -0.0389650 // FlLF
 7:   0.0497089 // FlRF
 8:   0.6260811 // FlRH

// Control start values at stage 6 point 3:
u(5,2)
 0:  -0.0000000 // Ttheta
 1:   0.0870724 // TalphaLH
 2:  -0.1270259 // TalphaLF
 3:   0.0020603 // TalphaRF
 4:  -0.1287102 // TalphaRH
 5:  -0.4032037 // FlLH
 6:  -0.2883902 // FlLF
 7:   0.1614751 // FlRF
 8:   0.9963728 // FlRH

// Control start values at stage 7 point 1:
u(6,0)
 0:   0.0000000 // Ttheta
 1:   0.0527551 // TalphaLH
 2:  -0.0969712 // TalphaLF
 3:   0.0014133 // TalphaRF
 4:  -0.1287102 // TalphaRH
 5:  -0.0628231 // FlLH
 6:   0.0667739 // FlLF
 7:   0.0720689 // FlRF
 8:   1.4738740 // FlRH

// Control start values at stage 8 point 1:
u(7,0)
 0:   0.0000000 // Ttheta
 1:   0.0527551 // TalphaLH
 2:  -0.0969712 // TalphaLF
 3:   0.0014133 // TalphaRF
 4:  -0.1287102 // TalphaRH
 5:  -0.0628231 // FlLH
 6:   0.0667739 // FlLF
 7:   0.0720689 // FlRF
 8:   1.4738740 // FlRH

// Control start values at stage 8 point 2:
u(7,1)
 0:  -0.0000001 // Ttheta
 1:   0.0027507 // TalphaLH
 2:  -0.0302691 // TalphaLF
 3:   0.0004398 // TalphaRF
 4:  -0.0871835 // TalphaRH
 5:  -0.0348249 // FlLH
 6:   0.7038179 // FlLF
 7:  -0.1464579 // FlRF
 8:   1.4738740 // FlRH

// Control start values at stage 8 point 3:
u(7,2)
 0:   0.0000000 // Ttheta
 1:   0.0032008 // TalphaLH
 2:  -0.0194881 // TalphaLF
 3:   0.0003606 // TalphaRF
 4:  -0.0644378 // TalphaRH
 5:  -0.0163539 // FlLH
 6:   1.0111720 // FlLF
 7:  -0.1579258 // FlRF
 8:   1.4738740 // FlRH

// Control start values at stage 8 point 4:
u(7,3)
 0:  -0.0000000 // Ttheta
 1:   0.0123253 // TalphaLH
 2:  -0.0098809 // TalphaLF
 3:   0.0002516 // TalphaRF
 4:  -0.0226107 // TalphaRH
 5:   0.0182246 // FlLH
 6:   1.1379440 // FlLF
 7:   0.1598469 // FlRF
 8:   0.0643044 // FlRH

// Control start values at stage 9 point 1:
u(8,0)
 0:  -0.0000001 // Ttheta
 1:   0.0125144 // TalphaLH
 2:  -0.0040687 // TalphaLF
 3:  -0.0005016 // TalphaRF
 4:   0.0634105 // TalphaRH
 5:   0.0449525 // FlLH
 6:   1.2477340 // FlLF
 7:   0.0130329 // FlRF
 8:  -0.0179277 // FlRH

// Control start values at stage 9 point 2:
u(8,1)
 0:   0.0000000 // Ttheta
 1:   0.0031573 // TalphaLH
 2:  -0.0045510 // TalphaLF
 3:  -0.1287102 // TalphaRF
 4:   0.1287102 // TalphaRH
 5:   0.0358312 // FlLH
 6:   1.4738740 // FlLF
 7:  -0.1270486 // FlRF
 8:  -0.2599037 // FlRH

// Control start values at stage 9 point 3:
u(8,2)
 0:  -0.0000000 // Ttheta
 1:   0.0012380 // TalphaLH
 2:  -0.0025411 // TalphaLF
 3:  -0.1077712 // TalphaRF
 4:   0.1287102 // TalphaRH
 5:   0.0345966 // FlLH
 6:   0.4025136 // FlLF
 7:  -0.3642644 // FlRF
 8:  -0.3123701 // FlRH

// Control start values at stage 10 point 1:
u(9,0)
 0:   0.0000000 // Ttheta
 1:   0.0007192 // TalphaLH
 2:   0.0006341 // TalphaLF
 3:  -0.1254105 // TalphaRF
 4:   0.1287102 // TalphaRH
 5:   0.1685332 // FlLH
 6:   0.0064671 // FlLF
 7:   0.0555347 // FlRF
 8:  -0.0312267 // FlRH

// Control start values at stage 11 point 1:
u(10,0)
 0:   0.0000000 // Ttheta
 1:   0.0007192 // TalphaLH
 2:   0.0006341 // TalphaLF
 3:  -0.1254105 // TalphaRF
 4:   0.1287102 // TalphaRH
 5:   0.1685332 // FlLH
 6:   0.0064671 // FlLF
 7:   0.0555347 // FlRF
 8:  -0.0312267 // FlRH

// Control start values at stage 12 point 1:
u(11,0)
 0:  -0.0000000 // Ttheta
 1:   0.0007940 // TalphaLH
 2:   0.1287102 // TalphaLF
 3:  -0.1287102 // TalphaRF
 4:   0.0699303 // TalphaRH
 5:   0.0105761 // FlLH
 6:  -0.0408301 // FlLF
 7:   0.0283868 // FlRF
 8:  -0.3732809 // FlRH

// Control start values at stage 12 point 2:
u(11,1)
 0:   0.0000000 // Ttheta
 1:   0.0008122 // TalphaLH
 2:   0.1047760 // TalphaLF
 3:  -0.0592402 // TalphaRF
 4:   0.1080153 // TalphaRH
 5:   0.0102497 // FlLH
 6:  -0.3078102 // FlLF
 7:   0.5060934 // FlRF
 8:   0.0140148 // FlRH

// Control start values at stage 12 point 3:
u(11,2)
 0:   0.0000001 // Ttheta
 1:   0.0009094 // TalphaLH
 2:   0.0987584 // TalphaLF
 3:  -0.0306762 // TalphaRF
 4:   0.0764901 // TalphaRH
 5:  -0.1496891 // FlLH
 6:  -0.3379895 // FlLF
 7:   1.0024900 // FlRF
 8:   0.0098423 // FlRH

// Control start values at stage 12 point 4:
u(11,3)
 0:   0.0000000 // Ttheta
 1:  -0.0041361 // TalphaLH
 2:   0.0699910 // TalphaLF
 3:  -0.0125141 // TalphaRF
 4:   0.0412049 // TalphaRH
 5:   0.1189160 // FlLH
 6:  -0.0361611 // FlLF
 7:   1.3945400 // FlRF
 8:  -0.0002560 // FlRH

// Control start values at stage 12 point 5:
u(11,4)
 0:   0.0000000 // Ttheta
 1:  -0.1260428 // TalphaLH
 2:   0.0258580 // TalphaLF
 3:  -0.0019456 // TalphaRF
 4:   0.0077258 // TalphaRH
 5:   0.0521162 // FlLH
 6:  -0.0300474 // FlLF
 7:   1.4738740 // FlRF
 8:   0.0329615 // FlRH

// Control start values at stage 12 point 6:
u(11,5)
 0:   0.0000000 // Ttheta
 1:  -0.1287102 // TalphaLH
 2:   0.0021066 // TalphaLF
 3:  -0.0557408 // TalphaRF
 4:   0.0054888 // TalphaRH
 5:  -0.2675730 // FlLH
 6:  -0.0274785 // FlLF
 7:   1.0377640 // FlRF
 8:   0.1132552 // FlRH

// Control start values at the end of model stage 12:
u(11,E)
 0:  -0.0000001 // Ttheta
 1:  -0.1287102 // TalphaLH
 2:  -0.0031817 // TalphaLF
 3:  -0.0000934 // TalphaRF
 4:   0.0050703 // TalphaRH
 5:   0.0327705 // FlLH
 6:   0.0123088 // FlLF
 7:  -0.0017635 // FlRF
 8:  -0.0788515 // FlRH

// Control scale factors:
u_sca(*,*)
 0:   1.0000000 // Ttheta
 1:   1.0000000 // TalphaLH
 2:   1.0000000 // TalphaLF
 3:   1.0000000 // TalphaRF
 4:   1.0000000 // TalphaRH
 5:   1.0000000 // FlLH
 6:   1.0000000 // FlLF
 7:   1.0000000 // FlRF
 8:   1.0000000 // FlRH

// Control minimal values:
u_min(*,*)
 0: -25.0000000 // Ttheta
 1: -25.0000000 // TalphaLH
 2: -25.0000000 // TalphaLF
 3: -25.0000000 // TalphaRF
 4: -25.0000000 // TalphaRH
 5: -25.0000000 // FlLH
 6: -25.0000000 // FlLF
 7: -25.0000000 // FlRF
 8: -25.0000000 // FlRH

// Control maximal values:
u_max(*,*)
 0:  25.0000000 // Ttheta
 1:  25.0000000 // TalphaLH
 2:  25.0000000 // TalphaLF
 3:  25.0000000 // TalphaRF
 4:  25.0000000 // TalphaRH
 5:  25.0000000 // FlLH
 6:  25.0000000 // FlLF
 7:  25.0000000 // FlRF
 8:  25.0000000 // FlRH

// Excitation state fixed values:
u_fix(*,*)
 0: 0 // Ttheta
 1: 0 // TalphaLH
 2: 0 // TalphaLF
 3: 0 // TalphaRF
 4: 0 // TalphaRH
 5: 0 // FlLH
 6: 0 // FlLF
 7: 0 // FlRF
 8: 0 // FlRH

/***********************************************
 * CONSTRAINT DEFINITIONS                      *
 ***********************************************/
// Decoupled i.p.c. scale factors:
rd_sca(0,S)
ALL:   1.0000000

rd_sca(12,E)
ALL:   1.0000000

rc_sca
ALL:   1.0000000

/***********************************************
 * OBJECTIVE FUNCTION DEFINITIONS              *
 ***********************************************/
// Objective function name:
of_name
COT

// Objective function scale:
of_sca
  0.5000000

// Objective function expected lower bound:
of_min
  0.0000000

// Objective function expected upper bound:
of_max
  1.0000000

// # of values in history plot:
nhist
100

/***********************************************
 * CHOOSING LIBRARIES                          *
 ***********************************************/
libhessian
hess_update

libsolve
solve_slse

libcond
cond_std

libtchk
tchk

libmssqp
mssqp_standard

libeval
eval_ind

libqps
qps_qpopt

libplot
plot_pgplot

/***********************************************
 * SETTING ALGORITHMIC PARAMETER               *
 ***********************************************/
options_acc
  0.0000010

options_ftol
 -1.0000000

options_itol
 -1.0000000

options_rfac
  0.0000000

options_levmar
  0.0000000

options_qp_featol
  0.0000000

options_qp_relax
  1.1000000

options_nhtopy
  0.0000000

options_frstart
  0.0000000

options_frmax
  0.0000000

options_itmax
300.0000000

options_plevel_screen
  0.0000000

options_plevel_file
  1.0000000

options_plevel_matlab
  0.0000000

options_bflag
 -1.0000000

options_qp_itmax
10000.0000000

options_qp_expand
99999999.0000000

options_sflag
  0.0000000

options_options_wflag
  0.0000000

options_cflag
  0.0000000

options_output_ps
  0.0000000

options_output_gif
  0.0000000

