%!PS-Adobe-3.0 EPSF-3.0
%%Creator: (MATLAB, The Mathworks, Inc. Version 8.4.0.150421 \(R2014b\). Operating System: Linux)
%%Title: /home/yevyes/Yev_Will/Figures/All_Gaits_Passive_vs_Active.eps
%%CreationDate: 2016-07-29T11:39:00
%%Pages: (atend)
%%BoundingBox: 0 0 392 311
%%LanguageLevel: 2
%%EndComments
%%BeginProlog
%%BeginResource: procset (Apache XML Graphics Std ProcSet) 1.2 0
%%Version: 1.2 0
%%Copyright: (Copyright 2001-2003,2010 The Apache Software Foundation. License terms: http://www.apache.org/licenses/LICENSE-2.0)
/bd{bind def}bind def
/ld{load def}bd
/GR/grestore ld
/M/moveto ld
/LJ/setlinejoin ld
/C/curveto ld
/f/fill ld
/LW/setlinewidth ld
/GC/setgray ld
/t/show ld
/N/newpath ld
/CT/concat ld
/cp/closepath ld
/S/stroke ld
/L/lineto ld
/CC/setcmykcolor ld
/A/ashow ld
/GS/gsave ld
/RC/setrgbcolor ld
/RM/rmoveto ld
/ML/setmiterlimit ld
/re {4 2 roll M
1 index 0 rlineto
0 exch rlineto
neg 0 rlineto
cp } bd
/_ctm matrix def
/_tm matrix def
/BT { _ctm currentmatrix pop matrix _tm copy pop 0 0 moveto } bd
/ET { _ctm setmatrix } bd
/iTm { _ctm setmatrix _tm concat } bd
/Tm { _tm astore pop iTm 0 0 moveto } bd
/ux 0.0 def
/uy 0.0 def
/F {
  /Tp exch def
  /Tf exch def
  Tf findfont Tp scalefont setfont
  /cf Tf def  /cs Tp def
} bd
/ULS {currentpoint /uy exch def /ux exch def} bd
/ULE {
  /Tcx currentpoint pop def
  gsave
  newpath
  cf findfont cs scalefont dup
  /FontMatrix get 0 get /Ts exch def /FontInfo get dup
  /UnderlinePosition get Ts mul /To exch def
  /UnderlineThickness get Ts mul /Tt exch def
  ux uy To add moveto  Tcx uy To add lineto
  Tt setlinewidth stroke
  grestore
} bd
/OLE {
  /Tcx currentpoint pop def
  gsave
  newpath
  cf findfont cs scalefont dup
  /FontMatrix get 0 get /Ts exch def /FontInfo get dup
  /UnderlinePosition get Ts mul /To exch def
  /UnderlineThickness get Ts mul /Tt exch def
  ux uy To add cs add moveto Tcx uy To add cs add lineto
  Tt setlinewidth stroke
  grestore
} bd
/SOE {
  /Tcx currentpoint pop def
  gsave
  newpath
  cf findfont cs scalefont dup
  /FontMatrix get 0 get /Ts exch def /FontInfo get dup
  /UnderlinePosition get Ts mul /To exch def
  /UnderlineThickness get Ts mul /Tt exch def
  ux uy To add cs 10 mul 26 idiv add moveto Tcx uy To add cs 10 mul 26 idiv add lineto
  Tt setlinewidth stroke
  grestore
} bd
/QT {
/Y22 exch store
/X22 exch store
/Y21 exch store
/X21 exch store
currentpoint
/Y21 load 2 mul add 3 div exch
/X21 load 2 mul add 3 div exch
/X21 load 2 mul /X22 load add 3 div
/Y21 load 2 mul /Y22 load add 3 div
/X22 load /Y22 load curveto
} bd
/SSPD {
dup length /d exch dict def
{
/v exch def
/k exch def
currentpagedevice k known {
/cpdv currentpagedevice k get def
v cpdv ne {
/upd false def
/nullv v type /nulltype eq def
/nullcpdv cpdv type /nulltype eq def
nullv nullcpdv or
{
/upd true def
} {
/sametype v type cpdv type eq def
sametype {
v type /arraytype eq {
/vlen v length def
/cpdvlen cpdv length def
vlen cpdvlen eq {
0 1 vlen 1 sub {
/i exch def
/obj v i get def
/cpdobj cpdv i get def
obj cpdobj ne {
/upd true def
exit
} if
} for
} {
/upd true def
} ifelse
} {
v type /dicttype eq {
v {
/dv exch def
/dk exch def
/cpddv cpdv dk get def
dv cpddv ne {
/upd true def
exit
} if
} forall
} {
/upd true def
} ifelse
} ifelse
} if
} ifelse
upd true eq {
d k v put
} if
} if
} if
} forall
d length 0 gt {
d setpagedevice
} if
} bd
%%EndResource
%%BeginResource: procset (Apache XML Graphics EPS ProcSet) 1.0 0
%%Version: 1.0 0
%%Copyright: (Copyright 2002-2003 The Apache Software Foundation. License terms: http://www.apache.org/licenses/LICENSE-2.0)
/BeginEPSF { %def
/b4_Inc_state save def         % Save state for cleanup
/dict_count countdictstack def % Count objects on dict stack
/op_count count 1 sub def      % Count objects on operand stack
userdict begin                 % Push userdict on dict stack
/showpage { } def              % Redefine showpage, { } = null proc
0 setgray 0 setlinecap         % Prepare graphics state
1 setlinewidth 0 setlinejoin
10 setmiterlimit [ ] 0 setdash newpath
/languagelevel where           % If level not equal to 1 then
{pop languagelevel             % set strokeadjust and
1 ne                           % overprint to their defaults.
{false setstrokeadjust false setoverprint
} if
} if
} bd
/EndEPSF { %def
count op_count sub {pop} repeat            % Clean up stacks
countdictstack dict_count sub {end} repeat
b4_Inc_state restore
} bd
%%EndResource
%FOPBeginFontDict
%%IncludeResource: font Courier-Bold
%%IncludeResource: font Helvetica
%%IncludeResource: font Courier-BoldOblique
%%IncludeResource: font Courier-Oblique
%%IncludeResource: font Times-Roman
%%IncludeResource: font Helvetica-BoldOblique
%%IncludeResource: font Helvetica-Bold
%%IncludeResource: font Helvetica-Oblique
%%IncludeResource: font Times-BoldItalic
%%IncludeResource: font Courier
%%IncludeResource: font Times-Italic
%%IncludeResource: font Times-Bold
%%IncludeResource: font Symbol
%%IncludeResource: font ZapfDingbats
%FOPEndFontDict
%%BeginResource: encoding WinAnsiEncoding
/WinAnsiEncoding [
/.notdef /.notdef /.notdef /.notdef /.notdef
/.notdef /.notdef /.notdef /.notdef /.notdef
/.notdef /.notdef /.notdef /.notdef /.notdef
/.notdef /.notdef /.notdef /.notdef /.notdef
/.notdef /.notdef /.notdef /.notdef /.notdef
/.notdef /.notdef /.notdef /.notdef /.notdef
/.notdef /.notdef /space /exclam /quotedbl
/numbersign /dollar /percent /ampersand /quotesingle
/parenleft /parenright /asterisk /plus /comma
/hyphen /period /slash /zero /one
/two /three /four /five /six
/seven /eight /nine /colon /semicolon
/less /equal /greater /question /at
/A /B /C /D /E
/F /G /H /I /J
/K /L /M /N /O
/P /Q /R /S /T
/U /V /W /X /Y
/Z /bracketleft /backslash /bracketright /asciicircum
/underscore /quoteleft /a /b /c
/d /e /f /g /h
/i /j /k /l /m
/n /o /p /q /r
/s /t /u /v /w
/x /y /z /braceleft /bar
/braceright /asciitilde /bullet /Euro /bullet
/quotesinglbase /florin /quotedblbase /ellipsis /dagger
/daggerdbl /circumflex /perthousand /Scaron /guilsinglleft
/OE /bullet /Zcaron /bullet /bullet
/quoteleft /quoteright /quotedblleft /quotedblright /bullet
/endash /emdash /asciitilde /trademark /scaron
/guilsinglright /oe /bullet /zcaron /Ydieresis
/space /exclamdown /cent /sterling /currency
/yen /brokenbar /section /dieresis /copyright
/ordfeminine /guillemotleft /logicalnot /sfthyphen /registered
/macron /degree /plusminus /twosuperior /threesuperior
/acute /mu /paragraph /middot /cedilla
/onesuperior /ordmasculine /guillemotright /onequarter /onehalf
/threequarters /questiondown /Agrave /Aacute /Acircumflex
/Atilde /Adieresis /Aring /AE /Ccedilla
/Egrave /Eacute /Ecircumflex /Edieresis /Igrave
/Iacute /Icircumflex /Idieresis /Eth /Ntilde
/Ograve /Oacute /Ocircumflex /Otilde /Odieresis
/multiply /Oslash /Ugrave /Uacute /Ucircumflex
/Udieresis /Yacute /Thorn /germandbls /agrave
/aacute /acircumflex /atilde /adieresis /aring
/ae /ccedilla /egrave /eacute /ecircumflex
/edieresis /igrave /iacute /icircumflex /idieresis
/eth /ntilde /ograve /oacute /ocircumflex
/otilde /odieresis /divide /oslash /ugrave
/uacute /ucircumflex /udieresis /yacute /thorn
/ydieresis
] def
%%EndResource
%FOPBeginFontReencode
/Courier-Bold findfont
dup length dict begin
  {1 index /FID ne {def} {pop pop} ifelse} forall
  /Encoding WinAnsiEncoding def
  currentdict
end
/Courier-Bold exch definefont pop
/Helvetica findfont
dup length dict begin
  {1 index /FID ne {def} {pop pop} ifelse} forall
  /Encoding WinAnsiEncoding def
  currentdict
end
/Helvetica exch definefont pop
/Courier-BoldOblique findfont
dup length dict begin
  {1 index /FID ne {def} {pop pop} ifelse} forall
  /Encoding WinAnsiEncoding def
  currentdict
end
/Courier-BoldOblique exch definefont pop
/Courier-Oblique findfont
dup length dict begin
  {1 index /FID ne {def} {pop pop} ifelse} forall
  /Encoding WinAnsiEncoding def
  currentdict
end
/Courier-Oblique exch definefont pop
/Times-Roman findfont
dup length dict begin
  {1 index /FID ne {def} {pop pop} ifelse} forall
  /Encoding WinAnsiEncoding def
  currentdict
end
/Times-Roman exch definefont pop
/Helvetica-BoldOblique findfont
dup length dict begin
  {1 index /FID ne {def} {pop pop} ifelse} forall
  /Encoding WinAnsiEncoding def
  currentdict
end
/Helvetica-BoldOblique exch definefont pop
/Helvetica-Bold findfont
dup length dict begin
  {1 index /FID ne {def} {pop pop} ifelse} forall
  /Encoding WinAnsiEncoding def
  currentdict
end
/Helvetica-Bold exch definefont pop
/Helvetica-Oblique findfont
dup length dict begin
  {1 index /FID ne {def} {pop pop} ifelse} forall
  /Encoding WinAnsiEncoding def
  currentdict
end
/Helvetica-Oblique exch definefont pop
/Times-BoldItalic findfont
dup length dict begin
  {1 index /FID ne {def} {pop pop} ifelse} forall
  /Encoding WinAnsiEncoding def
  currentdict
end
/Times-BoldItalic exch definefont pop
/Courier findfont
dup length dict begin
  {1 index /FID ne {def} {pop pop} ifelse} forall
  /Encoding WinAnsiEncoding def
  currentdict
end
/Courier exch definefont pop
/Times-Italic findfont
dup length dict begin
  {1 index /FID ne {def} {pop pop} ifelse} forall
  /Encoding WinAnsiEncoding def
  currentdict
end
/Times-Italic exch definefont pop
/Times-Bold findfont
dup length dict begin
  {1 index /FID ne {def} {pop pop} ifelse} forall
  /Encoding WinAnsiEncoding def
  currentdict
end
/Times-Bold exch definefont pop
%FOPEndFontReencode
%%EndProlog
%%Page: 1 1
%%PageBoundingBox: 0 0 392 311
%%BeginPageSetup
[1 0 0 -1 0 311] CT
%%EndPageSetup
GS
[0.75 0 0 0.75 0 0.5] CT
N
0 0 M
522 0 L
522 414 L
0 414 L
0 0 L
cp
clip
1 GC
N
0 0 522 414 re
f
GR
GS
[0.75 0 0 0.75 0 0.5] CT
N
0 0 M
522 0 L
522 414 L
0 414 L
0 0 L
cp
clip
1 GC
N
0 0 522 414 re
f
GR
GS
[0.75 0 0 0.75 0 0.5] CT
1 GC
N
68 368 M
472 368 L
472 31 L
68 31 L
cp
f
GR
GS
[0.75 0 0 0.75 0 0.5] CT
0.873 GC
2 setlinecap
10.0 ML
N
68 368 M
68 31 L
S
GR
GS
[0.75 0 0 0.75 0 0.5] CT
0.873 GC
2 setlinecap
10.0 ML
N
148.8 368 M
148.8 31 L
S
GR
GS
[0.75 0 0 0.75 0 0.5] CT
0.873 GC
2 setlinecap
10.0 ML
N
229.6 368 M
229.6 31 L
S
GR
GS
[0.75 0 0 0.75 0 0.5] CT
0.873 GC
2 setlinecap
10.0 ML
N
310.4 368 M
310.4 31 L
S
GR
GS
[0.75 0 0 0.75 0 0.5] CT
0.873 GC
2 setlinecap
10.0 ML
N
391.2 368 M
391.2 31 L
S
GR
GS
[0.75 0 0 0.75 0 0.5] CT
0.873 GC
2 setlinecap
10.0 ML
N
472 368 M
472 31 L
S
GR
GS
[0.75 0 0 0.75 0 0.5] CT
0.873 GC
2 setlinecap
10.0 ML
N
472 368 M
68 368 L
S
GR
GS
[0.75 0 0 0.75 0 0.5] CT
0.873 GC
2 setlinecap
10.0 ML
N
472 319.857 M
68 319.857 L
S
GR
GS
[0.75 0 0 0.75 0 0.5] CT
0.873 GC
2 setlinecap
10.0 ML
N
472 271.714 M
68 271.714 L
S
GR
GS
[0.75 0 0 0.75 0 0.5] CT
0.873 GC
2 setlinecap
10.0 ML
N
472 223.571 M
68 223.571 L
S
GR
GS
[0.75 0 0 0.75 0 0.5] CT
0.873 GC
2 setlinecap
10.0 ML
N
472 175.429 M
68 175.429 L
S
GR
GS
[0.75 0 0 0.75 0 0.5] CT
0.873 GC
2 setlinecap
10.0 ML
N
472 127.286 M
68 127.286 L
S
GR
GS
[0.75 0 0 0.75 0 0.5] CT
0.873 GC
2 setlinecap
10.0 ML
N
472 79.143 M
68 79.143 L
S
GR
GS
[0.75 0 0 0.75 0 0.5] CT
0.873 GC
2 setlinecap
10.0 ML
N
472 31 M
68 31 L
S
GR
GS
[0.75 0 0 0.75 0 0.5] CT
0.149 GC
2 setlinecap
10.0 ML
N
68 368 M
472 368 L
S
GR
GS
[0.75 0 0 0.75 0 0.5] CT
0.149 GC
2 setlinecap
10.0 ML
N
68 31 M
472 31 L
S
GR
GS
[0.75 0 0 0.75 0 0.5] CT
0.149 GC
2 setlinecap
10.0 ML
N
68 368 M
68 363.96 L
S
GR
GS
[0.75 0 0 0.75 0 0.5] CT
0.149 GC
2 setlinecap
10.0 ML
N
68 31 M
68 35.04 L
S
GR
GS
[0.75 0 0 0.75 0 0.5] CT
0.149 GC
2 setlinecap
10.0 ML
N
148.8 368 M
148.8 363.96 L
S
GR
GS
[0.75 0 0 0.75 0 0.5] CT
0.149 GC
2 setlinecap
10.0 ML
N
148.8 31 M
148.8 35.04 L
S
GR
GS
[0.75 0 0 0.75 0 0.5] CT
0.149 GC
2 setlinecap
10.0 ML
N
229.6 368 M
229.6 363.96 L
S
GR
GS
[0.75 0 0 0.75 0 0.5] CT
0.149 GC
2 setlinecap
10.0 ML
N
229.6 31 M
229.6 35.04 L
S
GR
GS
[0.75 0 0 0.75 0 0.5] CT
0.149 GC
2 setlinecap
10.0 ML
N
310.4 368 M
310.4 363.96 L
S
GR
GS
[0.75 0 0 0.75 0 0.5] CT
0.149 GC
2 setlinecap
10.0 ML
N
310.4 31 M
310.4 35.04 L
S
GR
GS
[0.75 0 0 0.75 0 0.5] CT
0.149 GC
2 setlinecap
10.0 ML
N
391.2 368 M
391.2 363.96 L
S
GR
GS
[0.75 0 0 0.75 0 0.5] CT
0.149 GC
2 setlinecap
10.0 ML
N
391.2 31 M
391.2 35.04 L
S
GR
GS
[0.75 0 0 0.75 0 0.5] CT
0.149 GC
2 setlinecap
10.0 ML
N
472 368 M
472 363.96 L
S
GR
GS
[0.75 0 0 0.75 0 0.5] CT
0.149 GC
2 setlinecap
10.0 ML
N
472 31 M
472 35.04 L
S
GR
GS
[0.75 0 0 0.75 51 280.50001] CT
0.149 GC
/Helvetica 13 F
GS
[1 0 0 1 0 0] CT
-4.135 12.067 moveto 
1 -1 scale
(0) t 
GR
GR
GS
[0.75 0 0 0.75 111.6 280.50001] CT
0.149 GC
/Helvetica 13 F
GS
[1 0 0 1 0 0] CT
-10.337 12.067 moveto 
1 -1 scale
(0.5) t 
GR
GR
GS
[0.75 0 0 0.75 172.2 280.50001] CT
0.149 GC
/Helvetica 13 F
GS
[1 0 0 1 0 0] CT
-4.135 12.067 moveto 
1 -1 scale
(1) t 
GR
GR
GS
[0.75 0 0 0.75 232.8 280.50001] CT
0.149 GC
/Helvetica 13 F
GS
[1 0 0 1 0 0] CT
-10.337 12.067 moveto 
1 -1 scale
(1.5) t 
GR
GR
GS
[0.75 0 0 0.75 293.40001 280.50001] CT
0.149 GC
/Helvetica 13 F
GS
[1 0 0 1 0 0] CT
-4.135 12.067 moveto 
1 -1 scale
(2) t 
GR
GR
GS
[0.75 0 0 0.75 354 280.50001] CT
0.149 GC
/Helvetica 13 F
GS
[1 0 0 1 0 0] CT
-10.337 12.067 moveto 
1 -1 scale
(2.5) t 
GR
GR
GS
[0.75 0 0 0.75 0 0.5] CT
0.149 GC
2 setlinecap
10.0 ML
N
68 368 M
68 31 L
S
GR
GS
[0.75 0 0 0.75 0 0.5] CT
0.149 GC
2 setlinecap
10.0 ML
N
472 368 M
472 31 L
S
GR
GS
[0.75 0 0 0.75 0 0.5] CT
0.149 GC
2 setlinecap
10.0 ML
N
68 368 M
72.04 368 L
S
GR
GS
[0.75 0 0 0.75 0 0.5] CT
0.149 GC
2 setlinecap
10.0 ML
N
472 368 M
467.96 368 L
S
GR
GS
[0.75 0 0 0.75 0 0.5] CT
0.149 GC
2 setlinecap
10.0 ML
N
68 319.857 M
72.04 319.857 L
S
GR
GS
[0.75 0 0 0.75 0 0.5] CT
0.149 GC
2 setlinecap
10.0 ML
N
472 319.857 M
467.96 319.857 L
S
GR
GS
[0.75 0 0 0.75 0 0.5] CT
0.149 GC
2 setlinecap
10.0 ML
N
68 271.714 M
72.04 271.714 L
S
GR
GS
[0.75 0 0 0.75 0 0.5] CT
0.149 GC
2 setlinecap
10.0 ML
N
472 271.714 M
467.96 271.714 L
S
GR
GS
[0.75 0 0 0.75 0 0.5] CT
0.149 GC
2 setlinecap
10.0 ML
N
68 223.571 M
72.04 223.571 L
S
GR
GS
[0.75 0 0 0.75 0 0.5] CT
0.149 GC
2 setlinecap
10.0 ML
N
472 223.571 M
467.96 223.571 L
S
GR
GS
[0.75 0 0 0.75 0 0.5] CT
0.149 GC
2 setlinecap
10.0 ML
N
68 175.429 M
72.04 175.429 L
S
GR
GS
[0.75 0 0 0.75 0 0.5] CT
0.149 GC
2 setlinecap
10.0 ML
N
472 175.429 M
467.96 175.429 L
S
GR
GS
[0.75 0 0 0.75 0 0.5] CT
0.149 GC
2 setlinecap
10.0 ML
N
68 127.286 M
72.04 127.286 L
S
GR
GS
[0.75 0 0 0.75 0 0.5] CT
0.149 GC
2 setlinecap
10.0 ML
N
472 127.286 M
467.96 127.286 L
S
GR
GS
[0.75 0 0 0.75 0 0.5] CT
0.149 GC
2 setlinecap
10.0 ML
N
68 79.143 M
72.04 79.143 L
S
GR
GS
[0.75 0 0 0.75 0 0.5] CT
0.149 GC
2 setlinecap
10.0 ML
N
472 79.143 M
467.96 79.143 L
S
GR
GS
[0.75 0 0 0.75 0 0.5] CT
0.149 GC
2 setlinecap
10.0 ML
N
68 31 M
72.04 31 L
S
GR
GS
[0.75 0 0 0.75 0 0.5] CT
0.149 GC
2 setlinecap
10.0 ML
N
472 31 M
467.96 31 L
S
GR
GS
[0.75 0 0 0.75 47 276.5] CT
0.149 GC
/Helvetica 13 F
GS
[1 0 0 1 0 0] CT
-28.945 4.5 moveto 
1 -1 scale
(0.05) t 
GR
GR
GS
[0.75 0 0 0.75 47 240.39286] CT
0.149 GC
/Helvetica 13 F
GS
[1 0 0 1 0 0] CT
-20.674 4.5 moveto 
1 -1 scale
(0.1) t 
GR
GR
GS
[0.75 0 0 0.75 47 204.28572] CT
0.149 GC
/Helvetica 13 F
GS
[1 0 0 1 0 0] CT
-28.945 4.5 moveto 
1 -1 scale
(0.15) t 
GR
GR
GS
[0.75 0 0 0.75 47 168.17857] CT
0.149 GC
/Helvetica 13 F
GS
[1 0 0 1 0 0] CT
-20.674 4.5 moveto 
1 -1 scale
(0.2) t 
GR
GR
GS
[0.75 0 0 0.75 47 132.07143] CT
0.149 GC
/Helvetica 13 F
GS
[1 0 0 1 0 0] CT
-28.945 4.5 moveto 
1 -1 scale
(0.25) t 
GR
GR
GS
[0.75 0 0 0.75 47 95.96428] CT
0.149 GC
/Helvetica 13 F
GS
[1 0 0 1 0 0] CT
-20.674 4.5 moveto 
1 -1 scale
(0.3) t 
GR
GR
GS
[0.75 0 0 0.75 47 59.85715] CT
0.149 GC
/Helvetica 13 F
GS
[1 0 0 1 0 0] CT
-28.945 4.5 moveto 
1 -1 scale
(0.35) t 
GR
GR
GS
[0.75 0 0 0.75 47 23.75] CT
0.149 GC
/Helvetica 13 F
GS
[1 0 0 1 0 0] CT
-20.674 4.5 moveto 
1 -1 scale
(0.4) t 
GR
GR
GS
[0.75 0 0 0.75 0 0.5] CT
[10 6] 0 setdash
2 LJ
N
104.36 332.191 M
108.4 337.717 L
112.44 341.453 L
116.48 343.754 L
120.52 344.702 L
124.56 344.472 L
128.6 343.548 L
132.64 341.823 L
136.68 339.148 L
140.72 335.636 L
144.76 331.597 L
148.8 326.676 L
152.84 320.706 L
156.88 313.832 L
160.92 305.937 L
164.96 296.796 L
169 286.53 L
173.04 275.037 L
177.08 262.973 L
181.12 263.984 L
185.16 264.795 L
189.2 264.97 L
193.24 265.309 L
197.28 265.324 L
201.32 265.518 L
205.36 265.076 L
209.4 264.618 L
213.44 264.272 L
217.48 263.31 L
221.52 262.458 L
225.56 261.058 L
229.6 259.45 L
233.64 257.818 L
237.68 256.452 L
241.72 254.69 L
245.76 252.892 L
249.8 251.151 L
253.84 249.087 L
257.88 247.16 L
261.92 246.738 L
265.96 245.204 L
270 243.744 L
274.04 242.124 L
278.08 240.191 L
282.12 238.308 L
286.16 236.657 L
290.2 234.923 L
294.24 233.523 L
298.28 231.72 L
302.32 230.103 L
306.36 227.968 L
310.4 226.568 L
314.44 224.659 L
318.48 222.535 L
322.52 220.407 L
326.56 218.673 L
330.6 216.623 L
334.64 214.909 L
338.68 213.245 L
342.72 210.925 L
346.76 209.407 L
350.8 207.487 L
354.84 205.128 L
358.88 203.207 L
362.92 201.202 L
366.96 199.119 L
371 197.001 L
375.04 194.826 L
379.08 192.669 L
383.12 190.411 L
387.16 188.26 L
391.2 185.661 L
395.24 183.195 L
399.28 180.247 L
403.32 177.031 L
407.36 174.721 L
411.4 171.64 L
415.44 168.12 L
419.48 164.337 L
423.52 159.804 L
427.56 154.742 L
431.6 148.133 L
435.64 140.06 L
439.68 130.283 L
443.72 118.229 L
447.76 101.102 L
451.8 69.499 L
S
GR
GS
[0.75 0 0 0.75 0 0.5] CT
0.4 0.4 1 RC
[10 6] 0 setdash
2 LJ
N
104.36 356.788 M
108.4 358.619 L
112.44 359.155 L
116.48 358.782 L
120.52 357.566 L
124.56 355.799 L
128.6 353.51 L
132.64 350.341 L
136.68 346.387 L
140.72 342.362 L
144.76 337.384 L
148.8 332.698 L
152.84 326.591 L
156.88 319.951 L
160.92 312.089 L
164.96 302.872 L
169 292.781 L
173.04 282.521 L
177.08 268.95 L
181.12 255.403 L
185.16 238.675 L
189.2 219.885 L
193.24 200.584 L
197.28 182.515 L
201.32 160.824 L
205.36 137.075 L
209.4 109.743 L
213.44 86.628 L
217.48 58.076 L
S
GR
GS
[0.75 0 0 0.75 0 0.5] CT
0.4 1 0.4 RC
[10 6] 0 setdash
2 LJ
N
108.4 65.974 M
112.44 94.39 L
116.48 124.678 L
120.52 146.479 L
124.56 174.352 L
128.6 176.482 L
132.64 187.981 L
136.68 199.468 L
140.72 208.754 L
144.76 226.992 L
148.8 223.719 L
152.84 229.431 L
156.88 234.144 L
160.92 236.509 L
164.96 238.891 L
169 239.208 L
173.04 240.432 L
177.08 241.435 L
181.12 241.636 L
185.16 241.382 L
189.2 240.919 L
193.24 240.007 L
197.28 238.717 L
201.32 237.978 L
205.36 237.102 L
209.4 235.558 L
213.44 233.455 L
217.48 230.697 L
221.52 227.8 L
225.56 230.818 L
229.6 219.832 L
233.64 215.851 L
237.68 210.53 L
241.72 204.795 L
245.76 198.379 L
249.8 192.034 L
253.84 185.249 L
257.88 177.932 L
261.92 170.396 L
265.96 162.39 L
270 154.267 L
274.04 146.115 L
278.08 137.5 L
282.12 128.097 L
286.16 118.42 L
290.2 109.018 L
294.24 98.768 L
298.28 88.337 L
302.32 88.05 L
306.36 78.278 L
310.4 68.626 L
314.44 57.97 L
318.48 46.703 L
322.52 34.827 L
S
GR
GS
[0.75 0 0 0.75 0 0.5] CT
[2 2] 0 setdash
2 LJ
2.667 LW
N
104.36 329.503 M
108.4 335.514 L
112.44 339.766 L
116.48 342.254 L
120.52 343.73 L
124.56 344.138 L
128.6 343.765 L
132.64 342.556 L
136.68 340.594 L
140.72 337.907 L
144.76 334.489 L
148.8 330.35 L
152.84 325.328 L
156.88 319.889 L
160.92 313.817 L
164.96 307.188 L
169 300.143 L
173.04 291.335 L
177.08 281.951 L
181.12 271.379 L
185.16 267.505 L
189.2 267.604 L
193.24 267.957 L
197.28 267.933 L
201.32 267.531 L
205.36 267.197 L
209.4 266.114 L
213.44 265.016 L
217.48 264.546 L
221.52 263.57 L
225.56 262.582 L
229.6 261.558 L
233.64 260.181 L
237.68 258.682 L
241.72 257.03 L
245.76 255.392 L
249.8 254.23 L
253.84 252.441 L
257.88 250.394 L
261.92 248.86 L
265.96 246.89 L
270 244.562 L
274.04 242.787 L
278.08 240.62 L
282.12 238.682 L
286.16 236.757 L
290.2 234.834 L
294.24 232.832 L
298.28 230.922 L
302.32 228.772 L
306.36 226.673 L
310.4 224.576 L
314.44 222.116 L
318.48 219.854 L
322.52 217.678 L
326.56 215.773 L
330.6 213.712 L
334.64 211.802 L
338.68 208.934 L
342.72 207.657 L
346.76 205.298 L
350.8 202.772 L
354.84 201.094 L
358.88 198.679 L
362.92 196.606 L
366.96 194.006 L
371 192.124 L
375.04 189.592 L
379.08 186.955 L
383.12 184.155 L
387.16 182.242 L
391.2 179.773 L
395.24 177.374 L
399.28 174.691 L
403.32 172.182 L
407.36 169.46 L
411.4 166.55 L
415.44 162.757 L
419.48 160.33 L
423.52 157.489 L
427.56 154.109 L
431.6 150.328 L
435.64 145.145 L
439.68 139.881 L
443.72 135.151 L
447.76 126.261 L
451.8 117.828 L
455.84 108.247 L
459.88 93.63 L
463.92 75.383 L
467.96 40.285 L
S
GR
GS
[0.75 0 0 0.75 0 0.5] CT
0.4 0.4 1 RC
[2 2] 0 setdash
2 LJ
2.667 LW
N
104.36 358.995 M
108.4 359.395 L
112.44 360.082 L
116.48 359.597 L
120.52 358.239 L
124.56 356.015 L
128.6 353.172 L
132.64 349.08 L
136.68 345.109 L
140.72 341.018 L
144.76 335.584 L
148.8 330.284 L
152.84 323.697 L
156.88 315.423 L
160.92 305.31 L
164.96 294.247 L
169 281.628 L
173.04 270.079 L
177.08 256.678 L
181.12 243.305 L
185.16 225.361 L
189.2 206.711 L
193.24 187.299 L
197.28 166.076 L
201.32 142.951 L
205.36 119.528 L
209.4 93.603 L
213.44 64.768 L
217.48 34.926 L
S
GR
GS
[0.75 0 0 0.75 0 0.5] CT
0.4 1 0.4 RC
[2 2] 0 setdash
2 LJ
2.667 LW
N
104.36 90.729 M
108.4 126.874 L
112.44 156.469 L
116.48 177.9 L
120.52 192.695 L
124.56 207.252 L
128.6 218.535 L
132.64 226.937 L
136.68 233.613 L
140.72 238.583 L
144.76 242.965 L
148.8 246.056 L
152.84 249.363 L
156.88 249.301 L
160.92 249.75 L
164.96 249.624 L
169 248.583 L
173.04 247.09 L
177.08 245.988 L
181.12 247.652 L
185.16 248.047 L
189.2 247.985 L
193.24 247.584 L
197.28 246.807 L
201.32 245.616 L
205.36 243.905 L
209.4 241.758 L
213.44 239.654 L
217.48 236.634 L
221.52 233.487 L
225.56 230.111 L
229.6 226.418 L
233.64 222.087 L
237.68 217.23 L
241.72 212.952 L
245.76 208.494 L
249.8 201.973 L
253.84 194.514 L
257.88 186.361 L
261.92 177.792 L
265.96 166.115 L
270 156.562 L
274.04 146.35 L
278.08 145.379 L
282.12 137.524 L
286.16 128.895 L
290.2 119.788 L
294.24 109.546 L
298.28 100.165 L
302.32 89.8 L
306.36 78.113 L
310.4 65.536 L
314.44 51.936 L
318.48 36.831 L
S
GR
GS
[0.75 0 0 0.75 0 0.5] CT
1 GC
N
346 93 M
346 44 L
459 44 L
459 93 L
cp
f
GR
GS
[0.75 0 0 0.75 298.55672 40.80193] CT
/Helvetica 12 F
GS
[1 0 0 1 0 0] CT
0 4.154 moveto 
1 -1 scale
(Trotting) t 
GR
GR
GS
[0.75 0 0 0.75 0 0.5] CT
[10 6] 0 setdash
2 LJ
N
354.012 53.736 M
394.07 53.736 L
S
GR
GS
[0.75 0 0 0.75 298.55672 51.875] CT
/Helvetica 12 F
GS
[1 0 0 1 0 0] CT
0 4.154 moveto 
1 -1 scale
(Walking) t 
GR
GR
GS
[0.75 0 0 0.75 0 0.5] CT
0.4 0.4 1 RC
[10 6] 0 setdash
2 LJ
N
354.012 68.5 M
394.07 68.5 L
S
GR
GS
[0.75 0 0 0.75 298.55672 62.94807] CT
/Helvetica 12 F
GS
[1 0 0 1 0 0] CT
0 4.154 moveto 
1 -1 scale
(Galloping) t 
GR
GR
GS
[0.75 0 0 0.75 0 0.5] CT
0.4 1 0.4 RC
[10 6] 0 setdash
2 LJ
N
354.012 83.264 M
394.07 83.264 L
S
GR
GS
[0.75 0 0 0.75 0 0.5] CT
0.149 GC
2 setlinecap
10.0 ML
N
346 93 M
346 44 L
459 44 L
459 93 L
346 93 L
S
GR
%%Trailer
%%Pages: 1
%%EOF
