%!PS-Adobe-3.0 EPSF-3.0
%%Creator: (MATLAB, The Mathworks, Inc. Version 8.4.0.150421 \(R2014b\). Operating System: Linux)
%%Title: /home/yevyes/Yev_Will/Figures/All_Gaits_Rigid_vs_Active.eps
%%CreationDate: 2016-07-29T11:40:36
%%Pages: (atend)
%%BoundingBox: 0 0 671 448
%%LanguageLevel: 2
%%EndComments
%%BeginProlog
%%BeginResource: procset (Apache XML Graphics Std ProcSet) 1.2 0
%%Version: 1.2 0
%%Copyright: (Copyright 2001-2003,2010 The Apache Software Foundation. License terms: http://www.apache.org/licenses/LICENSE-2.0)
/bd{bind def}bind def
/ld{load def}bd
/GR/grestore ld
/M/moveto ld
/LJ/setlinejoin ld
/C/curveto ld
/f/fill ld
/LW/setlinewidth ld
/GC/setgray ld
/t/show ld
/N/newpath ld
/CT/concat ld
/cp/closepath ld
/S/stroke ld
/L/lineto ld
/CC/setcmykcolor ld
/A/ashow ld
/GS/gsave ld
/RC/setrgbcolor ld
/RM/rmoveto ld
/ML/setmiterlimit ld
/re {4 2 roll M
1 index 0 rlineto
0 exch rlineto
neg 0 rlineto
cp } bd
/_ctm matrix def
/_tm matrix def
/BT { _ctm currentmatrix pop matrix _tm copy pop 0 0 moveto } bd
/ET { _ctm setmatrix } bd
/iTm { _ctm setmatrix _tm concat } bd
/Tm { _tm astore pop iTm 0 0 moveto } bd
/ux 0.0 def
/uy 0.0 def
/F {
  /Tp exch def
  /Tf exch def
  Tf findfont Tp scalefont setfont
  /cf Tf def  /cs Tp def
} bd
/ULS {currentpoint /uy exch def /ux exch def} bd
/ULE {
  /Tcx currentpoint pop def
  gsave
  newpath
  cf findfont cs scalefont dup
  /FontMatrix get 0 get /Ts exch def /FontInfo get dup
  /UnderlinePosition get Ts mul /To exch def
  /UnderlineThickness get Ts mul /Tt exch def
  ux uy To add moveto  Tcx uy To add lineto
  Tt setlinewidth stroke
  grestore
} bd
/OLE {
  /Tcx currentpoint pop def
  gsave
  newpath
  cf findfont cs scalefont dup
  /FontMatrix get 0 get /Ts exch def /FontInfo get dup
  /UnderlinePosition get Ts mul /To exch def
  /UnderlineThickness get Ts mul /Tt exch def
  ux uy To add cs add moveto Tcx uy To add cs add lineto
  Tt setlinewidth stroke
  grestore
} bd
/SOE {
  /Tcx currentpoint pop def
  gsave
  newpath
  cf findfont cs scalefont dup
  /FontMatrix get 0 get /Ts exch def /FontInfo get dup
  /UnderlinePosition get Ts mul /To exch def
  /UnderlineThickness get Ts mul /Tt exch def
  ux uy To add cs 10 mul 26 idiv add moveto Tcx uy To add cs 10 mul 26 idiv add lineto
  Tt setlinewidth stroke
  grestore
} bd
/QT {
/Y22 exch store
/X22 exch store
/Y21 exch store
/X21 exch store
currentpoint
/Y21 load 2 mul add 3 div exch
/X21 load 2 mul add 3 div exch
/X21 load 2 mul /X22 load add 3 div
/Y21 load 2 mul /Y22 load add 3 div
/X22 load /Y22 load curveto
} bd
/SSPD {
dup length /d exch dict def
{
/v exch def
/k exch def
currentpagedevice k known {
/cpdv currentpagedevice k get def
v cpdv ne {
/upd false def
/nullv v type /nulltype eq def
/nullcpdv cpdv type /nulltype eq def
nullv nullcpdv or
{
/upd true def
} {
/sametype v type cpdv type eq def
sametype {
v type /arraytype eq {
/vlen v length def
/cpdvlen cpdv length def
vlen cpdvlen eq {
0 1 vlen 1 sub {
/i exch def
/obj v i get def
/cpdobj cpdv i get def
obj cpdobj ne {
/upd true def
exit
} if
} for
} {
/upd true def
} ifelse
} {
v type /dicttype eq {
v {
/dv exch def
/dk exch def
/cpddv cpdv dk get def
dv cpddv ne {
/upd true def
exit
} if
} forall
} {
/upd true def
} ifelse
} ifelse
} if
} ifelse
upd true eq {
d k v put
} if
} if
} if
} forall
d length 0 gt {
d setpagedevice
} if
} bd
%%EndResource
%%BeginResource: procset (Apache XML Graphics EPS ProcSet) 1.0 0
%%Version: 1.0 0
%%Copyright: (Copyright 2002-2003 The Apache Software Foundation. License terms: http://www.apache.org/licenses/LICENSE-2.0)
/BeginEPSF { %def
/b4_Inc_state save def         % Save state for cleanup
/dict_count countdictstack def % Count objects on dict stack
/op_count count 1 sub def      % Count objects on operand stack
userdict begin                 % Push userdict on dict stack
/showpage { } def              % Redefine showpage, { } = null proc
0 setgray 0 setlinecap         % Prepare graphics state
1 setlinewidth 0 setlinejoin
10 setmiterlimit [ ] 0 setdash newpath
/languagelevel where           % If level not equal to 1 then
{pop languagelevel             % set strokeadjust and
1 ne                           % overprint to their defaults.
{false setstrokeadjust false setoverprint
} if
} if
} bd
/EndEPSF { %def
count op_count sub {pop} repeat            % Clean up stacks
countdictstack dict_count sub {end} repeat
b4_Inc_state restore
} bd
%%EndResource
%FOPBeginFontDict
%%IncludeResource: font Courier-Bold
%%IncludeResource: font Helvetica
%%IncludeResource: font Courier-BoldOblique
%%IncludeResource: font Courier-Oblique
%%IncludeResource: font Times-Roman
%%IncludeResource: font Helvetica-BoldOblique
%%IncludeResource: font Helvetica-Bold
%%IncludeResource: font Helvetica-Oblique
%%IncludeResource: font Times-BoldItalic
%%IncludeResource: font Courier
%%IncludeResource: font Times-Italic
%%IncludeResource: font Times-Bold
%%IncludeResource: font Symbol
%%IncludeResource: font ZapfDingbats
%FOPEndFontDict
%%BeginResource: encoding WinAnsiEncoding
/WinAnsiEncoding [
/.notdef /.notdef /.notdef /.notdef /.notdef
/.notdef /.notdef /.notdef /.notdef /.notdef
/.notdef /.notdef /.notdef /.notdef /.notdef
/.notdef /.notdef /.notdef /.notdef /.notdef
/.notdef /.notdef /.notdef /.notdef /.notdef
/.notdef /.notdef /.notdef /.notdef /.notdef
/.notdef /.notdef /space /exclam /quotedbl
/numbersign /dollar /percent /ampersand /quotesingle
/parenleft /parenright /asterisk /plus /comma
/hyphen /period /slash /zero /one
/two /three /four /five /six
/seven /eight /nine /colon /semicolon
/less /equal /greater /question /at
/A /B /C /D /E
/F /G /H /I /J
/K /L /M /N /O
/P /Q /R /S /T
/U /V /W /X /Y
/Z /bracketleft /backslash /bracketright /asciicircum
/underscore /quoteleft /a /b /c
/d /e /f /g /h
/i /j /k /l /m
/n /o /p /q /r
/s /t /u /v /w
/x /y /z /braceleft /bar
/braceright /asciitilde /bullet /Euro /bullet
/quotesinglbase /florin /quotedblbase /ellipsis /dagger
/daggerdbl /circumflex /perthousand /Scaron /guilsinglleft
/OE /bullet /Zcaron /bullet /bullet
/quoteleft /quoteright /quotedblleft /quotedblright /bullet
/endash /emdash /asciitilde /trademark /scaron
/guilsinglright /oe /bullet /zcaron /Ydieresis
/space /exclamdown /cent /sterling /currency
/yen /brokenbar /section /dieresis /copyright
/ordfeminine /guillemotleft /logicalnot /sfthyphen /registered
/macron /degree /plusminus /twosuperior /threesuperior
/acute /mu /paragraph /middot /cedilla
/onesuperior /ordmasculine /guillemotright /onequarter /onehalf
/threequarters /questiondown /Agrave /Aacute /Acircumflex
/Atilde /Adieresis /Aring /AE /Ccedilla
/Egrave /Eacute /Ecircumflex /Edieresis /Igrave
/Iacute /Icircumflex /Idieresis /Eth /Ntilde
/Ograve /Oacute /Ocircumflex /Otilde /Odieresis
/multiply /Oslash /Ugrave /Uacute /Ucircumflex
/Udieresis /Yacute /Thorn /germandbls /agrave
/aacute /acircumflex /atilde /adieresis /aring
/ae /ccedilla /egrave /eacute /ecircumflex
/edieresis /igrave /iacute /icircumflex /idieresis
/eth /ntilde /ograve /oacute /ocircumflex
/otilde /odieresis /divide /oslash /ugrave
/uacute /ucircumflex /udieresis /yacute /thorn
/ydieresis
] def
%%EndResource
%FOPBeginFontReencode
/Courier-Bold findfont
dup length dict begin
  {1 index /FID ne {def} {pop pop} ifelse} forall
  /Encoding WinAnsiEncoding def
  currentdict
end
/Courier-Bold exch definefont pop
/Helvetica findfont
dup length dict begin
  {1 index /FID ne {def} {pop pop} ifelse} forall
  /Encoding WinAnsiEncoding def
  currentdict
end
/Helvetica exch definefont pop
/Courier-BoldOblique findfont
dup length dict begin
  {1 index /FID ne {def} {pop pop} ifelse} forall
  /Encoding WinAnsiEncoding def
  currentdict
end
/Courier-BoldOblique exch definefont pop
/Courier-Oblique findfont
dup length dict begin
  {1 index /FID ne {def} {pop pop} ifelse} forall
  /Encoding WinAnsiEncoding def
  currentdict
end
/Courier-Oblique exch definefont pop
/Times-Roman findfont
dup length dict begin
  {1 index /FID ne {def} {pop pop} ifelse} forall
  /Encoding WinAnsiEncoding def
  currentdict
end
/Times-Roman exch definefont pop
/Helvetica-BoldOblique findfont
dup length dict begin
  {1 index /FID ne {def} {pop pop} ifelse} forall
  /Encoding WinAnsiEncoding def
  currentdict
end
/Helvetica-BoldOblique exch definefont pop
/Helvetica-Bold findfont
dup length dict begin
  {1 index /FID ne {def} {pop pop} ifelse} forall
  /Encoding WinAnsiEncoding def
  currentdict
end
/Helvetica-Bold exch definefont pop
/Helvetica-Oblique findfont
dup length dict begin
  {1 index /FID ne {def} {pop pop} ifelse} forall
  /Encoding WinAnsiEncoding def
  currentdict
end
/Helvetica-Oblique exch definefont pop
/Times-BoldItalic findfont
dup length dict begin
  {1 index /FID ne {def} {pop pop} ifelse} forall
  /Encoding WinAnsiEncoding def
  currentdict
end
/Times-BoldItalic exch definefont pop
/Courier findfont
dup length dict begin
  {1 index /FID ne {def} {pop pop} ifelse} forall
  /Encoding WinAnsiEncoding def
  currentdict
end
/Courier exch definefont pop
/Times-Italic findfont
dup length dict begin
  {1 index /FID ne {def} {pop pop} ifelse} forall
  /Encoding WinAnsiEncoding def
  currentdict
end
/Times-Italic exch definefont pop
/Times-Bold findfont
dup length dict begin
  {1 index /FID ne {def} {pop pop} ifelse} forall
  /Encoding WinAnsiEncoding def
  currentdict
end
/Times-Bold exch definefont pop
%FOPEndFontReencode
%%EndProlog
%%Page: 1 1
%%PageBoundingBox: 0 0 671 448
%%BeginPageSetup
[1 0 0 -1 0 448] CT
%%EndPageSetup
GS
[0.75 0 0 0.75 0 0.25] CT
N
0 0 M
894 0 L
894 597 L
0 597 L
0 0 L
cp
clip
1 GC
N
0 0 894 597 re
f
GR
GS
[0.75 0 0 0.75 0 0.25] CT
N
0 0 M
894 0 L
894 597 L
0 597 L
0 0 L
cp
clip
1 GC
N
0 0 894 597 re
f
GR
GS
[0.75 0 0 0.75 0 0.25] CT
1 GC
N
116 531 M
809 531 L
809 45 L
116 45 L
cp
f
GR
GS
[0.75 0 0 0.75 0 0.25] CT
0.873 GC
2 setlinecap
10.0 ML
N
116 531 M
116 45 L
S
GR
GS
[0.75 0 0 0.75 0 0.25] CT
0.873 GC
2 setlinecap
10.0 ML
N
254.6 531 M
254.6 45 L
S
GR
GS
[0.75 0 0 0.75 0 0.25] CT
0.873 GC
2 setlinecap
10.0 ML
N
393.2 531 M
393.2 45 L
S
GR
GS
[0.75 0 0 0.75 0 0.25] CT
0.873 GC
2 setlinecap
10.0 ML
N
531.8 531 M
531.8 45 L
S
GR
GS
[0.75 0 0 0.75 0 0.25] CT
0.873 GC
2 setlinecap
10.0 ML
N
670.4 531 M
670.4 45 L
S
GR
GS
[0.75 0 0 0.75 0 0.25] CT
0.873 GC
2 setlinecap
10.0 ML
N
809 531 M
809 45 L
S
GR
GS
[0.75 0 0 0.75 0 0.25] CT
0.873 GC
2 setlinecap
10.0 ML
N
809 531 M
116 531 L
S
GR
GS
[0.75 0 0 0.75 0 0.25] CT
0.873 GC
2 setlinecap
10.0 ML
N
809 470.25 M
116 470.25 L
S
GR
GS
[0.75 0 0 0.75 0 0.25] CT
0.873 GC
2 setlinecap
10.0 ML
N
809 409.5 M
116 409.5 L
S
GR
GS
[0.75 0 0 0.75 0 0.25] CT
0.873 GC
2 setlinecap
10.0 ML
N
809 348.75 M
116 348.75 L
S
GR
GS
[0.75 0 0 0.75 0 0.25] CT
0.873 GC
2 setlinecap
10.0 ML
N
809 288 M
116 288 L
S
GR
GS
[0.75 0 0 0.75 0 0.25] CT
0.873 GC
2 setlinecap
10.0 ML
N
809 227.25 M
116 227.25 L
S
GR
GS
[0.75 0 0 0.75 0 0.25] CT
0.873 GC
2 setlinecap
10.0 ML
N
809 166.5 M
116 166.5 L
S
GR
GS
[0.75 0 0 0.75 0 0.25] CT
0.873 GC
2 setlinecap
10.0 ML
N
809 105.75 M
116 105.75 L
S
GR
GS
[0.75 0 0 0.75 0 0.25] CT
0.873 GC
2 setlinecap
10.0 ML
N
809 45 M
116 45 L
S
GR
GS
[0.75 0 0 0.75 0 0.25] CT
0.149 GC
2 setlinecap
10.0 ML
N
116 531 M
809 531 L
S
GR
GS
[0.75 0 0 0.75 0 0.25] CT
0.149 GC
2 setlinecap
10.0 ML
N
116 45 M
809 45 L
S
GR
GS
[0.75 0 0 0.75 0 0.25] CT
0.149 GC
2 setlinecap
10.0 ML
N
116 531 M
116 524.07 L
S
GR
GS
[0.75 0 0 0.75 0 0.25] CT
0.149 GC
2 setlinecap
10.0 ML
N
116 45 M
116 51.93 L
S
GR
GS
[0.75 0 0 0.75 0 0.25] CT
0.149 GC
2 setlinecap
10.0 ML
N
254.6 531 M
254.6 524.07 L
S
GR
GS
[0.75 0 0 0.75 0 0.25] CT
0.149 GC
2 setlinecap
10.0 ML
N
254.6 45 M
254.6 51.93 L
S
GR
GS
[0.75 0 0 0.75 0 0.25] CT
0.149 GC
2 setlinecap
10.0 ML
N
393.2 531 M
393.2 524.07 L
S
GR
GS
[0.75 0 0 0.75 0 0.25] CT
0.149 GC
2 setlinecap
10.0 ML
N
393.2 45 M
393.2 51.93 L
S
GR
GS
[0.75 0 0 0.75 0 0.25] CT
0.149 GC
2 setlinecap
10.0 ML
N
531.8 531 M
531.8 524.07 L
S
GR
GS
[0.75 0 0 0.75 0 0.25] CT
0.149 GC
2 setlinecap
10.0 ML
N
531.8 45 M
531.8 51.93 L
S
GR
GS
[0.75 0 0 0.75 0 0.25] CT
0.149 GC
2 setlinecap
10.0 ML
N
670.4 531 M
670.4 524.07 L
S
GR
GS
[0.75 0 0 0.75 0 0.25] CT
0.149 GC
2 setlinecap
10.0 ML
N
670.4 45 M
670.4 51.93 L
S
GR
GS
[0.75 0 0 0.75 0 0.25] CT
0.149 GC
2 setlinecap
10.0 ML
N
809 531 M
809 524.07 L
S
GR
GS
[0.75 0 0 0.75 0 0.25] CT
0.149 GC
2 setlinecap
10.0 ML
N
809 45 M
809 51.93 L
S
GR
GS
[0.75 0 0 0.75 87 402.49998] CT
0.149 GC
/Helvetica 13 F
GS
[1 0 0 1 0 0] CT
-4.135 12.067 moveto 
1 -1 scale
(0) t 
GR
GR
GS
[0.75 0 0 0.75 190.95 402.49998] CT
0.149 GC
/Helvetica 13 F
GS
[1 0 0 1 0 0] CT
-10.337 12.067 moveto 
1 -1 scale
(0.5) t 
GR
GR
GS
[0.75 0 0 0.75 294.90001 402.49998] CT
0.149 GC
/Helvetica 13 F
GS
[1 0 0 1 0 0] CT
-4.135 12.067 moveto 
1 -1 scale
(1) t 
GR
GR
GS
[0.75 0 0 0.75 398.84999 402.49998] CT
0.149 GC
/Helvetica 13 F
GS
[1 0 0 1 0 0] CT
-10.337 12.067 moveto 
1 -1 scale
(1.5) t 
GR
GR
GS
[0.75 0 0 0.75 502.80002 402.49998] CT
0.149 GC
/Helvetica 13 F
GS
[1 0 0 1 0 0] CT
-4.135 12.067 moveto 
1 -1 scale
(2) t 
GR
GR
GS
[0.75 0 0 0.75 606.75 402.49998] CT
0.149 GC
/Helvetica 13 F
GS
[1 0 0 1 0 0] CT
-10.337 12.067 moveto 
1 -1 scale
(2.5) t 
GR
GR
GS
[0.75 0 0 0.75 0 0.25] CT
0.149 GC
2 setlinecap
10.0 ML
N
116 531 M
116 45 L
S
GR
GS
[0.75 0 0 0.75 0 0.25] CT
0.149 GC
2 setlinecap
10.0 ML
N
809 531 M
809 45 L
S
GR
GS
[0.75 0 0 0.75 0 0.25] CT
0.149 GC
2 setlinecap
10.0 ML
N
116 531 M
122.93 531 L
S
GR
GS
[0.75 0 0 0.75 0 0.25] CT
0.149 GC
2 setlinecap
10.0 ML
N
809 531 M
802.07 531 L
S
GR
GS
[0.75 0 0 0.75 0 0.25] CT
0.149 GC
2 setlinecap
10.0 ML
N
116 470.25 M
122.93 470.25 L
S
GR
GS
[0.75 0 0 0.75 0 0.25] CT
0.149 GC
2 setlinecap
10.0 ML
N
809 470.25 M
802.07 470.25 L
S
GR
GS
[0.75 0 0 0.75 0 0.25] CT
0.149 GC
2 setlinecap
10.0 ML
N
116 409.5 M
122.93 409.5 L
S
GR
GS
[0.75 0 0 0.75 0 0.25] CT
0.149 GC
2 setlinecap
10.0 ML
N
809 409.5 M
802.07 409.5 L
S
GR
GS
[0.75 0 0 0.75 0 0.25] CT
0.149 GC
2 setlinecap
10.0 ML
N
116 348.75 M
122.93 348.75 L
S
GR
GS
[0.75 0 0 0.75 0 0.25] CT
0.149 GC
2 setlinecap
10.0 ML
N
809 348.75 M
802.07 348.75 L
S
GR
GS
[0.75 0 0 0.75 0 0.25] CT
0.149 GC
2 setlinecap
10.0 ML
N
116 288 M
122.93 288 L
S
GR
GS
[0.75 0 0 0.75 0 0.25] CT
0.149 GC
2 setlinecap
10.0 ML
N
809 288 M
802.07 288 L
S
GR
GS
[0.75 0 0 0.75 0 0.25] CT
0.149 GC
2 setlinecap
10.0 ML
N
116 227.25 M
122.93 227.25 L
S
GR
GS
[0.75 0 0 0.75 0 0.25] CT
0.149 GC
2 setlinecap
10.0 ML
N
809 227.25 M
802.07 227.25 L
S
GR
GS
[0.75 0 0 0.75 0 0.25] CT
0.149 GC
2 setlinecap
10.0 ML
N
116 166.5 M
122.93 166.5 L
S
GR
GS
[0.75 0 0 0.75 0 0.25] CT
0.149 GC
2 setlinecap
10.0 ML
N
809 166.5 M
802.07 166.5 L
S
GR
GS
[0.75 0 0 0.75 0 0.25] CT
0.149 GC
2 setlinecap
10.0 ML
N
116 105.75 M
122.93 105.75 L
S
GR
GS
[0.75 0 0 0.75 0 0.25] CT
0.149 GC
2 setlinecap
10.0 ML
N
809 105.75 M
802.07 105.75 L
S
GR
GS
[0.75 0 0 0.75 0 0.25] CT
0.149 GC
2 setlinecap
10.0 ML
N
116 45 M
122.93 45 L
S
GR
GS
[0.75 0 0 0.75 0 0.25] CT
0.149 GC
2 setlinecap
10.0 ML
N
809 45 M
802.07 45 L
S
GR
GS
[0.75 0 0 0.75 83 398.5] CT
0.149 GC
/Helvetica 13 F
GS
[1 0 0 1 0 0] CT
-8.271 4.5 moveto 
1 -1 scale
(0) t 
GR
GR
GS
[0.75 0 0 0.75 83 352.9375] CT
0.149 GC
/Helvetica 13 F
GS
[1 0 0 1 0 0] CT
-28.945 4.5 moveto 
1 -1 scale
(0.05) t 
GR
GR
GS
[0.75 0 0 0.75 83 307.375] CT
0.149 GC
/Helvetica 13 F
GS
[1 0 0 1 0 0] CT
-20.674 4.5 moveto 
1 -1 scale
(0.1) t 
GR
GR
GS
[0.75 0 0 0.75 83 261.8125] CT
0.149 GC
/Helvetica 13 F
GS
[1 0 0 1 0 0] CT
-28.945 4.5 moveto 
1 -1 scale
(0.15) t 
GR
GR
GS
[0.75 0 0 0.75 83 216.25] CT
0.149 GC
/Helvetica 13 F
GS
[1 0 0 1 0 0] CT
-20.674 4.5 moveto 
1 -1 scale
(0.2) t 
GR
GR
GS
[0.75 0 0 0.75 83 170.6875] CT
0.149 GC
/Helvetica 13 F
GS
[1 0 0 1 0 0] CT
-28.945 4.5 moveto 
1 -1 scale
(0.25) t 
GR
GR
GS
[0.75 0 0 0.75 83 125.12499] CT
0.149 GC
/Helvetica 13 F
GS
[1 0 0 1 0 0] CT
-20.674 4.5 moveto 
1 -1 scale
(0.3) t 
GR
GR
GS
[0.75 0 0 0.75 83 79.56251] CT
0.149 GC
/Helvetica 13 F
GS
[1 0 0 1 0 0] CT
-28.945 4.5 moveto 
1 -1 scale
(0.35) t 
GR
GR
GS
[0.75 0 0 0.75 83 33.99999] CT
0.149 GC
/Helvetica 13 F
GS
[1 0 0 1 0 0] CT
-20.674 4.5 moveto 
1 -1 scale
(0.4) t 
GR
GR
GS
[0.75 0 0 0.75 0 0.25] CT
[2 2] 0 setdash
2 LJ
2.667 LW
N
178.37 421.672 M
185.3 429.257 L
192.23 434.622 L
199.16 437.762 L
206.09 439.624 L
213.02 440.14 L
219.95 439.668 L
226.88 438.143 L
233.81 435.667 L
240.74 432.276 L
247.67 427.963 L
254.6 422.741 L
261.53 416.403 L
268.46 409.54 L
275.39 401.879 L
282.32 393.513 L
289.25 384.623 L
296.18 373.508 L
303.11 361.668 L
310.04 348.327 L
316.97 343.438 L
323.9 343.564 L
330.83 344.009 L
337.76 343.978 L
344.69 343.471 L
351.62 343.05 L
358.55 341.683 L
365.48 340.297 L
372.41 339.704 L
379.34 338.473 L
386.27 337.227 L
393.2 335.934 L
400.13 334.197 L
407.06 332.305 L
413.99 330.22 L
420.92 328.153 L
427.85 326.687 L
434.78 324.43 L
441.71 321.846 L
448.64 319.911 L
455.57 317.425 L
462.5 314.487 L
469.43 312.247 L
476.36 309.514 L
483.29 307.067 L
490.22 304.639 L
497.15 302.212 L
504.08 299.686 L
511.01 297.276 L
517.94 294.562 L
524.87 291.913 L
531.8 289.268 L
538.73 286.163 L
545.66 283.31 L
552.59 280.563 L
559.52 278.159 L
566.45 275.559 L
573.38 273.149 L
580.31 269.53 L
587.24 267.918 L
594.17 264.942 L
601.1 261.754 L
608.03 259.637 L
614.96 256.589 L
621.89 253.974 L
628.82 250.692 L
635.75 248.317 L
642.68 245.123 L
649.61 241.794 L
656.54 238.262 L
663.47 235.848 L
670.4 232.732 L
677.33 229.705 L
684.26 226.319 L
691.19 223.153 L
698.12 219.718 L
705.05 216.046 L
711.98 211.26 L
718.91 208.198 L
725.84 204.613 L
732.77 200.348 L
739.7 195.577 L
746.63 189.036 L
753.56 182.394 L
760.49 176.425 L
767.42 165.207 L
774.35 154.566 L
781.28 142.475 L
788.21 124.031 L
795.14 101.006 L
802.07 56.716 L
S
GR
GS
[0.75 0 0 0.75 0 0.25] CT
0.4 0.4 1 RC
[2 2] 0 setdash
2 LJ
2.667 LW
N
178.37 458.887 M
185.3 459.392 L
192.23 460.258 L
199.16 459.646 L
206.09 457.932 L
213.02 455.127 L
219.95 451.539 L
226.88 446.375 L
233.81 441.365 L
240.74 436.203 L
247.67 429.346 L
254.6 422.658 L
261.53 414.345 L
268.46 403.904 L
275.39 391.143 L
282.32 377.183 L
289.25 361.259 L
296.18 346.686 L
303.11 329.777 L
310.04 312.901 L
316.97 290.259 L
323.9 266.724 L
330.83 242.229 L
337.76 215.448 L
344.69 186.268 L
351.62 156.71 L
358.55 123.997 L
365.48 87.611 L
372.41 49.954 L
S
GR
GS
[0.75 0 0 0.75 0 0.25] CT
0.4 1 0.4 RC
[2 2] 0 setdash
2 LJ
2.667 LW
N
178.37 120.371 M
185.3 165.981 L
192.23 203.326 L
199.16 230.369 L
206.09 249.038 L
213.02 267.407 L
219.95 281.645 L
226.88 292.247 L
233.81 300.671 L
240.74 306.942 L
247.67 312.472 L
254.6 316.372 L
261.53 320.545 L
268.46 320.467 L
275.39 321.034 L
282.32 320.875 L
289.25 319.561 L
296.18 317.677 L
303.11 316.286 L
310.04 318.386 L
316.97 318.886 L
323.9 318.807 L
330.83 318.301 L
337.76 317.321 L
344.69 315.818 L
351.62 313.658 L
358.55 310.949 L
365.48 308.294 L
372.41 304.483 L
379.34 300.512 L
386.27 296.252 L
393.2 291.591 L
400.13 286.127 L
407.06 279.998 L
413.99 274.6 L
420.92 268.975 L
427.85 260.746 L
434.78 251.333 L
441.71 241.045 L
448.64 230.232 L
455.57 215.497 L
462.5 203.442 L
469.43 190.556 L
476.36 189.331 L
483.29 179.419 L
490.22 168.531 L
497.15 157.039 L
504.08 144.114 L
511.01 132.277 L
517.94 119.198 L
524.87 104.451 L
531.8 88.58 L
538.73 71.419 L
545.66 52.358 L
S
GR
GS
[0.75 0 0 0.75 0 0.25] CT
2 setlinecap
10.0 ML
N
178.37 318.601 M
185.3 333.484 L
192.23 343.717 L
199.16 351.074 L
206.09 352.516 L
213.02 355.362 L
219.95 355.879 L
226.88 356.703 L
233.81 355.353 L
240.74 353.36 L
247.67 348.243 L
254.6 346.274 L
261.53 342.092 L
268.46 337.797 L
275.39 332.305 L
282.32 326.544 L
289.25 322.426 L
296.18 316.275 L
303.11 310.086 L
310.04 308.383 L
316.97 304.392 L
323.9 299.719 L
330.83 295.853 L
337.76 291.371 L
344.69 286.808 L
351.62 282.279 L
358.55 277.256 L
365.48 272.409 L
372.41 268.098 L
379.34 263.483 L
386.27 260.535 L
393.2 257.203 L
400.13 253.816 L
407.06 250.85 L
413.99 247.314 L
420.92 243.531 L
427.85 240.184 L
434.78 236.981 L
441.71 233.038 L
448.64 229.488 L
455.57 225.859 L
462.5 222.897 L
469.43 219.148 L
476.36 215.517 L
483.29 211.938 L
490.22 208.309 L
497.15 204.596 L
504.08 200.91 L
511.01 197.021 L
517.94 193.115 L
524.87 188.843 L
531.8 185.392 L
538.73 181.537 L
545.66 177.606 L
552.59 173.266 L
559.52 169.502 L
566.45 164.971 L
573.38 160.354 L
580.31 155.783 L
587.24 150.928 L
594.17 145.998 L
601.1 141.036 L
608.03 135.711 L
614.96 130.085 L
621.89 124.12 L
628.82 117.652 L
635.75 111.353 L
642.68 104.291 L
649.61 97.077 L
656.54 89.633 L
663.47 82.632 L
670.4 74.64 L
677.33 66.864 L
684.26 58.4 L
691.19 49.879 L
S
GR
GS
[0.75 0 0 0.75 0 0.25] CT
0 0 1 RC
2 setlinecap
10.0 ML
N
178.37 481.888 M
185.3 482.95 L
192.23 481.942 L
199.16 479.868 L
206.09 476.996 L
213.02 473.711 L
219.95 469.118 L
226.88 463.052 L
233.81 455.957 L
240.74 447.284 L
247.67 437.636 L
254.6 426.141 L
261.53 412.448 L
268.46 394.89 L
275.39 374.197 L
282.32 350.798 L
289.25 326.934 L
296.18 299.711 L
303.11 272.012 L
310.04 240.625 L
316.97 207.875 L
323.9 169.642 L
330.83 128.016 L
337.76 83.931 L
344.69 48.272 L
S
GR
GS
[0.75 0 0 0.75 0 0.25] CT
0 1 0 RC
2 setlinecap
10.0 ML
N
185.3 66.168 M
192.23 95.716 L
199.16 119.057 L
206.09 139.801 L
213.02 154.995 L
219.95 166.364 L
226.88 167.67 L
233.81 172.284 L
240.74 173.739 L
247.67 170.062 L
254.6 184.41 L
261.53 197.661 L
268.46 208.85 L
275.39 219.754 L
282.32 228.184 L
289.25 231.548 L
296.18 237.597 L
303.11 243.404 L
310.04 249.067 L
316.97 253.509 L
323.9 256.625 L
330.83 259.689 L
337.76 262.08 L
344.69 263.749 L
351.62 266.605 L
358.55 267.549 L
365.48 268.588 L
372.41 269.144 L
379.34 268.661 L
386.27 267.241 L
393.2 266.417 L
400.13 264.618 L
407.06 262.289 L
413.99 259.465 L
420.92 256.279 L
427.85 252.139 L
434.78 247.36 L
441.71 241.999 L
448.64 236.218 L
455.57 230.148 L
462.5 223.843 L
469.43 217.225 L
476.36 214.922 L
483.29 209.859 L
490.22 205.374 L
497.15 200.501 L
504.08 195.369 L
511.01 189.475 L
517.94 184.915 L
524.87 179.532 L
531.8 173.606 L
538.73 167.967 L
545.66 161.992 L
552.59 155.741 L
559.52 149.476 L
566.45 143.059 L
573.38 137.307 L
580.31 130.542 L
587.24 124.165 L
594.17 117.814 L
601.1 111.18 L
608.03 104.854 L
614.96 94.868 L
621.89 88.902 L
628.82 82.646 L
635.75 76.657 L
642.68 69.943 L
649.61 63.605 L
656.54 57.11 L
663.47 50.517 L
S
GR
GS
[0.75 0 0 0.75 0 0.25] CT
1 GC
N
683 107 M
683 58 L
796 58 L
796 107 L
cp
f
GR
GS
[0.75 0 0 0.75 551.30672 51.05193] CT
/Helvetica 12 F
GS
[1 0 0 1 0 0] CT
0 4.154 moveto 
1 -1 scale
(Trotting) t 
GR
GR
GS
[0.75 0 0 0.75 0 0.25] CT
[2 2] 0 setdash
2 LJ
2.667 LW
N
691.012 67.736 M
731.07 67.736 L
S
GR
GS
[0.75 0 0 0.75 551.30672 62.125] CT
/Helvetica 12 F
GS
[1 0 0 1 0 0] CT
0 4.154 moveto 
1 -1 scale
(Walking) t 
GR
GR
GS
[0.75 0 0 0.75 0 0.25] CT
0.4 0.4 1 RC
[2 2] 0 setdash
2 LJ
2.667 LW
N
691.012 82.5 M
731.07 82.5 L
S
GR
GS
[0.75 0 0 0.75 551.30672 73.19807] CT
/Helvetica 12 F
GS
[1 0 0 1 0 0] CT
0 4.154 moveto 
1 -1 scale
(Galloping) t 
GR
GR
GS
[0.75 0 0 0.75 0 0.25] CT
0.4 1 0.4 RC
[2 2] 0 setdash
2 LJ
2.667 LW
N
691.012 97.264 M
731.07 97.264 L
S
GR
GS
[0.75 0 0 0.75 0 0.25] CT
0.149 GC
2 setlinecap
10.0 ML
N
683 107 M
683 58 L
796 58 L
796 107 L
683 107 L
S
GR
%%Trailer
%%Pages: 1
%%EOF
