%!PS-Adobe-3.0 EPSF-3.0
%%Creator: (MATLAB, The Mathworks, Inc. Version 8.4.0.150421 \(R2014b\). Operating System: Linux)
%%Title: /home/yevyes/Yev_Will/Figures/All_Gaits.eps
%%CreationDate: 2016-07-26T15:44:40
%%Pages: (atend)
%%BoundingBox: 0 0 392 311
%%LanguageLevel: 2
%%EndComments
%%BeginProlog
%%BeginResource: procset (Apache XML Graphics Std ProcSet) 1.2 0
%%Version: 1.2 0
%%Copyright: (Copyright 2001-2003,2010 The Apache Software Foundation. License terms: http://www.apache.org/licenses/LICENSE-2.0)
/bd{bind def}bind def
/ld{load def}bd
/GR/grestore ld
/M/moveto ld
/LJ/setlinejoin ld
/C/curveto ld
/f/fill ld
/LW/setlinewidth ld
/GC/setgray ld
/t/show ld
/N/newpath ld
/CT/concat ld
/cp/closepath ld
/S/stroke ld
/L/lineto ld
/CC/setcmykcolor ld
/A/ashow ld
/GS/gsave ld
/RC/setrgbcolor ld
/RM/rmoveto ld
/ML/setmiterlimit ld
/re {4 2 roll M
1 index 0 rlineto
0 exch rlineto
neg 0 rlineto
cp } bd
/_ctm matrix def
/_tm matrix def
/BT { _ctm currentmatrix pop matrix _tm copy pop 0 0 moveto } bd
/ET { _ctm setmatrix } bd
/iTm { _ctm setmatrix _tm concat } bd
/Tm { _tm astore pop iTm 0 0 moveto } bd
/ux 0.0 def
/uy 0.0 def
/F {
  /Tp exch def
  /Tf exch def
  Tf findfont Tp scalefont setfont
  /cf Tf def  /cs Tp def
} bd
/ULS {currentpoint /uy exch def /ux exch def} bd
/ULE {
  /Tcx currentpoint pop def
  gsave
  newpath
  cf findfont cs scalefont dup
  /FontMatrix get 0 get /Ts exch def /FontInfo get dup
  /UnderlinePosition get Ts mul /To exch def
  /UnderlineThickness get Ts mul /Tt exch def
  ux uy To add moveto  Tcx uy To add lineto
  Tt setlinewidth stroke
  grestore
} bd
/OLE {
  /Tcx currentpoint pop def
  gsave
  newpath
  cf findfont cs scalefont dup
  /FontMatrix get 0 get /Ts exch def /FontInfo get dup
  /UnderlinePosition get Ts mul /To exch def
  /UnderlineThickness get Ts mul /Tt exch def
  ux uy To add cs add moveto Tcx uy To add cs add lineto
  Tt setlinewidth stroke
  grestore
} bd
/SOE {
  /Tcx currentpoint pop def
  gsave
  newpath
  cf findfont cs scalefont dup
  /FontMatrix get 0 get /Ts exch def /FontInfo get dup
  /UnderlinePosition get Ts mul /To exch def
  /UnderlineThickness get Ts mul /Tt exch def
  ux uy To add cs 10 mul 26 idiv add moveto Tcx uy To add cs 10 mul 26 idiv add lineto
  Tt setlinewidth stroke
  grestore
} bd
/QT {
/Y22 exch store
/X22 exch store
/Y21 exch store
/X21 exch store
currentpoint
/Y21 load 2 mul add 3 div exch
/X21 load 2 mul add 3 div exch
/X21 load 2 mul /X22 load add 3 div
/Y21 load 2 mul /Y22 load add 3 div
/X22 load /Y22 load curveto
} bd
/SSPD {
dup length /d exch dict def
{
/v exch def
/k exch def
currentpagedevice k known {
/cpdv currentpagedevice k get def
v cpdv ne {
/upd false def
/nullv v type /nulltype eq def
/nullcpdv cpdv type /nulltype eq def
nullv nullcpdv or
{
/upd true def
} {
/sametype v type cpdv type eq def
sametype {
v type /arraytype eq {
/vlen v length def
/cpdvlen cpdv length def
vlen cpdvlen eq {
0 1 vlen 1 sub {
/i exch def
/obj v i get def
/cpdobj cpdv i get def
obj cpdobj ne {
/upd true def
exit
} if
} for
} {
/upd true def
} ifelse
} {
v type /dicttype eq {
v {
/dv exch def
/dk exch def
/cpddv cpdv dk get def
dv cpddv ne {
/upd true def
exit
} if
} forall
} {
/upd true def
} ifelse
} ifelse
} if
} ifelse
upd true eq {
d k v put
} if
} if
} if
} forall
d length 0 gt {
d setpagedevice
} if
} bd
%%EndResource
%%BeginResource: procset (Apache XML Graphics EPS ProcSet) 1.0 0
%%Version: 1.0 0
%%Copyright: (Copyright 2002-2003 The Apache Software Foundation. License terms: http://www.apache.org/licenses/LICENSE-2.0)
/BeginEPSF { %def
/b4_Inc_state save def         % Save state for cleanup
/dict_count countdictstack def % Count objects on dict stack
/op_count count 1 sub def      % Count objects on operand stack
userdict begin                 % Push userdict on dict stack
/showpage { } def              % Redefine showpage, { } = null proc
0 setgray 0 setlinecap         % Prepare graphics state
1 setlinewidth 0 setlinejoin
10 setmiterlimit [ ] 0 setdash newpath
/languagelevel where           % If level not equal to 1 then
{pop languagelevel             % set strokeadjust and
1 ne                           % overprint to their defaults.
{false setstrokeadjust false setoverprint
} if
} if
} bd
/EndEPSF { %def
count op_count sub {pop} repeat            % Clean up stacks
countdictstack dict_count sub {end} repeat
b4_Inc_state restore
} bd
%%EndResource
%FOPBeginFontDict
%%IncludeResource: font Courier-Bold
%%IncludeResource: font Helvetica
%%IncludeResource: font Courier-BoldOblique
%%IncludeResource: font Courier-Oblique
%%IncludeResource: font Times-Roman
%%IncludeResource: font Helvetica-BoldOblique
%%IncludeResource: font Helvetica-Bold
%%IncludeResource: font Helvetica-Oblique
%%IncludeResource: font Times-BoldItalic
%%IncludeResource: font Courier
%%IncludeResource: font Times-Italic
%%IncludeResource: font Times-Bold
%%IncludeResource: font Symbol
%%IncludeResource: font ZapfDingbats
%FOPEndFontDict
%%BeginResource: encoding WinAnsiEncoding
/WinAnsiEncoding [
/.notdef /.notdef /.notdef /.notdef /.notdef
/.notdef /.notdef /.notdef /.notdef /.notdef
/.notdef /.notdef /.notdef /.notdef /.notdef
/.notdef /.notdef /.notdef /.notdef /.notdef
/.notdef /.notdef /.notdef /.notdef /.notdef
/.notdef /.notdef /.notdef /.notdef /.notdef
/.notdef /.notdef /space /exclam /quotedbl
/numbersign /dollar /percent /ampersand /quotesingle
/parenleft /parenright /asterisk /plus /comma
/hyphen /period /slash /zero /one
/two /three /four /five /six
/seven /eight /nine /colon /semicolon
/less /equal /greater /question /at
/A /B /C /D /E
/F /G /H /I /J
/K /L /M /N /O
/P /Q /R /S /T
/U /V /W /X /Y
/Z /bracketleft /backslash /bracketright /asciicircum
/underscore /quoteleft /a /b /c
/d /e /f /g /h
/i /j /k /l /m
/n /o /p /q /r
/s /t /u /v /w
/x /y /z /braceleft /bar
/braceright /asciitilde /bullet /Euro /bullet
/quotesinglbase /florin /quotedblbase /ellipsis /dagger
/daggerdbl /circumflex /perthousand /Scaron /guilsinglleft
/OE /bullet /Zcaron /bullet /bullet
/quoteleft /quoteright /quotedblleft /quotedblright /bullet
/endash /emdash /asciitilde /trademark /scaron
/guilsinglright /oe /bullet /zcaron /Ydieresis
/space /exclamdown /cent /sterling /currency
/yen /brokenbar /section /dieresis /copyright
/ordfeminine /guillemotleft /logicalnot /sfthyphen /registered
/macron /degree /plusminus /twosuperior /threesuperior
/acute /mu /paragraph /middot /cedilla
/onesuperior /ordmasculine /guillemotright /onequarter /onehalf
/threequarters /questiondown /Agrave /Aacute /Acircumflex
/Atilde /Adieresis /Aring /AE /Ccedilla
/Egrave /Eacute /Ecircumflex /Edieresis /Igrave
/Iacute /Icircumflex /Idieresis /Eth /Ntilde
/Ograve /Oacute /Ocircumflex /Otilde /Odieresis
/multiply /Oslash /Ugrave /Uacute /Ucircumflex
/Udieresis /Yacute /Thorn /germandbls /agrave
/aacute /acircumflex /atilde /adieresis /aring
/ae /ccedilla /egrave /eacute /ecircumflex
/edieresis /igrave /iacute /icircumflex /idieresis
/eth /ntilde /ograve /oacute /ocircumflex
/otilde /odieresis /divide /oslash /ugrave
/uacute /ucircumflex /udieresis /yacute /thorn
/ydieresis
] def
%%EndResource
%FOPBeginFontReencode
/Courier-Bold findfont
dup length dict begin
  {1 index /FID ne {def} {pop pop} ifelse} forall
  /Encoding WinAnsiEncoding def
  currentdict
end
/Courier-Bold exch definefont pop
/Helvetica findfont
dup length dict begin
  {1 index /FID ne {def} {pop pop} ifelse} forall
  /Encoding WinAnsiEncoding def
  currentdict
end
/Helvetica exch definefont pop
/Courier-BoldOblique findfont
dup length dict begin
  {1 index /FID ne {def} {pop pop} ifelse} forall
  /Encoding WinAnsiEncoding def
  currentdict
end
/Courier-BoldOblique exch definefont pop
/Courier-Oblique findfont
dup length dict begin
  {1 index /FID ne {def} {pop pop} ifelse} forall
  /Encoding WinAnsiEncoding def
  currentdict
end
/Courier-Oblique exch definefont pop
/Times-Roman findfont
dup length dict begin
  {1 index /FID ne {def} {pop pop} ifelse} forall
  /Encoding WinAnsiEncoding def
  currentdict
end
/Times-Roman exch definefont pop
/Helvetica-BoldOblique findfont
dup length dict begin
  {1 index /FID ne {def} {pop pop} ifelse} forall
  /Encoding WinAnsiEncoding def
  currentdict
end
/Helvetica-BoldOblique exch definefont pop
/Helvetica-Bold findfont
dup length dict begin
  {1 index /FID ne {def} {pop pop} ifelse} forall
  /Encoding WinAnsiEncoding def
  currentdict
end
/Helvetica-Bold exch definefont pop
/Helvetica-Oblique findfont
dup length dict begin
  {1 index /FID ne {def} {pop pop} ifelse} forall
  /Encoding WinAnsiEncoding def
  currentdict
end
/Helvetica-Oblique exch definefont pop
/Times-BoldItalic findfont
dup length dict begin
  {1 index /FID ne {def} {pop pop} ifelse} forall
  /Encoding WinAnsiEncoding def
  currentdict
end
/Times-BoldItalic exch definefont pop
/Courier findfont
dup length dict begin
  {1 index /FID ne {def} {pop pop} ifelse} forall
  /Encoding WinAnsiEncoding def
  currentdict
end
/Courier exch definefont pop
/Times-Italic findfont
dup length dict begin
  {1 index /FID ne {def} {pop pop} ifelse} forall
  /Encoding WinAnsiEncoding def
  currentdict
end
/Times-Italic exch definefont pop
/Times-Bold findfont
dup length dict begin
  {1 index /FID ne {def} {pop pop} ifelse} forall
  /Encoding WinAnsiEncoding def
  currentdict
end
/Times-Bold exch definefont pop
%FOPEndFontReencode
%%EndProlog
%%Page: 1 1
%%PageBoundingBox: 0 0 392 311
%%BeginPageSetup
[1 0 0 -1 0 311] CT
%%EndPageSetup
GS
[0.75 0 0 0.75 0 0.5] CT
N
0 0 M
522 0 L
522 414 L
0 414 L
0 0 L
cp
clip
1 GC
N
0 0 522 414 re
f
GR
GS
[0.75 0 0 0.75 0 0.5] CT
N
0 0 M
522 0 L
522 414 L
0 414 L
0 0 L
cp
clip
1 GC
N
0 0 522 414 re
f
GR
GS
[0.75 0 0 0.75 0 0.5] CT
1 GC
N
68 368 M
472 368 L
472 31 L
68 31 L
cp
f
GR
GS
[0.75 0 0 0.75 0 0.5] CT
0.873 GC
2 setlinecap
10.0 ML
N
68 368 M
68 31 L
S
GR
GS
[0.75 0 0 0.75 0 0.5] CT
0.873 GC
2 setlinecap
10.0 ML
N
148.8 368 M
148.8 31 L
S
GR
GS
[0.75 0 0 0.75 0 0.5] CT
0.873 GC
2 setlinecap
10.0 ML
N
229.6 368 M
229.6 31 L
S
GR
GS
[0.75 0 0 0.75 0 0.5] CT
0.873 GC
2 setlinecap
10.0 ML
N
310.4 368 M
310.4 31 L
S
GR
GS
[0.75 0 0 0.75 0 0.5] CT
0.873 GC
2 setlinecap
10.0 ML
N
391.2 368 M
391.2 31 L
S
GR
GS
[0.75 0 0 0.75 0 0.5] CT
0.873 GC
2 setlinecap
10.0 ML
N
472 368 M
472 31 L
S
GR
GS
[0.75 0 0 0.75 0 0.5] CT
0.873 GC
2 setlinecap
10.0 ML
N
472 368 M
68 368 L
S
GR
GS
[0.75 0 0 0.75 0 0.5] CT
0.873 GC
2 setlinecap
10.0 ML
N
472 325.875 M
68 325.875 L
S
GR
GS
[0.75 0 0 0.75 0 0.5] CT
0.873 GC
2 setlinecap
10.0 ML
N
472 283.75 M
68 283.75 L
S
GR
GS
[0.75 0 0 0.75 0 0.5] CT
0.873 GC
2 setlinecap
10.0 ML
N
472 241.625 M
68 241.625 L
S
GR
GS
[0.75 0 0 0.75 0 0.5] CT
0.873 GC
2 setlinecap
10.0 ML
N
472 199.5 M
68 199.5 L
S
GR
GS
[0.75 0 0 0.75 0 0.5] CT
0.873 GC
2 setlinecap
10.0 ML
N
472 157.375 M
68 157.375 L
S
GR
GS
[0.75 0 0 0.75 0 0.5] CT
0.873 GC
2 setlinecap
10.0 ML
N
472 115.25 M
68 115.25 L
S
GR
GS
[0.75 0 0 0.75 0 0.5] CT
0.873 GC
2 setlinecap
10.0 ML
N
472 73.125 M
68 73.125 L
S
GR
GS
[0.75 0 0 0.75 0 0.5] CT
0.873 GC
2 setlinecap
10.0 ML
N
472 31 M
68 31 L
S
GR
GS
[0.75 0 0 0.75 0 0.5] CT
0.149 GC
2 setlinecap
10.0 ML
N
68 368 M
472 368 L
S
GR
GS
[0.75 0 0 0.75 0 0.5] CT
0.149 GC
2 setlinecap
10.0 ML
N
68 31 M
472 31 L
S
GR
GS
[0.75 0 0 0.75 0 0.5] CT
0.149 GC
2 setlinecap
10.0 ML
N
68 368 M
68 363.96 L
S
GR
GS
[0.75 0 0 0.75 0 0.5] CT
0.149 GC
2 setlinecap
10.0 ML
N
68 31 M
68 35.04 L
S
GR
GS
[0.75 0 0 0.75 0 0.5] CT
0.149 GC
2 setlinecap
10.0 ML
N
148.8 368 M
148.8 363.96 L
S
GR
GS
[0.75 0 0 0.75 0 0.5] CT
0.149 GC
2 setlinecap
10.0 ML
N
148.8 31 M
148.8 35.04 L
S
GR
GS
[0.75 0 0 0.75 0 0.5] CT
0.149 GC
2 setlinecap
10.0 ML
N
229.6 368 M
229.6 363.96 L
S
GR
GS
[0.75 0 0 0.75 0 0.5] CT
0.149 GC
2 setlinecap
10.0 ML
N
229.6 31 M
229.6 35.04 L
S
GR
GS
[0.75 0 0 0.75 0 0.5] CT
0.149 GC
2 setlinecap
10.0 ML
N
310.4 368 M
310.4 363.96 L
S
GR
GS
[0.75 0 0 0.75 0 0.5] CT
0.149 GC
2 setlinecap
10.0 ML
N
310.4 31 M
310.4 35.04 L
S
GR
GS
[0.75 0 0 0.75 0 0.5] CT
0.149 GC
2 setlinecap
10.0 ML
N
391.2 368 M
391.2 363.96 L
S
GR
GS
[0.75 0 0 0.75 0 0.5] CT
0.149 GC
2 setlinecap
10.0 ML
N
391.2 31 M
391.2 35.04 L
S
GR
GS
[0.75 0 0 0.75 0 0.5] CT
0.149 GC
2 setlinecap
10.0 ML
N
472 368 M
472 363.96 L
S
GR
GS
[0.75 0 0 0.75 0 0.5] CT
0.149 GC
2 setlinecap
10.0 ML
N
472 31 M
472 35.04 L
S
GR
GS
[0.75 0 0 0.75 51 280.50001] CT
0.149 GC
/Helvetica 13 F
GS
[1 0 0 1 0 0] CT
-4.135 12.067 moveto 
1 -1 scale
(0) t 
GR
GR
GS
[0.75 0 0 0.75 111.6 280.50001] CT
0.149 GC
/Helvetica 13 F
GS
[1 0 0 1 0 0] CT
-10.337 12.067 moveto 
1 -1 scale
(0.5) t 
GR
GR
GS
[0.75 0 0 0.75 172.2 280.50001] CT
0.149 GC
/Helvetica 13 F
GS
[1 0 0 1 0 0] CT
-4.135 12.067 moveto 
1 -1 scale
(1) t 
GR
GR
GS
[0.75 0 0 0.75 232.8 280.50001] CT
0.149 GC
/Helvetica 13 F
GS
[1 0 0 1 0 0] CT
-10.337 12.067 moveto 
1 -1 scale
(1.5) t 
GR
GR
GS
[0.75 0 0 0.75 293.40001 280.50001] CT
0.149 GC
/Helvetica 13 F
GS
[1 0 0 1 0 0] CT
-4.135 12.067 moveto 
1 -1 scale
(2) t 
GR
GR
GS
[0.75 0 0 0.75 354 280.50001] CT
0.149 GC
/Helvetica 13 F
GS
[1 0 0 1 0 0] CT
-10.337 12.067 moveto 
1 -1 scale
(2.5) t 
GR
GR
GS
[0.75 0 0 0.75 0 0.5] CT
0.149 GC
2 setlinecap
10.0 ML
N
68 368 M
68 31 L
S
GR
GS
[0.75 0 0 0.75 0 0.5] CT
0.149 GC
2 setlinecap
10.0 ML
N
472 368 M
472 31 L
S
GR
GS
[0.75 0 0 0.75 0 0.5] CT
0.149 GC
2 setlinecap
10.0 ML
N
68 368 M
72.04 368 L
S
GR
GS
[0.75 0 0 0.75 0 0.5] CT
0.149 GC
2 setlinecap
10.0 ML
N
472 368 M
467.96 368 L
S
GR
GS
[0.75 0 0 0.75 0 0.5] CT
0.149 GC
2 setlinecap
10.0 ML
N
68 325.875 M
72.04 325.875 L
S
GR
GS
[0.75 0 0 0.75 0 0.5] CT
0.149 GC
2 setlinecap
10.0 ML
N
472 325.875 M
467.96 325.875 L
S
GR
GS
[0.75 0 0 0.75 0 0.5] CT
0.149 GC
2 setlinecap
10.0 ML
N
68 283.75 M
72.04 283.75 L
S
GR
GS
[0.75 0 0 0.75 0 0.5] CT
0.149 GC
2 setlinecap
10.0 ML
N
472 283.75 M
467.96 283.75 L
S
GR
GS
[0.75 0 0 0.75 0 0.5] CT
0.149 GC
2 setlinecap
10.0 ML
N
68 241.625 M
72.04 241.625 L
S
GR
GS
[0.75 0 0 0.75 0 0.5] CT
0.149 GC
2 setlinecap
10.0 ML
N
472 241.625 M
467.96 241.625 L
S
GR
GS
[0.75 0 0 0.75 0 0.5] CT
0.149 GC
2 setlinecap
10.0 ML
N
68 199.5 M
72.04 199.5 L
S
GR
GS
[0.75 0 0 0.75 0 0.5] CT
0.149 GC
2 setlinecap
10.0 ML
N
472 199.5 M
467.96 199.5 L
S
GR
GS
[0.75 0 0 0.75 0 0.5] CT
0.149 GC
2 setlinecap
10.0 ML
N
68 157.375 M
72.04 157.375 L
S
GR
GS
[0.75 0 0 0.75 0 0.5] CT
0.149 GC
2 setlinecap
10.0 ML
N
472 157.375 M
467.96 157.375 L
S
GR
GS
[0.75 0 0 0.75 0 0.5] CT
0.149 GC
2 setlinecap
10.0 ML
N
68 115.25 M
72.04 115.25 L
S
GR
GS
[0.75 0 0 0.75 0 0.5] CT
0.149 GC
2 setlinecap
10.0 ML
N
472 115.25 M
467.96 115.25 L
S
GR
GS
[0.75 0 0 0.75 0 0.5] CT
0.149 GC
2 setlinecap
10.0 ML
N
68 73.125 M
72.04 73.125 L
S
GR
GS
[0.75 0 0 0.75 0 0.5] CT
0.149 GC
2 setlinecap
10.0 ML
N
472 73.125 M
467.96 73.125 L
S
GR
GS
[0.75 0 0 0.75 0 0.5] CT
0.149 GC
2 setlinecap
10.0 ML
N
68 31 M
72.04 31 L
S
GR
GS
[0.75 0 0 0.75 0 0.5] CT
0.149 GC
2 setlinecap
10.0 ML
N
472 31 M
467.96 31 L
S
GR
GS
[0.75 0 0 0.75 47 276.5] CT
0.149 GC
/Helvetica 13 F
GS
[1 0 0 1 0 0] CT
-8.271 4.5 moveto 
1 -1 scale
(0) t 
GR
GR
GS
[0.75 0 0 0.75 47 244.90625] CT
0.149 GC
/Helvetica 13 F
GS
[1 0 0 1 0 0] CT
-28.945 4.5 moveto 
1 -1 scale
(0.05) t 
GR
GR
GS
[0.75 0 0 0.75 47 213.3125] CT
0.149 GC
/Helvetica 13 F
GS
[1 0 0 1 0 0] CT
-20.674 4.5 moveto 
1 -1 scale
(0.1) t 
GR
GR
GS
[0.75 0 0 0.75 47 181.71875] CT
0.149 GC
/Helvetica 13 F
GS
[1 0 0 1 0 0] CT
-28.945 4.5 moveto 
1 -1 scale
(0.15) t 
GR
GR
GS
[0.75 0 0 0.75 47 150.125] CT
0.149 GC
/Helvetica 13 F
GS
[1 0 0 1 0 0] CT
-20.674 4.5 moveto 
1 -1 scale
(0.2) t 
GR
GR
GS
[0.75 0 0 0.75 47 118.53125] CT
0.149 GC
/Helvetica 13 F
GS
[1 0 0 1 0 0] CT
-28.945 4.5 moveto 
1 -1 scale
(0.25) t 
GR
GR
GS
[0.75 0 0 0.75 47 86.93749] CT
0.149 GC
/Helvetica 13 F
GS
[1 0 0 1 0 0] CT
-20.674 4.5 moveto 
1 -1 scale
(0.3) t 
GR
GR
GS
[0.75 0 0 0.75 47 55.34376] CT
0.149 GC
/Helvetica 13 F
GS
[1 0 0 1 0 0] CT
-28.945 4.5 moveto 
1 -1 scale
(0.35) t 
GR
GR
GS
[0.75 0 0 0.75 47 23.75] CT
0.149 GC
/Helvetica 13 F
GS
[1 0 0 1 0 0] CT
-20.674 4.5 moveto 
1 -1 scale
(0.4) t 
GR
GR
GS
[0.75 0 0 0.75 0 0.5] CT
[10 6] 0 setdash
2 LJ
N
104.36 294.542 M
108.4 299.378 L
112.44 302.646 L
116.48 304.66 L
120.52 305.489 L
124.56 305.288 L
128.6 304.48 L
132.64 302.97 L
136.68 300.63 L
140.72 297.557 L
144.76 294.022 L
148.8 289.716 L
152.84 284.493 L
156.88 278.478 L
160.92 271.569 L
164.96 263.571 L
169 254.589 L
173.04 244.533 L
177.08 233.977 L
181.12 234.861 L
185.16 235.57 L
189.2 235.723 L
193.24 236.02 L
197.28 236.033 L
201.32 236.203 L
205.36 235.816 L
209.4 235.416 L
213.44 235.113 L
217.48 234.272 L
221.52 233.526 L
225.56 232.301 L
229.6 230.894 L
233.64 229.466 L
237.68 228.27 L
241.72 226.729 L
245.76 225.156 L
249.8 223.632 L
253.84 221.826 L
257.88 220.14 L
261.92 219.771 L
265.96 218.428 L
270 217.151 L
274.04 215.734 L
278.08 214.042 L
282.12 212.394 L
286.16 210.95 L
290.2 209.432 L
294.24 208.207 L
298.28 206.63 L
302.32 205.215 L
306.36 203.347 L
310.4 202.122 L
314.44 200.452 L
318.48 198.593 L
322.52 196.731 L
326.56 195.214 L
330.6 193.42 L
334.64 191.92 L
338.68 190.464 L
342.72 188.434 L
346.76 187.106 L
350.8 185.426 L
354.84 183.362 L
358.88 181.681 L
362.92 179.926 L
366.96 178.104 L
371 176.251 L
375.04 174.348 L
379.08 172.461 L
383.12 170.485 L
387.16 168.602 L
391.2 166.328 L
395.24 164.171 L
399.28 161.591 L
403.32 158.777 L
407.36 156.756 L
411.4 154.06 L
415.44 150.98 L
419.48 147.67 L
423.52 143.704 L
427.56 139.274 L
431.6 133.491 L
435.64 126.428 L
439.68 117.873 L
443.72 107.326 L
447.76 92.339 L
451.8 64.686 L
S
GR
GS
[0.75 0 0 0.75 0 0.5] CT
0.4 0.4 1 RC
[10 6] 0 setdash
2 LJ
N
104.36 316.065 M
108.4 317.666 L
112.44 318.135 L
116.48 317.809 L
120.52 316.745 L
124.56 315.199 L
128.6 313.196 L
132.64 310.424 L
136.68 306.964 L
140.72 303.442 L
144.76 299.086 L
148.8 294.986 L
152.84 289.642 L
156.88 283.832 L
160.92 276.953 L
164.96 268.888 L
169 260.058 L
173.04 251.081 L
177.08 239.206 L
181.12 227.352 L
185.16 212.716 L
189.2 196.275 L
193.24 179.386 L
197.28 163.575 L
201.32 144.596 L
205.36 123.816 L
209.4 99.9 L
213.44 79.674 L
217.48 54.691 L
S
GR
GS
[0.75 0 0 0.75 0 0.5] CT
0.502 1 0.102 RC
[10 6] 0 setdash
2 LJ
N
108.4 61.602 M
112.44 86.466 L
116.48 112.968 L
120.52 132.044 L
124.56 156.433 L
128.6 158.297 L
132.64 168.358 L
136.68 178.409 L
140.72 186.535 L
144.76 202.493 L
148.8 199.63 L
152.84 204.627 L
156.88 208.751 L
160.92 210.82 L
164.96 212.905 L
169 213.182 L
173.04 214.253 L
177.08 215.13 L
181.12 215.306 L
185.16 215.084 L
189.2 214.679 L
193.24 213.882 L
197.28 212.752 L
201.32 212.106 L
205.36 211.34 L
209.4 209.988 L
213.44 208.148 L
217.48 205.735 L
221.52 203.2 L
225.56 205.84 L
229.6 196.228 L
233.64 192.745 L
237.68 188.089 L
241.72 183.07 L
245.76 177.456 L
249.8 171.905 L
253.84 165.968 L
257.88 159.565 L
261.92 152.972 L
265.96 145.966 L
270 138.859 L
274.04 131.726 L
278.08 124.187 L
282.12 115.96 L
286.16 107.493 L
290.2 99.266 L
294.24 90.297 L
298.28 81.17 L
302.32 80.919 L
306.36 72.368 L
310.4 63.923 L
314.44 54.599 L
318.48 44.74 L
322.52 34.349 L
S
GR
GS
[0.75 0 0 0.75 0 0.5] CT
2 setlinecap
10.0 ML
N
104.36 220.719 M
108.4 231.039 L
112.44 238.135 L
116.48 243.236 L
120.52 244.236 L
124.56 246.21 L
128.6 246.568 L
132.64 247.14 L
136.68 246.203 L
140.72 244.822 L
144.76 241.274 L
148.8 239.908 L
152.84 237.008 L
156.88 234.03 L
160.92 230.222 L
164.96 226.227 L
169 223.371 L
173.04 219.106 L
177.08 214.814 L
181.12 213.634 L
185.16 210.866 L
189.2 207.626 L
193.24 204.945 L
197.28 201.838 L
201.32 198.673 L
205.36 195.533 L
209.4 192.05 L
213.44 188.689 L
217.48 185.7 L
221.52 182.499 L
225.56 180.455 L
229.6 178.145 L
233.64 175.797 L
237.68 173.74 L
241.72 171.288 L
245.76 168.665 L
249.8 166.344 L
253.84 164.122 L
257.88 161.388 L
261.92 158.927 L
265.96 156.411 L
270 154.357 L
274.04 151.757 L
278.08 149.239 L
282.12 146.758 L
286.16 144.241 L
290.2 141.667 L
294.24 139.111 L
298.28 136.414 L
302.32 133.705 L
306.36 130.743 L
310.4 128.35 L
314.44 125.677 L
318.48 122.951 L
322.52 119.942 L
326.56 117.332 L
330.6 114.19 L
334.64 110.988 L
338.68 107.818 L
342.72 104.452 L
346.76 101.034 L
350.8 97.593 L
354.84 93.901 L
358.88 89.999 L
362.92 85.863 L
366.96 81.378 L
371 77.01 L
375.04 72.113 L
379.08 67.111 L
383.12 61.949 L
387.16 57.095 L
391.2 51.553 L
395.24 46.161 L
399.28 40.291 L
403.32 34.383 L
S
GR
GS
[0.75 0 0 0.75 0 0.5] CT
0 0 1 RC
2 setlinecap
10.0 ML
N
104.36 333.945 M
108.4 334.682 L
112.44 333.982 L
116.48 332.544 L
120.52 330.553 L
124.56 328.275 L
128.6 325.09 L
132.64 320.884 L
136.68 315.964 L
140.72 309.95 L
144.76 303.26 L
148.8 295.289 L
152.84 285.794 L
156.88 273.619 L
160.92 259.27 L
164.96 243.045 L
169 226.497 L
173.04 207.621 L
177.08 188.414 L
181.12 166.65 L
185.16 143.94 L
189.2 117.429 L
193.24 88.565 L
197.28 57.995 L
201.32 33.269 L
S
GR
GS
[0.75 0 0 0.75 0 0.5] CT
0 1 0 RC
2 setlinecap
10.0 ML
N
108.4 45.678 M
112.44 66.167 L
116.48 82.352 L
120.52 96.737 L
124.56 107.272 L
128.6 115.156 L
132.64 116.061 L
136.68 119.261 L
140.72 120.27 L
144.76 117.72 L
148.8 127.669 L
152.84 136.857 L
156.88 144.616 L
160.92 152.177 L
164.96 158.023 L
169 160.355 L
173.04 164.55 L
177.08 168.577 L
181.12 172.503 L
185.16 175.583 L
189.2 177.744 L
193.24 179.869 L
197.28 181.526 L
201.32 182.684 L
205.36 184.664 L
209.4 185.319 L
213.44 186.04 L
217.48 186.425 L
221.52 186.09 L
225.56 185.105 L
229.6 184.534 L
233.64 183.286 L
237.68 181.672 L
241.72 179.713 L
245.76 177.504 L
249.8 174.634 L
253.84 171.32 L
257.88 167.603 L
261.92 163.594 L
265.96 159.385 L
270 155.013 L
274.04 150.423 L
278.08 148.827 L
282.12 145.316 L
286.16 142.206 L
290.2 138.827 L
294.24 135.268 L
298.28 131.181 L
302.32 128.019 L
306.36 124.286 L
310.4 120.177 L
314.44 116.267 L
318.48 112.124 L
322.52 107.789 L
326.56 103.446 L
330.6 98.996 L
334.64 95.007 L
338.68 90.316 L
342.72 85.894 L
346.76 81.49 L
350.8 76.89 L
354.84 72.503 L
358.88 65.579 L
362.92 61.443 L
366.96 57.105 L
371 52.951 L
375.04 48.296 L
379.08 43.901 L
383.12 39.397 L
387.16 34.826 L
S
GR
GS
[0.75 0 0 0.75 0 0.5] CT
1 GC
N
346 93 M
346 44 L
459 44 L
459 93 L
cp
f
GR
GS
[0.75 0 0 0.75 298.55672 40.80193] CT
/Helvetica 12 F
GS
[1 0 0 1 0 0] CT
0 4.154 moveto 
1 -1 scale
(Trotting) t 
GR
GR
GS
[0.75 0 0 0.75 0 0.5] CT
[10 6] 0 setdash
2 LJ
N
354.012 53.736 M
394.07 53.736 L
S
GR
GS
[0.75 0 0 0.75 298.55672 51.875] CT
/Helvetica 12 F
GS
[1 0 0 1 0 0] CT
0 4.154 moveto 
1 -1 scale
(Walking) t 
GR
GR
GS
[0.75 0 0 0.75 0 0.5] CT
0.4 0.4 1 RC
[10 6] 0 setdash
2 LJ
N
354.012 68.5 M
394.07 68.5 L
S
GR
GS
[0.75 0 0 0.75 298.55672 62.94807] CT
/Helvetica 12 F
GS
[1 0 0 1 0 0] CT
0 4.154 moveto 
1 -1 scale
(Galloping) t 
GR
GR
GS
[0.75 0 0 0.75 0 0.5] CT
0.502 1 0.102 RC
[10 6] 0 setdash
2 LJ
N
354.012 83.264 M
394.07 83.264 L
S
GR
GS
[0.75 0 0 0.75 0 0.5] CT
0.149 GC
2 setlinecap
10.0 ML
N
346 93 M
346 44 L
459 44 L
459 93 L
346 93 L
S
GR
%%Trailer
%%Pages: 1
%%EOF
